

[9999 Gold Bars]
00A14AD8 0000270F

[Max Attack for Slot 1 Pokemon]
00A13104 000000FF
00A13108 000000FF

[Max Sp Attack for Slot 1 Pokemon]
00A13114 000000FF
00A13118 000000FF

[Max Defense for Slot 1 Pokemon]
00A1310C 000000FF
00A13110 000000FF

[Max Sp Defense for Slot 1 Pokemon]
00A1311C 000000FF
00A13120 000000FF

[Max Speed for Slot 1 Pokemon]
00A1313C 000000FF
00A13140 000000FF

[Max Attack for Slot 2 Pokemon]
00A1320C 000000FF
00A13210 000000FF

[Max Sp Attack for Slot 2 Pokemon]
00A1321C 000000FF
00A13220 000000FF

[Max Defense for Slot 2 Pokemon]
00A13214 000000FF
00A13218 000000FF

[Max Sp Defense for Slot 2 Pokemon]
00A13224 000000FF
00A13228 000000FF

[Max Speed for Slot 2 Pokemon]
00A13244 000000FF
00A13248 000000FF

[Max Attack for Slot 3 Pokemon]
00A13314 000000FF
00A13318 000000FF

[Max Sp Attack for Slot 3 Pokemon]
00A13324 000000FF
00A13328 000000FF

[Max Defense for Slot 3 Pokemon]
00A1331C 000000FF
00A13320 000000FF

[Max Sp Defense for Slot 3 Pokemon]
00A1332C 000000FF
00A13330 000000FF

[Max Speed for Slot 3 Pokemon]
00A1334C 000000FF
00A13350 000000FF

[Max Stats for All Slots]
00A130D0 000001F4
00A130D4 000001F4
00A13104 000000FF
00A13108 000000FF
00A13114 000000FF
00A13118 000000FF
00A1310C 000000FF
00A13110 000000FF
00A1311C 000000FF
00A13120 000000FF
00A1313C 000000FF
00A13140 000000FF
00A131D8 000001F4
00A131DD 000001F4
00A1320C 000000FF
00A13210 000000FF
00A1321C 000000FF
00A13220 000000FF
00A13214 000000FF
00A13218 000000FF
00A13224 000000FF
00A13228 000000FF
00A13244 000000FF
00A13248 000000FF
00A132E0 000001F4
00A132E4 000001F4
00A13314 000000FF
00A13318 000000FF
00A13324 000000FF
00A13328 000000FF
00A1331C 000000FF
00A13320 000000FF
00A1332C 000000FF
00A13330 000000FF
00A1334C 000000FF
00A13350 000000FF

[Max HP for Slot 1 Pokemon]
00A130D0 000001F4
00A130D4 000001F4

[Max HP for Slot 2 Pokemon]
00A131D8 000001F4
00A131DD 000001F4

[Max HP for Slot 3 Pokemon]
00A132E0 000001F4
00A132E4 000001F4

[$50000 In Bag]
00A14AC8 0000C350

[Infinite PP]
00A1319C 00000063
00A13178 00000063
00A13184 00000063
00A13190 00000063
00A132A4 00000063
00A13280 00000063
00A1328C 00000063
00A13298 00000063
00A13388 00000063
00A13394 00000063
00A133A0 00000063
00A133AC 00000063

[1st Pokemon Modifier]
10A1316C 00000142

[Money Modifier (SELECT+L/R)]
DD000000 00000204
DA000000 00A14AC8
D4000000 FFFFFFFF
D7000000 00A14AC8
D0000000 00000000
DD000000 00000104
DA000000 00A14AC8
D4000000 00000001
D7000000 00A14AC8
D0000000 00000000

[1st Pokemon ID = Current Money]
DA000000 00A14AC8
D7000000 00A1316C
D0000000 00000000

[Max team points]
00A150D4 000FF0B4

[2nd Pokemon Modifier]
10A13274 00000142

[2nd Pokemon ID = Current Money]
DA000000 00A14AC8
D7000000 00A13274
D0000000 00000000

[Edit 1st Pokemon's 1st move]
0894C5E8 00000000

[Edit 1st Pokemon's 2nd move]
0894C5F4 00000000

[Edit 1st Pokemon's 3rd move]
0894C600 00000000

[Item Hack (READ INFO!)]
1886AD90 00000063
1886AD88 00000001

[Fill My Belly]
00A130D8 00004E20
00A130E0 00004E20
00A130E8 00004E20

[Edit 1st pokemons 4th move]
0894C60C 00000000

[Edit 2nd pokemons 1st move]
0894C738 00000000

[Edit 2nd Pokemon's 2nd move]
0894C744 00000000

[Edit 2nd Pokemon's 3rd move]
0894C750 00000000

[Edit 2nd Pokemon's 4th move]
0894C60C 00000000

[Max EXP for Slots 1 through 3]
00A130E4 004C4B40
00A131EC 004C4B40
00A132F0 004C4B40