

[9 999 999 P]
D3000000 10000000
04EBDF30 0098967F

[Gold Coins x999]
D3000000 10000000
04EBE330 000003E7

[Blue Coins x999]
D3000000 10000000
04EBE328 000003E7

[Purple Coins x999]
D3000000 14000000
00EBE32E 000003E7

[White Coins x999]
D3000000 14000000
00EBE32C 000003E7

[Red Coins x999]
D3000000 14000000
00EBE32A 000003E7

[All items/techs. you own x99]
D3000000 10000000
C0000000 00000259
24EBEEA0 00000063
DC000000 00000010
D1000000 00000000

[All equip./EG you own x99]
D3000000 10000000
C0000000 000001B9
24EC154C 00000063
DC000000 00000014
D1000000 00000000

[125 characters max stats]
D3000000 10000000
C0000000 0000007C
04EA058C 03E703E7
04EA0590 FDE8FDE8
04EA0594 FDE8FDE8
04EA0598 FDE8FDE8
04EA059C FDE8FDE8
DC000000 0000013C
D1000000 00000000

[125 Char.Lvl99 after match]
D3000000 10000000
C0000000 0000007D
04EA0490 0098967F
DC000000 0000013C
D1000000 00000000

[125 characters Lvl255]
D3000000 10000000
C0000000 0000007D
24EA04A2 000000FF
DC000000 0000013C
D1000000 00000000

[All coins x999]
D3000000 10000000
04EBE328 03E703E7
04EBE32C 03E703E7
14EBE330 000003E7