

[Inf HP Siela]
18127474 000003E7

[Add 50 HP Siela (Press L)]
DD000000 00000200
DA000000 08127474
D4000000 00000032
D7000000 08127474
D2000000 00000000

[Inf MP Siela]
18127476 000003E7

[Add 50 MP Siela (Press L)]
DD000000 00000200
DA000000 08127476
D4000000 00000032
D7000000 08127476
D2000000 00000000

[Add 100 EP Siela (Press L)]
DD000000 00000200
D9000000 08127470
D4000000 00000064
D6000000 08127470
D2000000 00000000

[Max EP Siela]
08127470 00FFFFFF

[LVL 99 Siela (Press R)]
DD000000 00000100
2812746E 00000063
D2000000 00000000

[Max Stomage Siela (Press L)]
DD000000 00000200
1812747A 000003E7
D2000000 00000000

[Inf Stomage Siela]
1812747A 000003E7

[Max STR Siela (Press L)]
DD000000 00000200
181274D8 000003E7
D2000000 00000000

[Max VIT Siela (Press L)]
DD000000 00000200
181274DA 000003E7
D2000000 00000000

[Max INT Siela (Press L)]
DD000000 00000200
181274DC 000003E7
D2000000 00000000

[Max MEN Siela (Press L)]
DD000000 00000200
181274DE 000003E7
D2000000 00000000

[Max AGI Siela (Press L)]
DD000000 00000200
181274E0 000003E7
D2000000 00000000

[Max HIT Siela (Press L)]
DD000000 00000200
181274E2 000003E7
D2000000 00000000

[Max ADV Siela (Press L)]
DD000000 00000200
181274E4 000003E7
D2000000 00000000

[Max LUK Siela (Press L)]
DD000000 00000200
181274E6 000003E7
D2000000 00000000

[Max All Stats Siela (Press L)]
DD000000 00000200
C0000000 00000008
181274D8 000003E7
DC000000 00000002
D1000000 00000000
D2000000 00000000

[Max ElementEP 1 Siela (Press L)]
DD000000 00000200
18127488 0000270F
D2000000 00000000

[Max ElementEP 2 Siela (Press L)]
DD000000 00000200
1812748A 0000270F
D2000000 00000000

[Max ElementEP 3 Siela (Press L)]
DD000000 00000200
1812748C 0000270F
D2000000 00000000

[Max ElementEP 4 Siela (Press L)]
DD000000 00000200
1812748E 0000270F
D2000000 00000000

[Max ElementEP 5 Siela (Press L)]
DD000000 00000200
18127490 0000270F
D2000000 00000000

[Max All ElementEP Siela (Press L)]
DD000000 00000200
C0000000 00000005
18127488 0000270F
DC000000 00000002
D1000000 00000000
D2000000 00000000

[Have Skillset 1 Siela (Press R)]
DD000000 00000100
281274A8 000000FF
D2000000 00000000

[Have Skillset 2 Siela (Press R)]
DD000000 00000100
281274A9 000000FF
D2000000 00000000

[Have Skillset 3 Siela (Press R)]
DD000000 00000100
281274AA 0000000F
D2000000 00000000

[Have all Skills Siela (Press R)]
DD000000 00000100
081274A8 000FFFFF
D2000000 00000000

[Weapon Modifier Siela (Press UP)]
DD000000 00000040
28127498 00000011
D2000000 00000000

[Shield Modifier Siela (Press UP)]
DD000000 00000040
2812749A 00000011
D2000000 00000000

[Suit Modifier Siela (Press UP)]
DD000000 00000040
2812749C 00000011
D2000000 00000000

[Wearable Modifier Siela (Press UP)]
DD000000 00000040
2812749E 00000011
D2000000 00000000

[Inf HP Fred]
181275B4 000003E7

[Add 50 HP Fred (Press L)]
DD000000 00000200
DA000000 081275B4
D4000000 00000032
D7000000 081275B4
D2000000 00000000

[Inf MP Fred]
181275B6 000003E7

[Add 50 MP Fred (Press L)]
DD000000 00000200
DA000000 081275B6
D4000000 00000032
D7000000 081275B6
D2000000 00000000

[Add 100 EP Fred (Press L)]
DD000000 00000200
D9000000 081275B0
D4000000 00000064
D6000000 081275B0
D2000000 00000000

[Max EP Fred]
081275B0 00FFFFFF

[LVL 99 Fred (Press R)]
DD000000 00000100
281275AE 00000063
D2000000 00000000

[Max Stomage Fred (Press L)]
DD000000 00000200
181275BA 000003E7
D2000000 00000000

[Inf Stomage Fred]
181275BA 000003E7

[Max STR Fred (Press L)]
DD000000 00000200
18127518 000003E7
D2000000 00000000

[Max VIT Fred (Press L)]
DD000000 00000200
1812751A 000003E7
D2000000 00000000

[Max INT Fred (Press L)]
DD000000 00000200
1812751C 000003E7
D2000000 00000000

[Max MEN Fred (Press L)]
DD000000 00000200
1812751E 000003E7
D2000000 00000000

[Max AGI Fred (Press L)]
DD000000 00000200
18127520 000003E7
D2000000 00000000

[Max HIT Fred (Press L)]
DD000000 00000200
18127522 000003E7
D2000000 00000000

[Max ADV Fred (Press L)]
DD000000 00000200
18127524 000003E7
D2000000 00000000

[Max LUK Fred (Press L)]
DD000000 00000200
18127526 000003E7
D2000000 00000000

[Max All Stats Fred (Press L)]
DD000000 00000200
C0000000 00000008
18127518 000003E7
DC000000 00000002
D1000000 00000000
D2000000 00000000

[Max ElementEP 1 Fred (Press L)]
DD000000 00000200
181275C8 0000270F
D2000000 00000000

[Max ElementEP 2 Fred (Press L)]
DD000000 00000200
181275CA 0000270F
D2000000 00000000

[Max ElementEP 3 Fred (Press L)]
DD000000 00000200
181275CC 0000270F
D2000000 00000000

[Max ElementEP 4 Fred (Press L)]
DD000000 00000200
181275CE 0000270F
D2000000 00000000

[Max ElementEP 5 Fred (Press L)]
DD000000 00000200
181275D0 0000270F
D2000000 00000000

[Max All ElementEP Fred (Press L)]
DD000000 00000200
C0000000 00000005
181275C8 0000270F
DC000000 00000002
D1000000 00000000
D2000000 00000000

[Have Skillset 1 Fred (Press R)]
DD000000 00000100
281275E8 000000FF
D2000000 00000000

[Have Skillset 2 Fred (Press R)]
DD000000 00000100
281275E9 000000FF
D2000000 00000000

[Have Skillset 3 Fred (Press R)]
DD000000 00000100
281275EA 0000000F
D2000000 00000000

[Have all Skills Fred (Press R)]
DD000000 00000100
081275E8 000FFFFF
D2000000 00000000

[Weapon Modifier Fred (Press UP)]
DD000000 00000040
281275D8 00000011
D2000000 00000000

[Shield Modifier Fred (Press UP)]
DD000000 00000040
281275DA 00000011
D2000000 00000000

[Suit Modifier Fred (Press UP)]
DD000000 00000040
281275DC 00000011
D2000000 00000000

[Wearable Modifier Fred (Press UP)]
DD000000 00000040
281275DE 00000011
D2000000 00000000

[Inf HP Alfine]
181276F4 000003E7

[Add 50 HP Alfine (Press L)]
DD000000 00000200
DA000000 081276F4
D4000000 00000032
D7000000 081276F4
D2000000 00000000

[Inf MP Alfine]
181276F6 000003E7

[Add 50 MP Alfine (Press L)]
DD000000 00000200
DA000000 081276F6
D4000000 00000032
D7000000 081276F6
D2000000 00000000

[Add 100 EP Alfine (Press L)]
DD000000 00000200
D9000000 081276F0
D4000000 00000064
D6000000 081276F0
D2000000 00000000

[Max EP Alfine]
081276F0 00FFFFFF

[LVL 99 Alfine (Press R)]
DD000000 00000100
281276EE 00000063
D2000000 00000000

[Max Stomage Alfine (Press L)]
DD000000 00000200
181276FA 000003E7
D2000000 00000000

[Inf Stomage Alfine]
181276FA 000003E7

[Max STR Alfine (Press L)]
DD000000 00000200
18127658 000003E7
D2000000 00000000

[Max VIT Alfine (Press L)]
DD000000 00000200
1812765A 000003E7
D2000000 00000000

[Max INT Alfine (Press L)]
DD000000 00000200
1812765C 000003E7
D2000000 00000000

[Max MEN Alfine (Press L)]
DD000000 00000200
1812765E 000003E7
D2000000 00000000

[Max AGI Alfine (Press L)]
DD000000 00000200
18127660 000003E7
D2000000 00000000

[Max HIT Alfine (Press L)]
DD000000 00000200
18127662 000003E7
D2000000 00000000

[Max ADV Alfine (Press L)]
DD000000 00000200
18127664 000003E7
D2000000 00000000

[Max LUK Alfine (Press L)]
DD000000 00000200
18127666 000003E7
D2000000 00000000

[Max All Stats Alfine (Press L)]
DD000000 00000200
C0000000 00000008
18127658 000003E7
DC000000 00000002
D1000000 00000000
D2000000 00000000

[Max ElementEP 1 Alfine (Press L)]
DD000000 00000200
18127708 0000270F
D2000000 00000000

[Max ElementEP 2 Alfine (Press L)]
DD000000 00000200
1812770A 0000270F
D2000000 00000000

[Max ElementEP 3 Alfine (Press L)]
DD000000 00000200
1812770C 0000270F
D2000000 00000000

[Max ElementEP 4 Alfine (Press L)]
DD000000 00000200
1812770E 0000270F
D2000000 00000000

[Max ElementEP 5 Alfine (Press L)]
DD000000 00000200
18127710 0000270F
D2000000 00000000

[Max All ElementEP Alfine (Press L)]
DD000000 00000200
C0000000 00000005
18127708 0000270F
DC000000 00000002
D1000000 00000000
D2000000 00000000

[Have Skillset 1 Alfine (Press R)]
DD000000 00000100
28127728 000000FF
D2000000 00000000

[Have Skillset 2 Alfine (Press R)]
DD000000 00000100
28127729 000000FF
D2000000 00000000

[Have Skillset 3 Alfine (Press R)]
DD000000 00000100
2812772A 0000000F
D2000000 00000000

[Have all Skills Alfine (Press R)]
DD000000 00000100
08127728 000FFFFF
D2000000 00000000

[Weapon Modifier Alfine (Press UP)]
DD000000 00000040
28127718 00000011
D2000000 00000000

[Shield Modifier Alfine (Press UP)]
DD000000 00000040
2812771A 00000011
D2000000 00000000

[Suit Modifier Alfine (Press UP)]
DD000000 00000040
2812771C 00000011
D2000000 00000000

[Wearable Modifier Alfine (Press UP)]
DD000000 00000040
2812771E 00000011
D2000000 00000000

[Inf HP Alter]
18127834 000003E7

[Add 50 HP Alter (Press L)]
DD000000 00000200
DA000000 08127834
D4000000 00000032
D7000000 08127834
D2000000 00000000

[Inf MP Alter]
18127836 000003E7

[Add 50 MP Alter (Press L)]
DD000000 00000200
DA000000 08127836
D4000000 00000032
D7000000 08127836
D2000000 00000000

[Add 100 EP Alter (Press L)]
DD000000 00000200
D9000000 08127830
D4000000 00000064
D6000000 08127830
D2000000 00000000

[Max EP Alter]
08127830 00FFFFFF

[LVL 99 Alter (Press R)]
DD000000 00000100
2812782E 00000063
D2000000 00000000

[Max Stomage Alter (Press L)]
DD000000 00000200
1812783A 000003E7
D2000000 00000000

[Inf Stomage Alter]
1812783A 000003E7

[Max STR Alter (Press L)]
DD000000 00000200
18127898 000003E7
D2000000 00000000

[Max VIT Alter (Press L)]
DD000000 00000200
1812789A 000003E7
D2000000 00000000

[Max INT Alter (Press L)]
DD000000 00000200
1812789C 000003E7
D2000000 00000000

[Max MEN Alter (Press L)]
DD000000 00000200
1812789E 000003E7
D2000000 00000000

[Max AGI Alter (Press L)]
DD000000 00000200
181278A0 000003E7
D2000000 00000000

[Max HIT Alter (Press L)]
DD000000 00000200
181278A2 000003E7
D2000000 00000000

[Max ADV Alter (Press L)]
DD000000 00000200
181278A4 000003E7
D2000000 00000000

[Max LUK Alter (Press L)]
DD000000 00000200
181278A6 000003E7
D2000000 00000000

[Max All Stats Alter (Press L)]
DD000000 00000200
C0000000 00000008
18127898 000003E7
DC000000 00000002
D1000000 00000000
D2000000 00000000

[Max ElementEP 1 Alter (Press L)]
DD000000 00000200
18127848 0000270F
D2000000 00000000

[Max ElementEP 2 Alter (Press L)]
DD000000 00000200
1812784A 0000270F
D2000000 00000000

[Max ElementEP 3 Alter (Press L)]
DD000000 00000200
1812784C 0000270F
D2000000 00000000

[Max ElementEP 4 Alter (Press L)]
DD000000 00000200
1812784E 0000270F
D2000000 00000000

[Max ElementEP 5 Alter (Press L)]
DD000000 00000200
18127850 0000270F
D2000000 00000000

[Max All ElementEP Alter (Press L)]
DD000000 00000200
C0000000 00000005
18127848 0000270F
DC000000 00000002
D1000000 00000000
D2000000 00000000

[Have Skillset 1 Alter (Press R)]
DD000000 00000100
28127868 000000FF
D2000000 00000000

[Have Skillset 2 Alter (Press R)]
DD000000 00000100
28127869 000000FF
D2000000 00000000

[Have Skillset 3 Alter (Press R)]
DD000000 00000100
2812786A 0000000F
D2000000 00000000

[Have all Skills Alter (Press R)]
DD000000 00000100
08127868 000FFFFF
D2000000 00000000

[Weapon Modifier Alter (Press UP)]
DD000000 00000040
28127858 00000011
D2000000 00000000

[Shield Modifier Alter (Press UP)]
DD000000 00000040
2812785A 00000011
D2000000 00000000

[Suit Modifier Alter (Press UP)]
DD000000 00000040
2812785C 00000011
D2000000 00000000

[Wearable Modifier Alter (Press UP)]
DD000000 00000040
2812785E 00000011
D2000000 00000000

[Inf HP Lidia]
18127974 000003E7

[Add 50 HP Lidia (Press L)]
DD000000 00000200
DA000000 08127974
D4000000 00000032
D7000000 08127974
D2000000 00000000

[Inf MP Lidia]
18127976 000003E7

[Add 50 MP Lidia (Press L)]
DD000000 00000200
DA000000 08127976
D4000000 00000032
D7000000 08127976
D2000000 00000000

[Add 100 EP Lidia (Press L)]
DD000000 00000200
D9000000 08127970
D4000000 00000064
D6000000 08127970
D2000000 00000000

[Max EP Lidia]
08127970 00FFFFFF

[LVL 99 Lidia (Press R)]
DD000000 00000100
2812796E 00000063
D2000000 00000000

[Max Stomage Lidia (Press L)]
DD000000 00000200
1812797A 000003E7
D2000000 00000000

[Inf Stomage Lidia]
1812797A 000003E7

[Max STR Lidia (Press L)]
DD000000 00000200
181279D8 000003E7
D2000000 00000000

[Max VIT Lidia (Press L)]
DD000000 00000200
181279DA 000003E7
D2000000 00000000

[Max INT Lidia (Press L)]
DD000000 00000200
181279DC 000003E7
D2000000 00000000

[Max MEN Lidia (Press L)]
DD000000 00000200
181279DE 000003E7
D2000000 00000000

[Max AGI Lidia (Press L)]
DD000000 00000200
181279E0 000003E7
D2000000 00000000

[Max HIT Lidia (Press L)]
DD000000 00000200
181279E2 000003E7
D2000000 00000000

[Max ADV Lidia (Press L)]
DD000000 00000200
181279E4 000003E7
D2000000 00000000

[Max LUK Lidia (Press L)]
DD000000 00000200
181279E6 000003E7
D2000000 00000000

[Max All Stats Lidia (Press L)]
DD000000 00000200
C0000000 00000008
181279D8 000003E7
DC000000 00000002
D1000000 00000000
D2000000 00000000

[Max ElementEP 1 Lidia (Press L)]
DD000000 00000200
18127988 0000270F
D2000000 00000000

[Max ElementEP 2 Lidia (Press L)]
DD000000 00000200
1812798A 0000270F
D2000000 00000000

[Max ElementEP 3 Lidia (Press L)]
DD000000 00000200
1812798C 0000270F
D2000000 00000000

[Max ElementEP 4 Lidia (Press L)]
DD000000 00000200
1812798E 0000270F
D2000000 00000000

[Max ElementEP 5 Lidia (Press L)]
DD000000 00000200
18127990 0000270F
D2000000 00000000

[Max All ElementEP Lidia (Press L)]
DD000000 00000200
C0000000 00000005
18127988 0000270F
DC000000 00000002
D1000000 00000000
D2000000 00000000

[Have Skillset 1 Lidia (Press R)]
DD000000 00000100
281279A8 000000FF
D2000000 00000000

[Have Skillset 2 Lidia (Press R)]
DD000000 00000100
281279A9 000000FF
D2000000 00000000

[Have Skillset 3 Lidia (Press R)]
DD000000 00000100
281279AA 0000000F
D2000000 00000000

[Have all Skills Lidia (Press R)]
DD000000 00000100
281279A8 000FFFFF
D2000000 00000000

[Weapon Modifier Lidia (Press UP)]
DD000000 00000040
28127998 00000011
D2000000 00000000

[Shield Modifier Lidia (Press UP)]
DD000000 00000040
2812799A 00000011
D2000000 00000000

[Suit Modifier Lidia (Press UP)]
DD000000 00000040
2812799C 00000011
D2000000 00000000

[Wearable Modifier Lidia (Press UP)]
DD000000 00000040
2812799E 00000011
D2000000 00000000

[Inf HP Elias]
18127AB4 000003E7

[Add 50 HP Elias (Press L)]
DD000000 00000200
DA000000 08127AB4
D4000000 00000032
D7000000 08127AB4
D2000000 00000000

[Inf MP Elias]
18127AB6 000003E7

[Add 50 MP Elias (Press L)]
DD000000 00000200
DA000000 08127AB6
D4000000 00000032
D7000000 08127AB6
D2000000 00000000

[Add 100 EP Elias (Press L)]
DD000000 00000200
D9000000 08127AB0
D4000000 00000064
D6000000 08127AB0
D2000000 00000000

[Max EP Elias]
08127AB0 00FFFFFF

[LVL 99 Elias (Press R)]
DD000000 00000100
28127AAE 00000063
D2000000 00000000

[Max Stomage Elias (Press L)]
DD000000 00000200
18127ABA 000003E7
D2000000 00000000

[Inf Stomage Elias]
18127ABA 000003E7

[Max STR Elias (Press L)]
DD000000 00000200
18127A18 000003E7
D2000000 00000000

[Max VIT Elias (Press L)]
DD000000 00000200
18127A1A 000003E7
D2000000 00000000

[Max INT Elias (Press L)]
DD000000 00000200
18127A1C 000003E7
D2000000 00000000

[Max MEN Elias (Press L)]
DD000000 00000200
18127A1E 000003E7
D2000000 00000000

[Max AGI Elias (Press L)]
DD000000 00000200
18127A20 000003E7
D2000000 00000000

[Max HIT Elias (Press L)]
DD000000 00000200
18127A22 000003E7
D2000000 00000000

[Max ADV Elias (Press L)]
DD000000 00000200
18127A24 000003E7
D2000000 00000000

[Max LUK Elias (Press L)]
DD000000 00000200
18127A26 000003E7
D2000000 00000000

[Max All Stats Elias (Press L)]
DD000000 00000200
C0000000 00000008
18127A18 000003E7
DC000000 00000002
D1000000 00000000
D2000000 00000000

[Max ElementEP 1 Elias (Press L)]
DD000000 00000200
18127AC8 0000270F
D2000000 00000000

[Max ElementEP 2 Elias (Press L)]
DD000000 00000200
18127ACA 0000270F
D2000000 00000000

[Max ElementEP 3 Elias (Press L)]
DD000000 00000200
18127ACC 0000270F
D2000000 00000000

[Max ElementEP 4 Elias (Press L)]
DD000000 00000200
18127ACE 0000270F
D2000000 00000000

[Max ElementEP 5 Elias (Press L)]
DD000000 00000200
18127AD0 0000270F
D2000000 00000000

[Max All ElementEP Elias (Press L)]
DD000000 00000200
C0000000 00000005
18127AC8 0000270F
DC000000 00000002
D1000000 00000000
D2000000 00000000

[Have Skillset 1 Elias (Press R)]
DD000000 00000100
28127AE8 000000FF
D2000000 00000000

[Have Skillset 2 Elias (Press R)]
DD000000 00000100
28127AE9 000000FF
D2000000 00000000

[Have Skillset 3 Elias (Press R)]
DD000000 00000100
28127AEA 0000000F
D2000000 00000000

[Have all Skills Elias (Press R)]
DD000000 00000100
28127AE8 000FFFFF
D2000000 00000000

[Weapon Modifier Elias (Press UP)]
DD000000 00000040
28127AD8 00000011
D2000000 00000000

[Shield Modifier Elias (Press UP)]
DD000000 00000040
28127ADA 00000011
D2000000 00000000

[Suit Modifier Elias (Press UP)]
DD000000 00000040
28127ADC 00000011
D2000000 00000000

[Wearable Modifier Elias (Press UP)]
DD000000 00000040
28127ADE 00000011
D2000000 00000000

[Inf HP Milija]
18127BF4 000003E7

[Add 50 HP Milija (Press L)]
DD000000 00000200
DA000000 08127BF4
D4000000 00000032
D7000000 08127BF4
D2000000 00000000

[Inf MP Milija]
18127BF6 000003E7

[Add 50 MP Milija (Press L)]
DD000000 00000200
DA000000 08127BF6
D4000000 00000032
D7000000 08127BF6
D2000000 00000000

[Add 100 EP Milija (Press L)]
DD000000 00000200
D9000000 08127BF0
D4000000 00000064
D6000000 08127BF0
D2000000 00000000

[Max EP Milija]
08127BF0 00FFFFFF

[LVL 99 Milija (Press R)]
DD000000 00000100
28127BEE 00000063
D2000000 00000000

[Max Stomage Milija (Press L)]
DD000000 00000200
18127BFA 000003E7
D2000000 00000000

[Inf Stomage Milija]
18127BFA 000003E7

[Max STR Milija (Press L)]
DD000000 00000200
18127B58 000003E7
D2000000 00000000

[Max VIT Milija (Press L)]
DD000000 00000200
18127B5A 000003E7
D2000000 00000000

[Max INT Milija (Press L)]
DD000000 00000200
18127B5C 000003E7
D2000000 00000000

[Max MEN Milija (Press L)]
DD000000 00000200
18127B5E 000003E7
D2000000 00000000

[Max AGI Milija (Press L)]
DD000000 00000200
18127B60 000003E7
D2000000 00000000

[Max HIT Milija (Press L)]
DD000000 00000200
18127B62 000003E7
D2000000 00000000

[Max ADV Milija (Press L)]
DD000000 00000200
18127B64 000003E7
D2000000 00000000

[Max LUK Milija (Press L)]
DD000000 00000200
18127B66 000003E7
D2000000 00000000

[Max All Stats Milija (Press L)]
DD000000 00000200
C0000000 00000008
18127B58 000003E7
DC000000 00000002
D1000000 00000000
D2000000 00000000

[Max ElementEP 1 Milija (Press L)]
DD000000 00000200
18127C08 0000270F
D2000000 00000000

[Max ElementEP 2 Milija (Press L)]
DD000000 00000200
18127C0A 0000270F
D2000000 00000000

[Max ElementEP 3 Milija (Press L)]
DD000000 00000200
18127C0C 0000270F
D2000000 00000000

[Max ElementEP 4 Milija (Press L)]
DD000000 00000200
18127C0E 0000270F
D2000000 00000000

[Max ElementEP 5 Milija (Press L)]
DD000000 00000200
18127C10 0000270F
D2000000 00000000

[Max All ElementEP Milija (Press L)]
DD000000 00000200
C0000000 00000005
18127C08 0000270F
DC000000 00000002
D1000000 00000000
D2000000 00000000

[Have Skillset 1 Milija (Press R)]
DD000000 00000100
28127C28 000000FF
D2000000 00000000

[Have Skillset 2 Milija (Press R)]
DD000000 00000100
28127C29 000000FF
D2000000 00000000

[Have Skillset 3 Milija (Press R)]
DD000000 00000100
28127C2A 0000000F
D2000000 00000000

[Have all Skills Milija (Press R)]
DD000000 00000100
28127C28 000FFFFF
D2000000 00000000

[Weapon Modifier Milija (Press UP)]
DD000000 00000040
28127C18 00000011
D2000000 00000000

[Shield Modifier Milija (Press UP)]
DD000000 00000040
28127C1A 00000011
D2000000 00000000

[Suit Modifier Milija (Press UP)]
DD000000 00000040
28127C1C 00000011
D2000000 00000000

[Wearable Modifier Milija (Press UP)]
DD000000 00000040
28127C1E 00000011
D2000000 00000000

[Have all Recipes (Press L)]
DD000000 00000200
C0000000 000001B5
1811ECCC 00008001
DC000000 00000002
D1000000 00000000
D2000000 00000000

[Max/Inf Money]
08128A60 0098967F

[Max Money (Press L)]
DD000000 00000200
08128A60 0098967F
D2000000 00000000

[Have all Items x99 (Press L)]
DD000000 00000200
C0000000 0000002B
1811EA4C 00008063
DC000000 00000002
D1000000 00000000
D2000000 00000000

[Inf all Items]
C0000000 0000002B
1811EA4C 00008063
DC000000 00000002
D1000000 00000000
D2000000 00000000

[Have all Equips x99 (Press L)]
DD000000 00000200
C0000000 0000007F
1811EAAE 00008063
DC000000 00000002
D1000000 00000000
D2000000 00000000

[Inf all Equips]
C0000000 0000007F
1811EAAE 00008063
DC000000 00000002
D1000000 00000000
D2000000 00000000

[Have all Mats x99 (Press L)]
DD000000 00000200
C0000000 0000007A
1811EBAC 00008063
DC000000 00000002
D1000000 00000000
D2000000 00000000

[Inf all Mats]
C0000000 0000007A
1811EBAC 00008063
DC000000 00000002
D1000000 00000000
D2000000 00000000

[Have all Tools (Press L)]
DD000000 00000200
C0000000 0000000A
1811ECAC 00008001
DC000000 00000002
D1000000 00000000
D2000000 00000000