

[Max Money]
D3000000 14000000
0072D21C 0098967F

[Max Passion Points]
D3000000 14000000
0072D220 0098967F

[All items/techs. you own x99]
D3000000 14000000
C0000000 0000013D
2072E07C 00000063
DC000000 00000010
D1000000 00000000

[All Equip./EG you own x99]
D3000000 14000000
C0000000 0000014D
20730070 00000063
DC000000 00000014
D1000000 00000000

[300 Char.Lvl99 after match]
D3000000 14000000
C0000000 0000012C
00710374 0098967F
DC000000 00000134
D1000000 00000000

[300 Char. Max Stats]
D3000000 14000000
C0000000 0000012C
00710378 03E703E7
00710470 FDE8FDE8
00710474 FDE8FDE8
00710478 FDE8FDE8
0071047C FDE8FDE8
00710480 FDE8FDE8
DC000000 00000134
D1000000 00000000

[300 Char.Lvl255]
D3000000 14000000
C0000000 0000012C
2071037E 000000FF
DC000000 00000134
D1000000 00000000