

[Brook 9999 HP, Game v1.0]
D3000000 14000000
0046E6D0 0000270F
0046E6D4 0000270F

[Franky 999 SP, Game v1.0]
D3000000 14000000
0046DCDC 0000270F
0046DCE0 0000270F

[Brook 999 SP, Game v1.0]
D3000000 14000000
0046E6EC 0000270F
0046E6F0 0000270F

[Franky 9999 HP, Game v1.0]
D3000000 14000000
0046DCC0 0000270F
0046DCC4 0000270F

[Robin 999 SP, Game v1.0]
D3000000 14000000
0046D2CC 0000270F
0046D2D0 0000270F

[Robin 9999 HP, Game v1.0]
D3000000 14000000
0046D2B0 0000270F
0046D2B4 0000270F

[Chopper 999 SP, Game v1.0]
D3000000 14000000
0046C8BC 0000270F
0046C8C0 0000270F

[Chopper 9999 HP, Game v1.0]
D3000000 14000000
0046C8A0 0000270F
0046C8A4 0000270F

[Sanji 999 SP, Game v1.0]
D3000000 14000000
0046BEAC 0000270F
0046BEB0 0000270F

[Sanji 9999 HP, Game v1.0]
D3000000 14000000
0046BE90 0000270F
0046BE94 0000270F

[Usopp 999 SP, Game v1.0]
D3000000 14000000
0046B49C 0000270F
0046B4A0 0000270F

[Usopp 9999 HP, Game v1.0]
D3000000 14000000
0046B480 0000270F
0046B484 0000270F

[Nami 999 SP, Game v1.0]
D3000000 14000000
0046AA8C 0000270F
0046AA90 0000270F

[Nami 9999 HP, Game v1.0]
D3000000 14000000
0046AA70 0000270F
0046AA74 0000270F

[Zoro 999 SP, Game v1.0]
D3000000 14000000
0046A07C 0000270F
0046A080 0000270F

[Zoro 9999 HP, Game v1.0]
D3000000 14000000
0046A060 0000270F
0046A064 0000270F

[Luffy 999 SP, Game v1.0]
D3000000 14000000
0046966C 0000270F
00469670 0000270F

[Luffy 9999 HP, Game v1.0]
D3000000 14000000
00469650 0000270F
00469654 0000270F

[Brook 999 SP, Game v1.2]
D3000000 14000000
001BEF68 0000270F
001BEF6C 0000270F

[Brook 9999 HP, Game v1.2]
D3000000 14000000
001BEF4C 0000270F
001BEF50 0000270F

[Franky 999 SP, Game v1.2]
D3000000 14000000
001BE558 0000270F
001BE55C 0000270F

[Franky 9999 HP, Game v1.2]
D3000000 14000000
001BE53C 0000270F
001BE540 0000270F

[Robin 999 SP, Game v1.2]
D3000000 14000000
001BDB48 0000270F
001BDB4C 0000270F

[Robin 9999 HP, Game v1.2]
D3000000 14000000
001BDB2C 0000270F
001BDB30 0000270F

[Chopper 999 SP, Game v1.2]
D3000000 14000000
001BD138 0000270F
001BD13C 0000270F

[Chopper 9999 HP, Game v1.2]
D3000000 14000000
001BD11C 0000270F
001BD120 0000270F

[Sanji 999 SP, Game v1.2]
D3000000 14000000
001BC728 0000270F
001BC72C 0000270F

[Sanji 9999 HP, Game v1.2]
D3000000 14000000
001BC70C 0000270F
001BC710 0000270F

[Usopp 999 SP, Game v1.2]
D3000000 14000000
001BBD18 0000270F
001BBD1C 0000270F

[Usopp 9999 HP, Game v1.2]
D3000000 14000000
001BBCFC 0000270F
001BBD00 0000270F

[Nami 999 SP, Game v1.2]
D3000000 14000000
001BB308 0000270F
001BB30C 0000270F

[Nami 9999 HP, Game v1.2]
D3000000 14000000
001BB2EC 0000270F
001BB2F0 0000270F

[Zoro 999 SP, Game v1.2]
D3000000 14000000
001BA8F8 0000270F
001BA8FC 0000270F

[Zoro 9999 HP, Game v1.2]
D3000000 14000000
001BA8DC 0000270F
001BA8E0 0000270F

[Luffy 999 SP, Game v1.2]
D3000000 14000000
001B9EE8 0000270F
001B9EEC 0000270F

[Luffy 9999 HP, Game v1.2]
D3000000 14000000
001B9ECC 0000270F
001B9ED0 0000270F

[All char 9999 HP game v1.2]
D3000000 14000000
C0000000 00000008
001B9ECC 0000270F
001B9ED0 0000270F
DC000000 00000A10
D1000000 00000000

[All char 999 SP game v1.2]
D3000000 14000000
C0000000 00000008
001B9EE8 0000270F
001B9EEC 0000270F
DC000000 00000A10
D1000000 00000000

[All char Exp game v1.2]
D3000000 14000000
C0000000 00000008
001B9F08 05F5E0FF
DC000000 00000A10
D1000000 00000000

[All char 9999 HP game v1.0]
D3000000 14000000
C0000000 00000008
00469650 0000270F
00469654 0000270F
DC000000 00000A10
D1000000 00000000

[All char 999 SP game v1.0]
D3000000 14000000
C0000000 00000008
0046966C 0000270F
00469670 0000270F
DC000000 00000A10
D1000000 00000000

[All char Exp game v1.0]
D3000000 14000000
C0000000 00000008
0046968C 05F5E0FF
DC000000 00000A10
D1000000 00000000