

[Max Money]
00484ED4 000F423F

[Unlock all]
C0000000 00000059
20484ED8 00000000
DC000000 00000001
D1000000 00000000

[Kameks Carpet Ride Spaces Modifier R+RIGHT]
DD000000 00000110
D3000000 089B0434
60000000 00000000
B0000000 00000000
2000001C 00000001
D2000000 00000000

[Rocket Road Spaces Modifier L+DOWN]
DD000000 00000280
D3000000 089AA928
60000000 00000000
B0000000 00000000
2000001C 00000001
D2000000 00000000

[Star Crossed Skyway Spaces Modifier L+UP]
DD000000 00000240
D3000000 089B0CE4
60000000 00000000
B0000000 00000000
2000001C 00000001
D2000000 00000000

[Banzai Bills Mad Mountain Spaces Modifier L+LEFT]
DD000000 00000220
D3000000 089AA9B8
60000000 00000000
B0000000 00000000
2000001C 00000001
D2000000 00000000

[Perilous Palace Path Spaces Modifier L+RIGHT]
DD000000 00000210
D3000000 08074ABC
60000000 00000000
B0000000 00000000
2000001C 00000001
D2000000 00000000