

[All Materials x7]
C0000000 0000001D
204E66D0 00000007
DC000000 00000004
D2000000 00000000

[All Equipments x1]
C0000000 00000054
204E6580 00000001
DC000000 00000004
D2000000 00000000

[9999999 Credits]
004E643C 0098967F

[TIME 00:00]
004E68D8 00000000

[100% POWER]
D9000000 008B5BAC
D6000000 008B5B80
D2000000 00000000

[Full Skill Bars]
D9000000 008B5BB0
D6000000 008B5B84
D2000000 00000000

[No Cooldown]
D9000000 008B5BB8
D6000000 008B5B8C
D2000000 00000000
D9000000 008B5BBC
D6000000 008B5B90
D2000000 00000000
D9000000 008B5BC0
D6000000 008B5B94
D2000000 00000000
D9000000 008B5BC4
D6000000 008B5B98
D2000000 00000000

[Infinite Health]
D9000000 08574810
D6000000 0857480C
D2000000 00000000