

[Mini Mario]
D3000000 10000000
06768264 00000003

[Gold Tanooki Mario]
D3000000 10000000
06768264 00000007

[Gold Mario]
D3000000 10000000
06768264 00000006

[Tanooki Mario]
D3000000 10000000
06768264 00000004

[Fire Mario]
D3000000 10000000
06768264 00000002

[Super Mario]
D3000000 10000000
06768264 00000001

[Regular Mario]
D3000000 10000000
06768264 00000000

[500 Star Coins]
D3000000 16000000
00758058 000001F4

[Always have 99 coins]
D3000000 14000000
0015E468 00000063

[Always wear tanoki suit]
D3000000 14000000
00162AD5 00000004

[Max Infinite Lives]
D3000000 00000000
004106EC E5801004

[Rapid Fireballs]
D3000000 00000000
202E908C 00000000
202E90AC 00000000

[Invincible L+RIGHT BrowserCastle]
DD000000 00000210
D3000000 00000000
605E7210 00000000
B05E7210 00000000
30000364 14000000
B00003B0 00000000
20000015 00000007
D2000000 00000000

[Small Mario L and LEFT]
DD000000 00000220
D3000000 00000000
605E7210 00000000
B05E7210 00000000
40000364 14000000
B0000364 00000000
20000015 00000000
D2000000 00000000

[Big Mario L and DOWN]
DD000000 00000280
D3000000 00000000
605E7210 00000000
B05E7210 00000000
40000364 14000000
B0000364 00000000
20000015 00000001
D2000000 00000000

[Gold Mario L and UP]
DD000000 00000240
D3000000 00000000
605E7210 00000000
B05E7210 00000000
40000364 14000000
B0000364 00000000
20000015 00000006
D2000000 00000000

[Invincibe Mario R and RIGHT]
DD000000 00000110
D3000000 00000000
605E7210 00000000
B05E7210 00000000
40000364 14000000
B0000364 00000000
20000015 00000007
D2000000 00000000

[Raccoon Mario R and LEFT]
DD000000 00000120
D3000000 00000000
605E7210 00000000
B05E7210 00000000
40000364 14000000
B0000364 00000000
20000015 00000004
D2000000 00000000

[Mini Mario R and DOWN]
DD000000 00000180
D3000000 00000000
605E7210 00000000
B05E7210 00000000
40000364 14000000
B0000364 00000000
20000015 00000003
D2000000 00000000

[Fire Mario R and UP]
DD000000 00000140
D3000000 00000000
605E7210 00000000
B05E7210 00000000
40000364 14000000
B0000364 00000000
20000015 00000002
D2000000 00000000

[L+R add 100000 coins in Stage]
DD000000 00000300
D3000000 00000000
605E7210 00000000
B05E7210 00000000
000000B0 000186A0
D2000000 00000000

[Fire Mario R+UP (Bowser Castle)]
DD000000 00000140
D3000000 00000000
605E7210 00000000
B05E7210 00000000
30000364 14000000
B00003B0 00000000
20000015 00000002
D2000000 00000000

[Small Mario L+LEFT, Browser Castle]
DD000000 00000220
D3000000 00000000
605E7210 00000000
B05E7210 00000000
30000364 14000000
B00003B0 00000000
20000015 00000000
D2000000 00000000

[Big Mario L+DOWN, Browser Castle]
DD000000 00000280
D3000000 00000000
605E7210 00000000
B05E7210 00000000
30000364 14000000
B00003B0 00000000
20000015 00000001
D2000000 00000000

[Gold Mario L+UP, Browser Castle]
DD000000 00000240
D3000000 00000000
605E7210 00000000
B05E7210 00000000
30000364 14000000
B00003B0 00000000
20000015 00000006
D2000000 00000000

[Raccoon Mario R+LEFT, Browser Castle]
DD000000 00000120
D3000000 00000000
605E7210 00000000
B05E7210 00000000
30000364 14000000
B00003B0 00000000
20000015 00000004
D2000000 00000000

[Mini Mario R+DOWN, Browser Castle]
DD000000 00000180
D3000000 00000000
605E7210 00000000
B05E7210 00000000
30000364 14000000
B00003B0 00000000
20000015 00000003
D2000000 00000000

[Reset Amount of Coins in Stage]
D3000000 14000000
0015E468 00000000

[Always Invincible]
605E7210 00000000
B05E7210 00000000
000017AC 0001869F
D2000000 00000000

[Always Blockhead]
D3000000 10000000
6402FE78 00000000
B402FE78 00000000
000048C8 000003E7
D2000000 00000000

[Infinite Timer]
D3000000 00000000
0022438C E1A00000
D3000000 00000000

[Jump in Midair]
D3000000 00000000
0056A520 E2841A01
0056A524 E28110E0
0056A528 E591100C
0056A52C E2111001
0056A530 159F100C
0056A534 15801010
0056A538 E1A01000
0056A53C E1A00000
0056A540 E12FFF1E
0056A544 40600000
001F6188 EB0DD0E4
D2000000 00000000