

[CPU Player Quick Level 50, v1.0]
D9000000 08334D94
D6000000 08334D90
D2000000 00000000

[CPU Player Infinite Ninja Arts, v1.0]
D9000000 08334D30
D6000000 08334D2C
D2000000 00000000

[CPU Player Infinite Health, v1.0]
D9000000 08334D24
D6000000 08334D1C
D6000000 08334D1C
D2000000 00000000

[Player Quick Level 50, v1.0]
D9000000 08333658
D6000000 08333654
D2000000 00000000

[Player Infinite Ninja Arts, v1.0]
D9000000 083335F4
D6000000 083335F0
D2000000 00000000

[Player Infinite Health, v1.0]
D9000000 083335E8
D6000000 083335E0
D6000000 083335E0
D2000000 00000000

[CPU Player Quick Level 50, v1.3]
D9000000 08344E90
D6000000 08344E8C
D2000000 00000000

[CPU Player Infinite Ninja Arts, v1.3]
D9000000 08344E2C
D6000000 08344E28
D2000000 00000000

[CPU Player Infinite Health, v1.3]
D9000000 08344E20
D6000000 08344E18
D6000000 08344E18
D2000000 00000000

[Player Quick Level 50, v1.3]
D9000000 08343740
D6000000 0834373C
D2000000 00000000

[Player Infinite Ninja Arts, v1.3]
D9000000 083436DC
D6000000 083436D8
D2000000 00000000

[Player Infinite Health, v1.3]
D9000000 083436D0
D6000000 083436C8
D6000000 083436C8
D2000000 00000000