

[Max G (USA)]
D3000000 30000000
01650EB4 0098967F

[Max Tickets (USA)]
D3000000 30000000
116516CA 000003E7

[Max HP Bananas (USA)]
D3000000 30000000
21650EB8 00000063

[Max MP Sweets (USA)]
D3000000 30000000
21650EBA 00000063

[Have All Sprinkle Shakers (USA)]
D3000000 30000000
21650DEC 00000001
21650DF8 00000001
21650E04 00000001
21650E10 00000001
21650E1C 00000001

[Infinite Sprinkle Power (USA)]
D3000000 30000000
21650DF0 00000063
21650DFC 00000063
21650E08 00000063
21650E14 00000063
21650E20 00000063

[Have All Foods (USA)]
D3000000 31650EBC
C0000000 00000062
10000000 00000909
DC000000 00000002
D1000000 00000000

[Max MP Sweets (EUR)]
D3000000 30000000
2165103A 00000063

[Max HP Bananas (EUR)]
D3000000 30000000
21651038 00000063

[Max Tickets (EUR)]
D3000000 30000000
1165184A 000003E7

[Max G (EUR)]
D3000000 30000000
01651034 0098967F

[Have All Sprinkle Shakers (EUR)]
D3000000 30000000
21650F6C 00000001
21650F78 00000001
21650F84 00000001
21650F90 00000001
21650F9C 00000001

[Infinite Sprinkle Power (EUR)]
D3000000 30000000
21650F70 00000063
21650F7C 00000063
21650F88 00000063
21650F94 00000063
21650FA0 00000063

[Have All Foods (EUR)]
D3000000 3165103C
C0000000 00000062
10000000 00000909
DC000000 00000002
D1000000 00000000

[Max MP Sweets]
D3000000 30000000
216509F2 00000063

[Max HP Bananas]
D3000000 30000000
216509F0 00000063

[Max G]
D3000000 30000000
016509EC 0098967F

[Max Tickets]
D3000000 30000000
11651202 000003E7

[Have All Sprinkle Shakers]
D3000000 30000000
21650924 00000000
21650930 00000000
2165093C 00000000
21650948 00000000
21650954 00000000

[Infinite Sprinkle Power]
D3000000 30000000
21650928 00000063
21650934 00000063
21650940 00000063
2165094C 00000063
21650958 00000063

[Have All Foods]
D3000000 316509F4
C0000000 00000062
10000000 00000909
DC000000 00000002
D1000000 00000000

[HP Banana 999]
D3000000 30000000
116509F0 000003E7

[MP Candy 999]
D3000000 30000000
116509F2 000003E7

[Defeated enemy 9999]
D3000000 30000000
11650AF8 0000270F

[All Food 10]
D3000000 30000000
016509F4 0A0A0A0A
D3000000 30000000
016509F8 0A0A0A0A
D3000000 30000000
016509FC 0A0A0A0A
D3000000 30000000
01650A00 0A0A0A0A
D3000000 30000000
01650A04 0A0A0A0A
D3000000 30000000
01650A08 0A0A0A0A
D3000000 30000000
01650A0C 0A0A0A0A
D3000000 30000000
01650A10 0A0A0A0A
D3000000 30000000
01650A14 0A0A0A0A
D3000000 30000000
01650A18 0A0A0A0A
D3000000 30000000
01650A1C 0A0A0A0A
D3000000 30000000
01650A20 0A0A0A0A
D3000000 30000000
01650A24 0A0A0A0A
D3000000 30000000
01650A28 0A0A0A0A
D3000000 30000000
01650A2C 0A0A0A0A
D3000000 30000000
01650A30 0A0A0A0A
D3000000 30000000
01650A34 0A0A0A0A
D3000000 30000000
01650A38 0A0A0A0A
D3000000 30000000
01650A3C 0A0A0A0A
D3000000 30000000
01650A40 0A0A0A0A
D3000000 30000000
01650A44 0A0A0A0A
D3000000 30000000
01650A48 0A0A0A0A
D3000000 30000000
01650A4C 0A0A0A0A
D3000000 30000000
01650A50 0A0A0A0A
D3000000 30000000
01650A54 0A0A0A0A
D3000000 30000000
01650A58 0A0A0A0A
D3000000 30000000
01650A5C 0A0A0A0A
D3000000 30000000
01650A60 0A0A0A0A
D3000000 30000000
01650A64 0A0A0A0A
D3000000 30000000
01650A68 0A0A0A0A
D3000000 30000000
01650A6C 0A0A0A0A
D3000000 30000000
01650A70 0A0A0A0A
D3000000 30000000
01650A74 0A0A0A0A
D3000000 30000000
01650A78 0A0A0A0A
D3000000 30000000
01650A7C 0A0A0A0A
D3000000 30000000
01650A80 0A0A0A0A
D3000000 30000000
01650A84 0A0A0A0A
D3000000 30000000
01650A88 0A0A0A0A
D3000000 30000000
01650A8C 0A0A0A0A
D3000000 30000000
01650A90 0A0A0A0A
D3000000 30000000
01650A94 0A0A0A0A
D3000000 30000000
01650A98 0A0A0A0A
D3000000 30000000
01650A9C 0A0A0A0A
D3000000 30000000
01650AA0 0A0A0A0A
D3000000 30000000
01650AA4 0A0A0A0A
D3000000 30000000
01650AA8 0A0A0A0A
D3000000 30000000
01650AAC 0A0A0A0A
D3000000 30000000
01650AB0 0A0A0A0A
D3000000 30000000
01650AB4 0A0A0A0A
D3000000 30000000
01650AB8 0A0A0A0A
D3000000 30000000
01650ABC 0A0A0A0A
D3000000 30000000
01650AC0 0A0A0A0A
D3000000 30000000
01650AC4 0A0A0A0A
D3000000 30000000
01650AC8 0A0A0A0A
D3000000 30000000
01650ACC 0A0A0A0A
D3000000 30000000
01650AD0 0A0A0A0A
D3000000 30000000
01650AD4 0A0A0A0A
D3000000 30000000
01650AD8 0A0A0A0A
D3000000 30000000
01650ADC 0A0A0A0A
D3000000 30000000
01650AE0 0A0A0A0A
D3000000 30000000
01650AE4 0A0A0A0A
D3000000 30000000
01650AE8 0A0A0A0A
D3000000 30000000
01650AEC 0A0A0A0A
D3000000 30000000
01650AF0 0A0A0A0A
D3000000 30000000
01650AF4 0A0A0A0A