

[90000 Coins Collected, Game v1.0]
D3000000 14000000
0013C794 00015F90

[Mirror Mode, Game v1.0]
D3000000 14000000
2013C9C0 000000FF

[All Gliders, Game v1.0]
D3000000 14000000
2013C9BC 0000003F

[All Wheels, Game v1.0]
D3000000 14000000
2013C9B8 0000007F

[All Karts, Game v1.0]
D3000000 14000000
1013C9B4 00003FFF

[All Courses, Game v1.0]
D3000000 14000000
2013C9AB 0000003F

[All Characters, Game v1.0]
D3000000 14000000
0013C9AC 01FF003F

[Coin x 99,999 v1.0]
D3000000 14000000
0013C794 0001869F

[Region Modifier]
D3000000 14000000
20145964 000000FF
D2000000 00000000

[Hide Item Box Top Screen Icon - REGION FREE]
D3000000 14000074
B0000000 00000000
DC000000 FFFFE4A4
40000000 16400000
30000000 17800000
B0000000 00000000
A0000DEB FF000000
20000DEB 00000000
D2000000 00000000

[114514VR]
60663D04 00000000
B0663D04 00000000
DC000000 FFFF0000
0000F1D0 0001BF52
D2000000 00000000

[Acceleration force changeRev0 V1.1　kasokuryokuRev0 V1.1]
D3000000 14000000
C0000000 0000002C
01387270 41A00000
DC000000 00000004
D2000000 00000000

[Piを]
60663D04 00000000
B0663D04 00000000
000100E0 6D355C01
D2000000 00000000

[Pid Changer]
60663D04 00000000
B0663D04 00000000
000100E0 6D355C01
D2000000 00000000

[Community Comment Modifier Rev0 v1.1]
D3000000 14000000
606CE058 00000000
B06CE058 00000000
0000F9F0 00400040
0000F9F4 00400040
0000F9F8 00400040
0000F9FC 00400040
0000FA00 00400040
0000FA04 00400040
0000FA08 00400040
0000FA0C 00400040
D2000000 00000000

[ItemLimiters Rev1]
D3000000 00000000
002B6074 EA00001E
002CE974 E3A0002F
002D0350 E3A0002F
002D054C E3A0002F
002D0734 E3A0002F
002D0914 E3A0002F
002D0A50 E3A0002F
D2000000 00000000

[ItemLimiters Rev0]
D3000000 00000000
002B624C EA00001E
002CEB4C E3A0002F
002D0528 E3A0002F
002D0724 E3A0002F
002D090C E3A0002F
002D0AEC E3A0002F
002D0C28 E3A0002F
D2000000 00000000

[Community Name Modifier Rev0 v1.1]
D3000000 14000000
606CE058 00000000
B06CE058 00000000
0000F9D0 00400040
0000F9D4 00400040
0000F9D8 00400040
0000F9DC 00400040
0000F9E0 00400040
0000F9E4 00400040
0000F9E8 00400040
0000F9EC 00400040
D2000000 00000000

[Trick Anywhere - Rev0]
002DB8DC E1A00000

[Lightning Flash Color Modifier - rev0]
2042916C 00000019

[Water Everywhere, Everytime - Rev0]
D3000000 00000000
E011C6A4 00000014
EDDF1A02 EEB00A61
ED800A00 EA06FC14
7F800000 00000000
002DB704 EAF903E6
D2000000 00000000

[90000 Coins Collected, Rev2 Game v1.1]
D3000000 14000000
0013BCB0 00015F90

[Mirror Mode Unlocked, Rev2 Game v1.1]
D3000000 14000000
2013BEDC 000000FF

[All Gliders, Rev2 Game v1.1]
D3000000 14000000
2013BED8 0000003F

[All Wheels, Rev2 Game v1.1]
D3000000 14000000
2013BED4 0000007F

[All Karts, Rev2 Game v1.1]
D3000000 14000000
1013BED0 00003FFF

[All Courses, Rev2 Game v1.1]
D3000000 14000000
2013BEC7 0000003F

[All Characters, Rev2 Game v1.1]
D3000000 14000000
0013BEC8 01FF003F

[Coin x 99,999 v1.1]
D3000000 14000000
0013BCB0 0001869F