

[Infinite Health]
00483614 0000270F

[No Hungry]
0048361C 0000270F

[No Thirsty]
00483620 0000270F

[Infinite Battery]
00483628 0000270F

[Always day time]
00418740 00000010

[Rapid fire DEMO]
4C200000 00000000

[Message Slot Store/Load - JPN v1.0]
DD000000 00000820
D3000000 00429F00
C0000000 00000005
D9000000 00000044
D6000000 00000024
D2000000 00000000
DD000000 00000810
D3000000 00429F00
C0000000 00000005
D9000000 00000024
D6000000 00000044
D2000000 00000000

[Delete Your Actual Message (D-Pad UP) - JPN v1.0]
DD000000 00000040
00429F40 00000000
D0000000 00000000

[Drive Vehicles Without Fuel]
D3000000 00490844
C0000000 00000123
20000000 00000064
DC000000 0000007C
D2000000 00000000

[Text modifier]
00429F44 000000AA
00429F45 000000AA
00429F46 000000AA
00429F47 000000AA
00429F48 000000AA
00429F49 000000AA
00429F4A 000000AA
00429F4B 000000AA
00429F4C 000000AA
00429F4D 000000AA
00429F4E 000000AA
00429F4F 000000AA
00429F50 000000AA
00429F51 000000AA
00429F52 000000AA
00429F53 000000AA
00429F54 000000AA
00429F55 000000AA
00429F56 000000AA

[Moonjump (Y) - JPN v1.0]
D3000000 00000000
5037F200 00000000
E037F200 00000010
ED9F1A01 EE300A01
EAFB0BFD 3F000000
D0000000 00000000
00242200 EE300A01
DD000000 00000800
00242200 EA04F3FE
D0000000 00000000

[No Reload All Slots]
D3000000 00000000
60429610 00000000
B0429610 00000000
100000C8 00000000
D2000000 00000000
D3000000 00000000
6042964C 00000000
B042964C 00000000
100000C8 00000000
D2000000 00000000
D3000000 00000000
60429688 00000000
B0429688 00000000
100000C8 00000000
D2000000 00000000
D3000000 00000000
604296C4 00000000
B04296C4 00000000
100000C8 00000000
D2000000 00000000
D3000000 00000000
60429700 00000000
B0429700 00000000
100000C8 00000000
D2000000 00000000

[Display Players Names]
D3000000 00483740
C0000000 00000010
20000000 00000001
DC000000 00000848
D2000000 00000000

[Contrast Modifier]
D3000000 00000000
00418730 6FFFFFFF
D2000000 00000000

[No Engine Parts Needed for Helicopters]
D3000000 00000000
20490848 00000003
204908C4 00000003
20490940 00000003
204909BC 00000003
20490A38 00000003
20490AB4 00000003
20490B30 00000003
20490BAC 00000003
20490C28 00000003
20490CA4 00000003
20490D20 00000003
20490D9C 00000003
20490E18 00000003
20490E94 00000003
20490F10 00000003
20490F8C 00000003
20491008 00000003
20491084 00000003
20491100 00000003
2049117C 00000003
204911F8 00000003
20491274 00000003
204912F0 00000003
2049136C 00000003
204913E8 00000003
20491464 00000003
204914E0 00000003
2049155C 00000003
204915D8 00000003
20491654 00000003
204916D0 00000003
2049174C 00000003
204917C8 00000003
20491844 00000003
204918C0 00000003
2049193C 00000003
204919B8 00000003
20491A34 00000003
20491AA8 00000003
20491AB0 00000003
20491B2C 00000003
20491BA8 00000003
20491C24 00000003
20491CA0 00000003
20491D1C 00000003
20491D98 00000003
20491E14 00000003
20491E90 00000003
20491F0C 00000003
20491F88 00000003
20492004 00000003
20492080 00000003
204920FC 00000003
20492178 00000003
204921F4 00000003
20492270 00000003
204922EC 00000003
20492368 00000003
204923E4 00000003
20492460 00000003
204924DC 00000003
20492558 00000003
204925D4 00000003
20492650 00000003
204926CC 00000003
20492748 00000003
204927C4 00000003
20492840 00000003
204928BC 00000003
20492938 00000003
204929B4 00000003
20492A30 00000003
20492AAC 00000003
20492B28 00000003
20492BA4 00000003
20492C20 00000003
20492C9C 00000003
20492D18 00000003
20492D94 00000003
20492E10 00000003
20492E8C 00000003
20492F08 00000003
20492F84 00000003
20493000 00000003
2049307C 00000003
204930F8 00000003
20493174 00000003
204931F0 00000003
2049326C 00000003
204932E8 00000003
20493364 00000003
2049345C 00000003
204934D8 00000003
204935D0 00000003
2049364C 00000003
204936C8 00000003
20493744 00000003
204937C0 00000003
2049383C 00000003
204938B8 00000003
20493934 00000003
204939B0 00000003
20493A2C 00000003
20493B24 00000003
20493BA0 00000003
20493C1C 00000003
20493C98 00000003
20493D14 00000003
20493D90 00000003
20493E0C 00000003
20493E88 00000003
20493F04 00000003
20493F80 00000003
20493FFC 00000003
20494078 00000003
204940F4 00000003
20494170 00000003
204941EC 00000003
20494268 00000003
204942E4 00000003
20494360 00000003
204943DC 00000003
20494458 00000003
204944D4 00000003
20494550 00000003
204945CC 00000003
20494648 00000003
204946C4 00000003
20494740 00000003
204947BC 00000003
20494838 00000003
204948B4 00000003
20494930 00000003
204949AC 00000003
20494A28 00000003
20494AA4 00000003
20494B20 00000003
20494B9C 00000003
20494C18 00000003
20494C94 00000003
20494D10 00000003
20494D8C 00000003
20494E08 00000003
20494E84 00000003
20494F00 00000003
20494F7C 00000003
20494FF8 00000003
20495074 00000003
204950F0 00000003
2049516C 00000003
204951E8 00000003
20495264 00000003
204952E0 00000003
2049535C 00000003
204953D8 00000003
20495454 00000003
204954D0 00000003
2049554C 00000003
204955C8 00000003
20495644 00000003
204956C0 00000003
2049573C 00000003
204957B8 00000003
20495834 00000003
204958B0 00000003
2049592C 00000003
204959A8 00000003
20495A24 00000003
20495AA0 00000003
20495B1C 00000003
20495B98 00000003
20495C14 00000003
20495C90 00000003
20495D0C 00000003
20495D88 00000003
20495E04 00000003
20495E80 00000003
20495EFC 00000003
20495F78 00000003
20495FF4 00000003
20496070 00000003
204960EC 00000003
20496168 00000003
204961E4 00000003
20496260 00000003
204962DC 00000003
20496358 00000003
204963D4 00000003
20496450 00000003
204964CC 00000003
20496548 00000003
204965C4 00000003
20496640 00000003
204966BC 00000003
20496738 00000003
204967B4 00000003
20496830 00000003
204968AC 00000003
20496928 00000003
204969A4 00000003
20496A20 00000003
20496A9C 00000003
20496B18 00000003
20496B94 00000003
20496C10 00000003
20496C8C 00000003
20496D08 00000003
20496D84 00000003
20496E00 00000003
20496E7C 00000003
20496EF8 00000003
20496F74 00000003
20496FF0 00000003
2049706C 00000003
204970E8 00000003
20497164 00000003
204971E0 00000003
2049725C 00000003
204972D8 00000003
20497354 00000003
204973D0 00000003
2049744C 00000003
204974C8 00000003
20497544 00000003
204975C0 00000003
2049763C 00000003
204976B8 00000003
20497734 00000003
204977B0 00000003
2049782C 00000003
204978A8 00000003
20497924 00000003
204979A0 00000003
20497A1C 00000003
20497A98 00000003
20497B14 00000003
20497B90 00000003
20497C0C 00000003
20497C88 00000003
20497D04 00000003
20497D80 00000003
20497DFC 00000003
20497E78 00000003
20497EF4 00000003
20497F70 00000003
20497FEC 00000003
20498068 00000003
204980E4 00000003
20498160 00000003
204981DC 00000003
20498258 00000003
204982D4 00000003
20498350 00000003
204983CC 00000003
20498448 00000003
204984C4 00000003
20498540 00000003
204985BC 00000003
20498638 00000003
204986B4 00000003
20498730 00000003
204987AC 00000003
20498828 00000003
204988A4 00000003
20498920 00000003
2049899C 00000003
20498A18 00000003
20498A94 00000003
20498B10 00000003
20498B8C 00000003
20498C08 00000003
20498C84 00000003
20498D00 00000003
20498D7C 00000003
20498DF8 00000003
20498E74 00000003
20498EF0 00000003
20498F6C 00000003
20498FE8 00000003
20499064 00000003
204990E0 00000003
2049915C 00000003
204991D8 00000003
20499254 00000003
204992D0 00000003
2049934C 00000003
204993C8 00000003
20499444 00000003
204994C0 00000003
2049953C 00000003
204995B8 00000003
D2000000 00000000

[Moon walk v2]
D3000000 00000000
DD000000 00000002
00482FE0 00000000
00482FA4 3F800000
D2000000 00000000

[Day 114514]
08804D48 0001BF52

[Moon Jump]
D3000000 00000000
DD000000 00000042
00482F10 42BC16FF
DD000000 00000840
00482F10 4302E3BC
DD000000 00000200
00482F10 423C0000
D2000000 00000000

[Instant deaths]
D3000000 00000000
DD000000 00000308
00483614 00000000
D2000000 00000000

[A view directly above]
00419538 43000000

["Endurance" in the upper right is 9999]
DD000000 00000000
004298D4 0000270F
D0000000 00000000

[Teleport to the respawn position(B)]
DD000000 00000002
00482FB4 00000003
D0000000 00000000

[Inventory slot 1 modifier]
20429601 0000000A
20429604 000000FF

[Inventory slot 2 modifier]
2042963D 0000000A
20429640 000000FF