[No Softban v1.1 (restart to turn off)]
204790A8 00000001

[100%Catch(Gateshark2NTR only)]
00666FDC E5D00008
00666FE0 E92D4003
00666FE4 E59D0010
00666FE8 E59F100C
00666FEC E1510000
00666FF0 024000F8
00666FF4 058D0010
00666FF8 E8BD8003
00666FFC 0070A824
004AB184 EB06EF94

[Unlock Mega Evolution v1.0]
6066F3DC 00000000
B066F3DC 00000000
B000001C 00000000
B0000024 00000000
B0000004 00000000
90000F68 FFFE0000
DA000000 00000F68
D4000000 00000001
D7000000 00000F68
D2000000 00000000

[Can use mega evolution multiple times in a fight v1.0]
580A5CD0 E12FFF32
50667024 00000000
00667024 00000010
D0000000 00000000
D0000000 00000000
60667024 00000000
D9000000 00667024
D4000000 FFFFFFFF
D6000000 00667024
D0000000 00000000
D3000000 00000000
50667024 00000001
080A5CD0 E3A00000
D0000000 00000000

[Always critical hit v1.0]
58087E30 E59D0000
50667018 00000000
00667018 00000010
D0000000 00000000
D0000000 00000000
60667018 00000000
D9000000 00667018
D4000000 FFFFFFFF
D6000000 00667018
D0000000 00000000
D3000000 00000000
50667018 00000001
08105F50 E59D0000
08105F54 E92D401E
08105F58 E59A1008
08105F5C E2813004
08105F60 E281401C
08105F64 E4932004
08105F68 E1500002
08105F6C 03A01001
08105F70 058D1018
08105F74 E1530004
08105F78 1AFFFFF9
08105F7C E8BD801E
08087E30 EB01F846
D0000000 00000000

[(SELECT + UP)All Z-Crystal v1.0]
DD000000 00000044
D3000000 330126A4
D5000000 00000727
C0000000 0000001D
D6000000 00000000
D4000000 00000001
D1000000 00000000
D3000000 330126A4
00000074 0000079F
00000078 000007A0
0000007C 000007A1
00000080 000007A2
00000084 000007A3
00000088 000007A4
D2000000 00000000

[(SELECT + UP)All Rotom Power x950 v1.0]
DD000000 00000044
D3000000 33012730
00000000 000EDBB5
00000004 000EDBB6
00000008 000EDBB7
0000000C 000EDBB8
00000010 000EDBB9
00000014 000EDBBA
00000018 000EDBBB
0000001C 000EDBBC
00000020 000EDBBD
00000024 000EDBBE
00000028 000EDBBF
D2000000 00000000

[(SELECT + UP)All Clothes(male) v1.0]
DD000000 00000044
D3000000 33052A30
D5000000 00000001
C0000000 00000040
D8000000 00000000
D1000000 00000000
D5000000 00000000
C0000000 0000007C
D8000000 00000000
D1000000 00000000
D5000000 00000001
C0000000 00000015
D8000000 00000000
D1000000 00000000
D5000000 00000000
C0000000 00000009
D8000000 00000000
D1000000 00000000
D5000000 00000001
C0000000 0000012A
D8000000 00000000
D1000000 00000000
D5000000 00000000
C0000000 00000098
D8000000 00000000
D1000000 00000000
D5000000 00000001
C0000000 0000006C
D8000000 00000000
D1000000 00000000
D5000000 00000000
C0000000 000000AD
D8000000 00000000
D1000000 00000000
D5000000 00000001
C0000000 00000026
D8000000 00000000
D1000000 00000000
D5000000 00000000
C0000000 00000077
D8000000 00000000
D1000000 00000000
D5000000 00000001
C0000000 00000061
D8000000 00000000
D1000000 00000000
D5000000 00000000
C0000000 00000064
D8000000 00000000
D1000000 00000000
D5000000 00000001
C0000000 0000006E
D8000000 00000000
D1000000 00000000
D5000000 00000000
C0000000 00000043
D8000000 00000000
D1000000 00000000
D3000000 33052A30
000001D8 01030101
00000304 01010301
000004B0 00010301
00000584 00000003
D2000000 00000000

[Language change v1.0]
00000000 00000000

[EXP multiplier *X v1.0]
00000000 00000000

[Hold SELECT to view IVs & Hold START to view EVs on Pokemon Status Scr]
004ADA90 E92D4070
004ADDFC E92D4070
004ADBC0 E92D4070
004ADC0C E92D4070
004ADE48 E92D4070
004ADE94 E92D4070
004ADB74 E92D4070
DD000000 00000004
5800A21C EBFFFC13
004ADA90 EAFFFCE1
004ADDFC EAFFFC06
004ADBC0 EAFFFCF9
004ADC0C EAFFFCF3
004ADE48 EAFFFCF8
004ADE94 EAFFFCF2
004ADB74 EAFFFCFF
D2000000 00000000
DD000000 00000008
5800A21C EBFFFC13
004ADA90 EAFFFC82
004ADDFC EAFFFBA7
004ADBC0 EAFFFCD6
004ADC0C EAFFFCCE
004ADE48 EAFFFCC6
004ADE94 EAFFFCBE
004ADB74 EAFFFCDE
D2000000 00000000

[Poke Finder get point multiplier v1.0]
00000000 00000000

[Can learn the all moves in Move Reminder v1.0]
004C320C E2850001
0044189C E3A01C02
004418A0 E28110D8
004418A4 E5851004

[HP Not Decrease v1.0]
580999EC E1D021B0
5066701C 00000000
0066701C 00000010
D0000000 00000000
D0000000 00000000
6066701C 00000000
D9000000 0066701C
D4000000 FFFFFFFF
D6000000 0066701C
D0000000 00000000
D3000000 00000000
5066701C 00000001
08105F94 E1D021B0
08105F98 E92D407C
08105F9C E59F2024
08105FA0 E59F3024
08105FA4 E2834018
08105FA8 E4925004
08105FAC E4936004
08105FB0 E1500005
08105FB4 11500006
08105FB8 03A01000
08105FBC E1530004
08105FC0 1AFFFFF8
08105FC4 E8BD807C
08105FC8 30000404
08105FCC 300073EC
080999EC EB01B168
D0000000 00000000

[PP Not Decrease v1.0]
5808F868 E1A04000
50667020 00000000
00667020 00000010
D0000000 00000000
D0000000 00000000
60667020 00000000
D9000000 00667020
D4000000 FFFFFFFF
D6000000 00667020
D0000000 00000000
D3000000 00000000
50667020 00000001
08105FD4 E1A04000
08105FD8 E92D4007
08105FDC E59F0018
08105FE0 E2801018
08105FE4 E4902004
08105FE8 E1560002
08105FEC 03A04000
08105FF0 E1510000
08105FF4 1AFFFFFA
08105FF8 E8BD8007
08105FFC 300073EC
0808F868 EB01D9D9
D0000000 00000000

[Z-moves use is possible without Z-Crystal v1.0]
E05B9DE0 00000058
E92D407D E1A00006
EA000000 E92D407D
E1D510B4 E59D201C
E202530F E3550203
18BD807D E59F300C
EB000004 E59F3008
EB000002 E8BD807D
30000404 300073EC
E2834018 E4935004
E1550002 01A01000
E1530004 1AFFFFFA
005B9E38 E12FFF1E
0031BF34 EB0A77A9
0031BFA4 EB0A7790
00375F84 E3A00000
DD000000 00000200
00375F84 E3A00001
D0000000 00000000

[Fix stat of a pokemon in battle v1.0]
00000000 00000000

[Can throw Pokeball at Trial v1.0]
580BC3D4 E1A01004
50667014 00000000
00667014 00000010
D0000000 00000000
D0000000 00000000
60667014 00000000
D9000000 00667014
D4000000 FFFFFFFF
D6000000 00667014
D0000000 00000000
D3000000 00000000
50667014 00000001
08077B8C E3A00001
080BC3D4 E3A01000
D0000000 00000000

[Able to rename Outsider Pokemon in Name Rater v1.0]
004C527C E3A00001

[(START)Receive Egg from Daycare v1.0]
0045AAD4 E2800E1E
0045AAD8 E1D000D0
0045AADC E12FFF1E
DD000000 00000008
0045AAD4 E3A01001
0045AAD8 E5C011E0
0045AADC EA007D37
D0000000 00000000

[Can use Z-moves multiple times v1.0]
58031E7C E320F000
5066700C 00000000
0066700C 00000010
D0000000 00000000
D0000000 00000000
6066700C 00000000
D9000000 0066700C
D4000000 FFFFFFFF
D6000000 0066700C
D0000000 00000000
D3000000 00000000
5066700C 00000001
08031E74 E3A00000
08031E78 E5C30005
08031E7C E1500000
D0000000 00000000

[No QR Scanning Wait Time v1.0]
0045388C E3A00000

[(Hold START and Open OPTIONS menu)Access the PC from anywhere v1.0]
E05B9EE0 00000088
E92D400E E59F1074
E5912000 E3A03000
E5813000 E3A03C13
E2833093 E1520003
03A04000 11A04000
E8BD800E E350000E
EAF711CB E92D400F
E24DD010 E3A00000
E58D0000 E58D0004
E58D0008 E58D000C
E1A03000 E1A02000
E3A01C13 E2811093
E59F0018 E5801000
E59F0014 E5900000
EBF7803B E3A00002
E28DD010 E8BD800F
00667000 006A3984
0037CB10 EB08F4FD
00389F88 EB08BFD4
DD000000 00000008
005B9F10 1AF711CB
D0000000 00000000

[Camera zoom out(SELECT+L)Enable, (SELECT+R)Disable v1.0]
605B9F80 ED940A1C
005B9F80 ED940A1C
005B9F84 ED9F1A03
005B9F88 EE300A01
005B9F8C ED840A1C
005B9F90 E2840004
005B9F94 E12FFF1E
005B9F98 00000000
D0000000 00000000
5803B784 E2840004
0803B784 EBFAA9FD
D0000000 00000000
DD000000 00000204
005B9F98 C4BB8000
D0000000 00000000
DD000000 00000104
005B9F98 00000000
D0000000 00000000

[(Hold R)Walk through Walls v1.0]
003ABDD8 EB01F79D
003ABF0C EB01F750
DD000000 00000100
003ABDD8 E1A00000
003ABF0C E1A00000
D0000000 00000000

[Instant Messages v1.0]
003D08FC E3A05003
003D0058 E3A04003

[No Encounter, Hold START Instant Encounter v1.0]
5807E24C E3A00064
0807E244 E3A09000
DD000000 00000008
0807E244 E3A09064
D0000000 00000000
D0000000 00000000

[No Forced Trainer Battles v1.0]
58031E98 EB00F509
08031E98 E3A00001
D0000000 00000000

[Pokemon Can Learn Any HM/TM v1.0]
004AB044 E3A00001

[QR Scan Point 100 v1.0]
6066F3DC 00000000
B066F3DC 00000000
B000001C 00000000
B0000024 00000000
B0000004 00000000
20069A1B 00000064
D2000000 00000000

[No Outlines v1.0]
0042E2B8 E320F000

[Walk & Run Speed Multiplier v1.0]
00000000 00000000

[(SELECT + UP)All Clothes(female) v1.0]
DD000000 00000044
D3000000 33052A30
D5000000 00000001
C0000000 00000063
D8000000 00000000
D1000000 00000000
D5000000 00000000
C0000000 00000015
D8000000 00000000
D1000000 00000000
D5000000 00000001
C0000000 00000025
D8000000 00000000
D1000000 00000000
D5000000 00000000
C0000000 0000001F
D8000000 00000000
D1000000 00000000
D5000000 00000001
C0000000 00000015
D8000000 00000000
D1000000 00000000
D5000000 00000000
C0000000 00000009
D8000000 00000000
D1000000 00000000
D5000000 00000001
C0000000 000001B4
D8000000 00000000
D1000000 00000000
D5000000 00000000
C0000000 0000000E
D8000000 00000000
D1000000 00000000
D5000000 00000001
C0000000 000000FC
D8000000 00000000
D1000000 00000000
D5000000 00000000
C0000000 0000001C
D8000000 00000000
D1000000 00000000
D5000000 00000001
C0000000 0000007E
D8000000 00000000
D1000000 00000000
D5000000 00000000
C0000000 00000020
D8000000 00000000
D1000000 00000000
D5000000 00000001
C0000000 000000A9
D8000000 00000000
D1000000 00000000
D5000000 00000000
C0000000 0000001C
D8000000 00000000
D1000000 00000000
D5000000 00000001
C0000000 00000092
D8000000 00000000
D1000000 00000000
D5000000 00000000
C0000000 0000001F
D8000000 00000000
D1000000 00000000
D3000000 33052A30
00000264 01010103
00000394 01010301
000003B4 01010103
000004F8 00010301
000005A8 00000003
D2000000 00000000

[Catch Trainer's Pokemon(Gateshark2NTR only) v1.0]
00666F94 E1A04000
00666F98 E92D4003
00666F9C E59D0028
00666FA0 E59F1014
00666FA4 E1510000
00666FA8 05970004
00666FAC 0590000C
00666FB0 03A01000
00666FB4 05C01000
00666FB8 E8BD8003
00666FBC 00709E24
0045BCB4 EB082CB6

[BP9999 v1.0]
6066F3DC 00000000
B066F3DC 00000000
B000001C 00000000
B0000024 00000000
B0000004 00000000
10003A00 0000270F
D2000000 00000000

[Max Money v1.0]
6066F3DC 00000000
B066F3DC 00000000
B000001C 00000000
B0000024 00000000
B0000004 00000000
000038E8 0098967F
D2000000 00000000

[100%Catch v1.0]
58036714 0A000004
50667004 00000000
00667004 00000010
D0000000 00000000
D0000000 00000000
60667004 00000000
D9000000 00667004
D4000000 FFFFFFFF
D6000000 00667004
D0000000 00000000
D3000000 00000000
50667004 00000001
08036714 EA000004
D0000000 00000000

[Catch Trainer's Pokemon v1.0]
5803711C 0A00000B
50667008 00000000
00667008 00000010
D0000000 00000000
D0000000 00000000
60667008 00000000
D9000000 00667008
D4000000 FFFFFFFF
D6000000 00667008
D0000000 00000000
D3000000 00000000
50667008 00000001
08037110 E3A0B000
08037114 E590000C
08037118 E5C0B000
0803711C EA00000B
D0000000 00000000

[Rematch Trainers (Hold L & talk to Trainers) v1.0]
004B9354 E5911004
004B9358 E5900044
DD000000 00000200
004B9354 E3A00000
004B9358 E12FFF1E
D0000000 00000000

[(START+L)Wild Pokemon Shiny, (START+R)Disable v1.0]
605B9FFC E12FFF1E
005B9FF0 E5C40004
005B9FF4 EA000000
005B9FF8 E5C41006
005B9FFC E12FFF1E
003A7284 EB084B59
D0000000 00000000
DD000000 00000208
005B9FF4 E3A01001
D0000000 00000000
DD000000 00000108
005B9FF4 EA000000
D0000000 00000000

[(SELECT + UP)All BERRIES x950 v1.0]
DD000000 00000044
D3000000 33012598
D5000000 000ED895
C0000000 00000040
D6000000 00000000
D4000000 00000001
D1000000 00000000
D3000000 33012598
00000100 000EDAAE
00000104 000EDAAF
00000108 000EDAB0
D2000000 00000000

[Unlock All PokePuffs]
D3000000 30000000
C0000000 00000014
23051708 00000063
DC000000 00000001
D2000000 00000000

[Wild Pokemon Modifier v1.0]
00000000 00000000

[Random Wild Pokemon Encounter v1.0]
00000000 00000000

[100%Catch v1.0]
005B9EA0 E5D00008
005B9EA4 E92D4003
005B9EA8 E59D0010
005B9EAC E59F100C
005B9EB0 E1510000
005B9EB4 024000F8
005B9EB8 058D0010
005B9EBC E8BD8003
005B9EC0 0070A824
004AB184 EB043B45

[Catch Trainer's Pokemon v1.0]
005B9E60 E1A04000
005B9E64 E92D4003
005B9E68 E59D0028
005B9E6C E59F1014
005B9E70 E1510000
005B9E74 05970004
005B9E78 0590000C
005B9E7C 03A01000
005B9E80 05C01000
005B9E84 E8BD8003
005B9E88 00709E24
0045BCB4 EB057869

[Egg Instant Hatch v1.0]
005B9E40 E59D000C
005B9E44 E59F500C
005B9E48 E1500005
005B9E4C 03A00000
005B9E50 11A00004
005B9E54 E12FFF1E
005B9E58 007024B4
004ADA5C EB0430F7

[(SELECT + UP)All ITEMS x950 v1.0]
DD000000 00000044
D3000000 33011934
E0000000 00000068
000ED801 000ED802
000ED803 000ED804
000ED805 000ED806
000ED807 000ED808
000ED809 000ED80A
000ED80B 000ED80C
000ED80D 000ED80E
000ED80F 000ED810
000ED837 000ED838
000ED839 000ED83A
000ED83B 000ED83C
000ED83D 000ED83E
000ED83F 000ED840
D5000000 000ED844
C0000000 0000002D
D6000000 00000068
D4000000 00000001
D1000000 00000000
D3000000 33011934
0000011C 000ED874
E0000120 00000050
000ED875 000ED876
000ED877 000ED887
000ED888 000ED889
000ED88A 000ED88B
000ED88C 000ED88D
000ED88E 000ED88F
000ED890 000ED891
000ED892 000ED893
000ED894 000ED8D5
000ED8D6 000ED8D7
D5000000 000ED8D9
C0000000 0000006F
D6000000 00000170
D4000000 00000001
D1000000 00000000
D3000000 33011934
E000032C 000001E8
000ED9E5 000ED9E6
000ED9E7 000ED9E8
000ED9E9 000ED9EA
000ED9EB 000ED9EC
000ED9ED 000ED9EE
000ED9EF 000ED9F0
000ED9F1 000ED9F2
000ED9F3 000ED9F4
000ED9F9 000ED9FA
000ED9FB 000ED9FC
000ED9FD 000ED9FE
000ED9FF 000EDA00
000EDA01 000EDA02
000EDA03 000EDA04
000EDA05 000EDA06
000EDA07 000EDA08
000EDA09 000EDA0A
000EDA0B 000EDA0C
000EDA0D 000EDA0E
000EDA0F 000EDA10
000EDA11 000EDA12
000EDA13 000EDA16
000EDA17 000EDA19
000EDA1A 000EDA1B
000EDA1C 000EDA1D
000EDA1E 000EDA1F
000EDA20 000EDA21
000EDA22 000EDA23
000EDA24 000EDA25
000EDA26 000EDA27
000EDA28 000EDA29
000EDA2A 000EDA2B
000EDA2C 000EDA2D
000EDA2E 000EDA2F
000EDA30 000EDA31
000EDA32 000EDA33
000EDA34 000EDA3B
000EDA3C 000EDA3D
000EDA3F 000EDA40
000EDA41 000EDA44
000EDA45 000EDA46
000EDA47 000EDA48
000EDA49 000EDA4A
000EDA4B 000EDA4C
000EDA4D 000EDA4E
000EDA50 000EDA51
000EDA52 000EDA53
000EDA54 000EDA55
000EDA56 000EDA57
000EDA58 000EDA59
000EDA5A 000EDA5B
000EDA5C 000EDA5D
000EDA5E 000EDA5F
000EDA60 000EDA61
000EDA62 000EDA63
000EDA64 000EDA65
000EDA66 000EDA67
000EDA7F 000EDA80
000EDA84 000EDA86
000EDA87 000EDA88
000EDA89 000EDA8A
D5000000 000EDA8C
C0000000 00000022
D6000000 00000514
D4000000 00000001
D1000000 00000000
D3000000 33011934
0000059C 000EDABB
E00005A0 000000D8
000EDAC0 000EDAC6
000EDAC7 000EDACB
000EDAF0 000EDAF1
000EDAF2 000EDAF3
000EDAF4 000EDAF5
000EDAF6 000EDAF7
000EDAF8 000EDAF9
000EDAFA 000EDAFB
000EDAFC 000EDAFF
000EDB00 000EDB01
000EDB02 000EDB1B
000EDB1C 000EDB4C
000EDB4E 000EDB51
000EDB53 000EDB55
000EDB56 000EDB57
000EDB58 000EDB6F
000EDB70 000EDB71
000EDB72 000EDB73
000EDB74 000EDB88
000EDB89 000EDB8A
000EDB8B 000EDB8C
000EDB8D 000EDB8E
000EDB8F 000EDB90
000EDB91 000EDB92
000EDB93 000EDB94
000EDB95 000EDB96
000EDB97 000EDB98
D2000000 00000000

[(SELECT + UP)All TMs & HMs v1.0]
DD000000 00000044
D3000000 330122F8
D5000000 00000548
C0000000 0000005C
D6000000 00000000
D4000000 00000001
D1000000 00000000
D3000000 330122F8
E0000170 00000038
0000066A 0000066B
0000066C 000006B2
000006B3 000006B4
000006B5 000006B6
000005A4 000005A5
000005A6 000005A7
000005A8 000005A9
000001A8 000006E1
D2000000 00000000

[(SELECT + UP)All MEDICINE x950 v1.0]
DD000000 00000044
D3000000 330124A8
D5000000 000ED811
C0000000 00000026
D6000000 00000000
D4000000 00000001
D1000000 00000000
D3000000 330124A8
E0000098 00000040
000ED841 000ED842
000ED843 000ED886
000ED9F8 000EDA35
000EDA36 000EDA37
000EDA38 000EDA39
000EDA3A 000EDA4F
000EDA85 000EDAC4
000EDAC5 000EDB54
D2000000 00000000

[Mega evolution does not cancel after battle v1.0]
005B9C54 E59D6020
E05B9C58 00000048
E28F901C E499A004
E35A0000 01A06000
012FFF1E E15A0006
08BD4FF0 012FFF1E
EAFFFFF7 0075AF18
0075B2CC 0075B2E4
0075B308 0075B328
0075B360 0075B388
0032486C 00000000
00323D2C EB0A57C8

[Mega evolution of party pokemon does not cancel after load v1.0]
E05B9CA8 00000098
E1A05000 E92D5FFF
E59D004C E59F2080
E1520000 03510000
18BD9FFF E3A00203
E59000D8 E5900020
E5900004 E5906024
E596500C E5967004
E2877C0F E28770BC
E3A08F41 E5D54018
E3A03000 E7950103
E5901004 E5902008
E0297893 E289A0E8
E28AB01C E499C004
E481C004 E15A0009
1AFFFFFB E499C004
E482C004 E15B0009
1AFFFFFB E2833001
E1540003 1AFFFFEE
E8BD9FFF 006DE91C
002F34FC EB0B19E9

[Ultra Wormhole Color & Rarity v1.0]
00000000 00000000

[(SELECT + UP)All ITEMS x950 v1.1]
DD000000 00000044
D3000000 33011934
E0000000 00000068
000ED801 000ED802
000ED803 000ED804
000ED805 000ED806
000ED807 000ED808
000ED809 000ED80A
000ED80B 000ED80C
000ED80D 000ED80E
000ED80F 000ED810
000ED837 000ED838
000ED839 000ED83A
000ED83B 000ED83C
000ED83D 000ED83E
000ED83F 000ED840
D5000000 000ED844
C0000000 0000002D
D6000000 00000068
D4000000 00000001
D1000000 00000000
D3000000 33011934
0000011C 000ED874
E0000120 00000050
000ED875 000ED876
000ED877 000ED887
000ED888 000ED889
000ED88A 000ED88B
000ED88C 000ED88D
000ED88E 000ED88F
000ED890 000ED891
000ED892 000ED893
000ED894 000ED8D5
000ED8D6 000ED8D7
D5000000 000ED8D9
C0000000 0000006F
D6000000 00000170
D4000000 00000001
D1000000 00000000
D3000000 33011934
E000032C 000001E8
000ED9E5 000ED9E6
000ED9E7 000ED9E8
000ED9E9 000ED9EA
000ED9EB 000ED9EC
000ED9ED 000ED9EE
000ED9EF 000ED9F0
000ED9F1 000ED9F2
000ED9F3 000ED9F4
000ED9F9 000ED9FA
000ED9FB 000ED9FC
000ED9FD 000ED9FE
000ED9FF 000EDA00
000EDA01 000EDA02
000EDA03 000EDA04
000EDA05 000EDA06
000EDA07 000EDA08
000EDA09 000EDA0A
000EDA0B 000EDA0C
000EDA0D 000EDA0E
000EDA0F 000EDA10
000EDA11 000EDA12
000EDA13 000EDA16
000EDA17 000EDA19
000EDA1A 000EDA1B
000EDA1C 000EDA1D
000EDA1E 000EDA1F
000EDA20 000EDA21
000EDA22 000EDA23
000EDA24 000EDA25
000EDA26 000EDA27
000EDA28 000EDA29
000EDA2A 000EDA2B
000EDA2C 000EDA2D
000EDA2E 000EDA2F
000EDA30 000EDA31
000EDA32 000EDA33
000EDA34 000EDA3B
000EDA3C 000EDA3D
000EDA3F 000EDA40
000EDA41 000EDA44
000EDA45 000EDA46
000EDA47 000EDA48
000EDA49 000EDA4A
000EDA4B 000EDA4C
000EDA4D 000EDA4E
000EDA50 000EDA51
000EDA52 000EDA53
000EDA54 000EDA55
000EDA56 000EDA57
000EDA58 000EDA59
000EDA5A 000EDA5B
000EDA5C 000EDA5D
000EDA5E 000EDA5F
000EDA60 000EDA61
000EDA62 000EDA63
000EDA64 000EDA65
000EDA66 000EDA67
000EDA7F 000EDA80
000EDA84 000EDA86
000EDA87 000EDA88
000EDA89 000EDA8A
D5000000 000EDA8C
C0000000 00000022
D6000000 00000514
D4000000 00000001
D1000000 00000000
D3000000 33011934
0000059C 000EDABB
E00005A0 000000D8
000EDAC0 000EDAC6
000EDAC7 000EDACB
000EDAF0 000EDAF1
000EDAF2 000EDAF3
000EDAF4 000EDAF5
000EDAF6 000EDAF7
000EDAF8 000EDAF9
000EDAFA 000EDAFB
000EDAFC 000EDAFF
000EDB00 000EDB01
000EDB02 000EDB1B
000EDB1C 000EDB4C
000EDB4E 000EDB51
000EDB53 000EDB55
000EDB56 000EDB57
000EDB58 000EDB6F
000EDB70 000EDB71
000EDB72 000EDB73
000EDB74 000EDB88
000EDB89 000EDB8A
000EDB8B 000EDB8C
000EDB8D 000EDB8E
000EDB8F 000EDB90
000EDB91 000EDB92
000EDB93 000EDB94
000EDB95 000EDB96
000EDB97 000EDB98
D2000000 00000000

[(SELECT + UP)All TMs & HMs v1.1]
DD000000 00000044
D3000000 330122F8
D5000000 00000548
C0000000 0000005C
D6000000 00000000
D4000000 00000001
D1000000 00000000
D3000000 330122F8
E0000170 00000038
0000066A 0000066B
0000066C 000006B2
000006B3 000006B4
000006B5 000006B6
000005A4 000005A5
000005A6 000005A7
000005A8 000005A9
000001A8 000006E1
D2000000 00000000

[(SELECT + UP)All MEDICINE x950 v1.1]
DD000000 00000044
D3000000 330124A8
D5000000 000ED811
C0000000 00000026
D6000000 00000000
D4000000 00000001
D1000000 00000000
D3000000 330124A8
E0000098 00000040
000ED841 000ED842
000ED843 000ED886
000ED9F8 000EDA35
000EDA36 000EDA37
000EDA38 000EDA39
000EDA3A 000EDA4F
000EDA85 000EDAC4
000EDAC5 000EDB54
D2000000 00000000

[(SELECT + UP)All BERRIES x950 v1.1]
DD000000 00000044
D3000000 33012598
D5000000 000ED895
C0000000 00000040
D6000000 00000000
D4000000 00000001
D1000000 00000000
D3000000 33012598
00000100 000EDAAE
00000104 000EDAAF
00000108 000EDAB0
D2000000 00000000

[(SELECT + UP)All Z-Crystal v1.1]
DD000000 00000044
D3000000 330126A4
D5000000 00000727
C0000000 0000001D
D6000000 00000000
D4000000 00000001
D1000000 00000000
D3000000 330126A4
00000074 0000079F
00000078 000007A0
0000007C 000007A1
00000080 000007A2
00000084 000007A3
00000088 000007A4
D2000000 00000000

[(SELECT + UP)All Rotom Power x950 v1.1]
DD000000 00000044
D3000000 33012730
00000000 000EDBB5
00000004 000EDBB6
00000008 000EDBB7
0000000C 000EDBB8
00000010 000EDBB9
00000014 000EDBBA
00000018 000EDBBB
0000001C 000EDBBC
00000020 000EDBBD
00000024 000EDBBE
00000028 000EDBBF
D2000000 00000000

[(SELECT + UP)All Clothes(male) v1.1]
DD000000 00000044
D3000000 33052A30
D5000000 00000001
C0000000 00000040
D8000000 00000000
D1000000 00000000
D5000000 00000000
C0000000 0000007C
D8000000 00000000
D1000000 00000000
D5000000 00000001
C0000000 00000015
D8000000 00000000
D1000000 00000000
D5000000 00000000
C0000000 00000009
D8000000 00000000
D1000000 00000000
D5000000 00000001
C0000000 0000012A
D8000000 00000000
D1000000 00000000
D5000000 00000000
C0000000 00000098
D8000000 00000000
D1000000 00000000
D5000000 00000001
C0000000 0000006C
D8000000 00000000
D1000000 00000000
D5000000 00000000
C0000000 000000AD
D8000000 00000000
D1000000 00000000
D5000000 00000001
C0000000 00000026
D8000000 00000000
D1000000 00000000
D5000000 00000000
C0000000 00000077
D8000000 00000000
D1000000 00000000
D5000000 00000001
C0000000 00000061
D8000000 00000000
D1000000 00000000
D5000000 00000000
C0000000 00000064
D8000000 00000000
D1000000 00000000
D5000000 00000001
C0000000 0000006E
D8000000 00000000
D1000000 00000000
D5000000 00000000
C0000000 00000043
D8000000 00000000
D1000000 00000000
D3000000 33052A30
000001D8 01030101
00000304 01010301
000004B0 00010301
00000584 00000003
D2000000 00000000

[(SELECT + UP)All Clothes(female) v1.1]
DD000000 00000044
D3000000 33052A30
D5000000 00000001
C0000000 00000063
D8000000 00000000
D1000000 00000000
D5000000 00000000
C0000000 00000015
D8000000 00000000
D1000000 00000000
D5000000 00000001
C0000000 00000025
D8000000 00000000
D1000000 00000000
D5000000 00000000
C0000000 0000001F
D8000000 00000000
D1000000 00000000
D5000000 00000001
C0000000 00000015
D8000000 00000000
D1000000 00000000
D5000000 00000000
C0000000 00000009
D8000000 00000000
D1000000 00000000
D5000000 00000001
C0000000 000001B4
D8000000 00000000
D1000000 00000000
D5000000 00000000
C0000000 0000000E
D8000000 00000000
D1000000 00000000
D5000000 00000001
C0000000 000000FC
D8000000 00000000
D1000000 00000000
D5000000 00000000
C0000000 0000001C
D8000000 00000000
D1000000 00000000
D5000000 00000001
C0000000 0000007E
D8000000 00000000
D1000000 00000000
D5000000 00000000
C0000000 00000020
D8000000 00000000
D1000000 00000000
D5000000 00000001
C0000000 000000A9
D8000000 00000000
D1000000 00000000
D5000000 00000000
C0000000 0000001C
D8000000 00000000
D1000000 00000000
D5000000 00000001
C0000000 00000092
D8000000 00000000
D1000000 00000000
D5000000 00000000
C0000000 0000001F
D8000000 00000000
D1000000 00000000
D3000000 33052A30
00000264 01010103
00000394 01010301
000003B4 01010103
000004F8 00010301
000005A8 00000003
D2000000 00000000

[Unlock Mega Evolution v1.1]
D3000000 33011928
90000F68 FFFE0000
DA000000 00000F68
D4000000 00000001
D7000000 00000F68
D2000000 00000000

[Language change v1.1]
00000000 00000000

[Max Money v1.1]
D3000000 33011928
000038E8 0098967F
D2000000 00000000

[BP9999 v1.1]
D3000000 33011928
10003A00 0000270F
D2000000 00000000

[QR Scan Point 100 v1.1]
D3000000 33011928
20069A1B 00000064
D2000000 00000000

[Legendaries to be played with in the Battle Royal Dome & Tree v1.1]
00160A5C E3A00000

[No Outlines v1.1]
0042FBA0 E320F000

[Walk & Run Speed Multiplier v1.1]
00000000 00000000

[(Hold R)Walk through Walls v1.1]
003AD224 EB01F8A0
003AD358 EB01F853
DD000000 00000100
003AD224 E1A00000
003AD358 E1A00000
D0000000 00000000

[Instant Messages v1.1]
003D1B54 E3A05003
003D12B0 E3A04003

[Pokemon Can Learn Any HM/TM v1.1]
004ACBE4 E3A00001

[Rematch Trainers (Hold L & talk to Trainers) v1.1]
004BB034 E5911004
004BB038 E5900044
DD000000 00000200
004BB034 E3A00000
004BB038 E12FFF1E
D0000000 00000000

[Able to rename Outsider Pokemon in Name Rater v1.1]
004C6F5C E3A00001

[No QR Scanning Wait Time v1.1]
004553D0 E3A00000

[(Hold START)Receive Egg from Daycare v1.1]
0045C624 E2800E1E
0045C628 E1D000D0
0045C62C E12FFF1E
DD000000 00000008
0045C624 E3A01001
0045C628 E5C011E0
0045C62C EA007D3B
D0000000 00000000

[Can learn the all moves in Move Reminder v1.1]
004C4EEC E2850001
004432C4 E3A01C02
004432C8 E28110D8
004432CC E5851004

[No Encounter, Hold START Instant Encounter v1.1]
5807E5B8 E3A00064
0807E5B0 E3A09000
DD000000 00000008
0807E5B0 E3A09064
D0000000 00000000
D0000000 00000000

[No Forced Trainer Battles v1.1]
58032034 EB00F53B
08032034 E3A00001
D0000000 00000000

[Can use Z-moves multiple times v1.1]
58031E7C E320F000
5066900C 00000000
0066900C 00000010
D0000000 00000000
D0000000 00000000
6066900C 00000000
D9000000 0066900C
D4000000 FFFFFFFF
D6000000 0066900C
D0000000 00000000
D3000000 00000000
5066900C 00000001
08031E74 E3A00000
08031E78 E5C30005
08031E7C E1500000
D0000000 00000000

[Can throw Pokeball at Trial v1.1]
580BC874 E1A01004
50669014 00000000
00669014 00000010
D0000000 00000000
D0000000 00000000
60669014 00000000
D9000000 00669014
D4000000 FFFFFFFF
D6000000 00669014
D0000000 00000000
D3000000 00000000
50669014 00000001
08077CD8 E3A00001
080BC874 E3A01000
D0000000 00000000

[Poke Finder get point multiplier v1.1]
00000000 00000000

[View IVs & EVs on Pokemon Status Screen v1.1]
00000000 00000000

[Can use mega evolution multiple times in a fight v1.1]
580A6118 E12FFF32
50669024 00000000
00669024 00000010
D0000000 00000000
D0000000 00000000
60669024 00000000
D9000000 00669024
D4000000 FFFFFFFF
D6000000 00669024
D0000000 00000000
D3000000 00000000
50669024 00000001
080A6118 E3A00000
D0000000 00000000

[(START+L)Wild Pokemon Shiny, (START+R)Disable v1.1]
605BBFFC E12FFF1E
005BBFF0 E5C40004
005BBFF4 EA000000
005BBFF8 E5C41006
005BBFFC E12FFF1E
003A8688 EB084E58
D0000000 00000000
DD000000 00000208
005BBFF4 E3A01001
D0000000 00000000
DD000000 00000108
005BBFF4 EA000000
D0000000 00000000

[Wild Pokemon Modifier v1.1]
00000000 00000000

[Wild Pokemon LV v1.1]
00000000 00000000

[Wild Pokemon Forms v1.1]
00000000 00000000

[Ultra Wormhole Color & Rarity v1.1]
00000000 00000000

[Camera zoom out(SELECT+L)Enable, (SELECT+R)Disable v1.1]
605BBF80 ED940A1C
005BBF80 ED940A1C
005BBF84 ED9F1A03
005BBF88 EE300A01
005BBF8C ED840A1C
005BBF90 E2840004
005BBF94 E12FFF1E
005BBF98 00000000
D0000000 00000000
5803B920 E2840004
0803B920 EBFAA996
D0000000 00000000
DD000000 00000204
005BBF98 C4BB8000
D0000000 00000000
DD000000 00000104
005BBF98 00000000
D0000000 00000000

[(Hold START and Open OPTIONS menu)Access the PC from anywhere v1.1]
E05BBEE0 00000088
E92D400E E59F1074
E5912000 E3A03000
E5813000 E3A03C13
E2833093 E1520003
03A04000 11A04000
E8BD800E E350000E
EAF70DE3 E92D400F
E24DD010 E3A00000
E58D0000 E58D0004
E58D0008 E58D000C
E1A03000 E1A02000
E3A01C13 E2811093
E59F0018 E5801000
E59F0014 E5900000
EBF77D13 E3A00002
E28DD010 E8BD800F
00669000 006A59C4
0037DB28 EB08F8F7
0038B030 EB08C3AA
DD000000 00000008
005BBF10 1AF70DE3
D0000000 00000000

[100%Catch v1.1]
005BBEA0 E5D00008
005BBEA4 E92D4003
005BBEA8 E59D0010
005BBEAC E59F100C
005BBEB0 E1510000
005BBEB4 024000F8
005BBEB8 058D0010
005BBEBC E8BD8003
005BBEC0 0070C62C
004ACD24 EB043C5D

[Catch Trainer's Pokemon v1.1]
005BBE60 E1A04000
005BBE64 E92D4003
005BBE68 E59D0028
005BBE6C E59F1014
005BBE70 E1510000
005BBE74 05970004
005BBE78 0590000C
005BBE7C 03A01000
005BBE80 05C01000
005BBE84 E8BD8003
005BBE88 0070BC2C
0045D804 EB057995

[Egg Instant Hatch v1.1]
005BBE40 E59D000C
005BBE44 E59F500C
005BBE48 E1500005
005BBE4C 03A00000
005BBE50 11A00004
005BBE54 E12FFF1E
005BBE58 00704650
004AF5FC EB04320F

[Z-moves use is possible without Z-Crystal v1.1]
E05BBDE0 00000058
E92D407D E1A00006
EA000000 E92D407D
E1D510B4 E59D201C
E202530F E3550203
18BD807D E59F300C
EB000004 E59F3008
EB000002 E8BD807D
30000404 300073EC
E2834018 E4935004
E1550002 01A01000
E1530004 1AFFFFFA
005BBE38 E12FFF1E
0031C494 EB0A7E51
0031C504 EB0A7E38
00376EB0 E3A00000
DD000000 00000200
00376EB0 E3A00001
D0000000 00000000

[Fix stat of a pokemon in battle v1.1]
00000000 00000000

[EXP multiplier after battle(Includes figure of a decimal point) v1.1]
00000000 00000000

[Mega evolution of party pokemon does not cancel after load v1.1]
E05BBCA8 00000098
E1A05000 E92D5FFF
E59D004C E59F2080
E1520000 03510000
18BD9FFF E3A00203
E59000D8 E5900020
E5900004 E5906024
E596500C E5967004
E2877C0F E28770BC
E3A08F41 E5D54018
E3A03000 E7950103
E5901004 E5902008
E0297893 E289A0E8
E28AB01C E499C004
E481C004 E15A0009
1AFFFFFB E499C004
E482C004 E15B0009
1AFFFFFB E2833001
E1540003 1AFFFFEE
E8BD9FFF 006E0950
002F381C EB0B2121

[Mega evolution does not cancel after battle v1.1]
005BBC54 E59D6020
E05BBC58 00000048
E28F901C E499A004
E35A0000 01A06000
012FFF1E E15A0006
08BD4FF0 012FFF1E
EAFFFFF7 0075D0A0
0075D454 0075D46C
0075D490 0075D4B0
0075D4E8 0075D510
00324F90 00000000
00324450 EB0A5DFF

[PP Not Decrease v1.1]
5808F9F0 E1A04000
50669020 00000000
00669020 00000010
D0000000 00000000
D0000000 00000000
60669020 00000000
D9000000 00669020
D4000000 FFFFFFFF
D6000000 00669020
D0000000 00000000
D3000000 00000000
50669020 00000001
005BBC14 E1A04000
005BBC18 E92D4007
005BBC1C E59F0018
005BBC20 E2801018
005BBC24 E4902004
005BBC28 E1560002
005BBC2C 03A04000
005BBC30 E1510000
005BBC34 1AFFFFFA
005BBC38 E8BD8007
005BBC3C 300073EC
0808F9F0 EBF95887
D0000000 00000000

[HP Not Decrease v1.1]
58099D8C E1D021B0
5066901C 00000000
0066901C 00000010
D0000000 00000000
D0000000 00000000
6066901C 00000000
D9000000 0066901C
D4000000 FFFFFFFF
D6000000 0066901C
D0000000 00000000
D3000000 00000000
5066901C 00000001
005BBBD4 E1D021B0
005BBBD8 E92D407C
005BBBDC E59F2024
005BBBE0 E59F3024
005BBBE4 E2834018
005BBBE8 E4925004
005BBBEC E4936004
005BBBF0 E1500005
005BBBF4 11500006
005BBBF8 03A01000
005BBBFC E1530004
005BBC00 1AFFFFF8
005BBC04 E8BD807C
005BBC08 30000404
005BBC0C 300073EC
08099D8C EBF92F90
D0000000 00000000

[Always critical hit v1.1]
58087FB8 E59D0000
50669018 00000000
00669018 00000010
D0000000 00000000
D0000000 00000000
60669018 00000000
D9000000 00669018
D4000000 FFFFFFFF
D6000000 00669018
D0000000 00000000
D3000000 00000000
50669018 00000001
005BBB90 E59D0000
005BBB94 E92D401E
005BBB98 E59A1008
005BBB9C E2813004
005BBBA0 E281401C
005BBBA4 E4932004
005BBBA8 E1500002
005BBBAC 03A01001
005BBBB0 058D1018
005BBBB4 E1530004
005BBBB8 1AFFFFF9
005BBBBC E8BD801E
08087FB8 EBF976F4
D0000000 00000000

[Mega Evolve Without Holding The Stones v1.1]
00000000 00000000
