

[L+A for 99k Bells in slot 1]
DD000000 00000201
D3000000 10000000
25FBEDD0 00000012
25FBEDD1 00000021

[Item in Slot 1 (With Item ID list)]
DD000000 00000201
D3000000 10000000
25FBEDD0 000000FE
25FBEDD1 0000007F

[Item Duplication (L copy, R paste)]
DD000000 00000200
D9000000 15FBEDD0
D6000000 15FBED60
D0000000 00000000
DD000000 00000100
D9000000 15FBED60
D6000000 15FBEDD0

[Dynamic Slot 1 Modifier (Read Description)]
DD000000 00000A00
DA000000 15FBEDD0
D7000000 170608E8
D0000000 00000000
DD000000 00000900
DA000000 170608E8
D7000000 15FBEDD0

[Text to Item Part 1]
DD000000 00000100
D3000000 10000000
DB000000 06F4C460
D4000000 FFFFFFD0
D8000000 0FFADFC8
D3000000 10000000
4FFADFC8 00000010
D4000000 FFFFFFF9
D8000000 0FFADFC8
D0000000 00000000
DD000000 00000100
D3000000 10000000
DB000000 06F4C462
D4000000 FFFFFFD0
D8000000 0FFADFCC
D3000000 10000000
4FFADFCC 00000010
D4000000 FFFFFFF9
D8000000 0FFADFCC
D0000000 00000000
DD000000 00000100
D3000000 10000000
DB000000 06F4C464
D4000000 FFFFFFD0
D8000000 0FFADFD0
D3000000 10000000
4FFADFD0 00000010
D4000000 FFFFFFF9
D8000000 0FFADFD0
D0000000 00000000
DD000000 00000100
D3000000 10000000
DB000000 06F4C466
D4000000 FFFFFFD0
D8000000 0FFADFD4
D3000000 10000000
4FFADFD4 00000010
D4000000 FFFFFFF9
D8000000 0FFADFD4
D2000000 00000000

[Text to Item Part 2]
DD000000 00000100
D3000000 10000000
DB000000 0FFADFCC
5FFADFC8 00000001
D4000000 00000010
D0000000 00000000
5FFADFC8 00000002
D4000000 00000020
D0000000 00000000
5FFADFC8 00000003
D4000000 00000030
D0000000 00000000
5FFADFC8 00000004
D4000000 00000040
D0000000 00000000
5FFADFC8 00000005
D4000000 00000050
D0000000 00000000
5FFADFC8 00000006
D4000000 00000060
D0000000 00000000
5FFADFC8 00000007
D4000000 00000070
D0000000 00000000
5FFADFC8 00000008
D4000000 00000080
D0000000 00000000
5FFADFC8 00000009
D4000000 00000090
D0000000 00000000
5FFADFC8 0000000A
D4000000 000000A0
D0000000 00000000
5FFADFC8 0000000B
D4000000 000000B0
D0000000 00000000
5FFADFC8 0000000C
D4000000 000000C0
D0000000 00000000
5FFADFC8 0000000D
D4000000 000000D0
D0000000 00000000
5FFADFC8 0000000E
D4000000 000000E0
D0000000 00000000
5FFADFC8 0000000F
D4000000 000000F0
D0000000 00000000
DD000000 00000100
D3000000 10000000
D8000000 0FFADFD9
D2000000 00000000

[Text to Item Part 3]
DD000000 00000100
D3000000 10000000
DB000000 0FFADFD4
5FFADFD0 00000001
D4000000 00000010
D0000000 00000000
5FFADFD0 00000002
D4000000 00000020
D0000000 00000000
5FFADFD0 00000003
D4000000 00000030
D0000000 00000000
5FFADFD0 00000004
D4000000 00000040
D0000000 00000000
5FFADFD0 00000005
D4000000 00000050
D0000000 00000000
5FFADFD0 00000006
D4000000 00000060
D0000000 00000000
5FFADFD0 00000007
D4000000 00000070
D0000000 00000000
5FFADFD0 00000008
D4000000 00000080
D0000000 00000000
5FFADFD0 00000009
D4000000 00000090
D0000000 00000000
5FFADFD0 0000000A
D4000000 000000A0
D0000000 00000000
5FFADFD0 0000000B
D4000000 000000B0
D0000000 00000000
5FFADFD0 0000000C
D4000000 000000C0
D0000000 00000000
5FFADFD0 0000000D
D4000000 000000D0
D0000000 00000000
5FFADFD0 0000000E
D4000000 000000E0
D0000000 00000000
5FFADFD0 0000000F
D4000000 000000F0
D0000000 00000000
DD000000 00000100
D3000000 10000000
D8000000 0FFADFD8
D2000000 00000000
DD000000 00000100
DA000000 1FFADFD8
D7000000 15FBEDD0
D2000000 00000000

[L+A all item slots are 99k Bells]
DD000000 00000201
D3000000 10000000
C0000000 00000010
25FBEDD0 00000012
25FBEDD1 00000021
DC000000 00000004
D1000000 00000000

[Warping]
DD000000 00000063
D3000000 10000000
07321B18 4427405E
07321B14 42E00000
07321B10 44253715
D0000000 00000000
DD000000 00000053
D3000000 10000000
07321B18 442C4000
07321B14 42E00000
07321B10 45239943
D0000000 00000000
DD000000 000000A3
D3000000 10000000
07321B18 450A7F48
07321B14 42E00000
07321B10 4442761E
D0000000 00000000
DD000000 00000093
D3000000 10000000
07321B18 45071000
07321B14 42E00000
07321B10 451E028E
D2000000 00000000

[Speed Hack]
DD000000 00000002
D3000000 10000000
07321B3C 41A79DB3

[Coordinates Modifer]
DD000000 00000011
D3000000 10000000
57321C44 FFFFFFFF
D9000000 07321B10
D4000000 00003F80
D6000000 07321B10
D2000000 00000000
DD000000 00000011
D3000000 10000000
67321C44 FFFFFFFF
D9000000 07321C3C
D4000000 00003F80
D6000000 07321C3C
D2000000 00000000
DD000000 00000021
D3000000 10000000
57321C44 FFFFFFFF
D9000000 07321B10
D4000000 FFFFC07F
D6000000 07321B10
D2000000 00000000
DD000000 00000021
D3000000 10000000
67321C44 FFFFFFFF
D9000000 07321C3C
D4000000 FFFFC07F
D6000000 07321C3C
D2000000 00000000
DD000000 00000081
D3000000 10000000
57321C44 FFFFFFFF
D9000000 07321B18
D4000000 00003F80
D6000000 07321B18
D2000000 00000000
DD000000 00000081
D3000000 10000000
67321C44 FFFFFFFF
D9000000 07321C44
D4000000 00003F80
D6000000 07321C44
D2000000 00000000
DD000000 00000041
D3000000 10000000
57321C44 FFFFFFFF
D9000000 07321B10
D4000000 FFFFC07F
D6000000 07321B18
D2000000 00000000
DD000000 00000041
D3000000 10000000
67321C44 FFFFFFFF
D9000000 07321C44
D4000000 FFFFC07F
D6000000 07321C44
D2000000 00000000

[Teleport]
DD000000 00000042
D3000000 10000000
57321C44 FFFFFFFF
D9000000 07321B10
D6000000 05000000
D9000000 07321B18
D6000000 05000004
D2000000 00000000
DD000000 00000042
D3000000 10000000
67321C44 FFFFFFFF
D9000000 07321C3C
D6000000 05000000
D9000000 07321C44
D6000000 05000004
D2000000 00000000
DD000000 00000082
D3000000 10000000
57321C44 FFFFFFFF
D9000000 05000000
D6000000 07321B10
D9000000 05000004
D6000000 07321B18
D2000000 00000000
DD000000 00000082
D3000000 10000000
67321C44 FFFFFFFF
D9000000 05000000
D6000000 07321B3C
D9000000 05000004
D6000000 07321B44
D2000000 00000000