

[90000 Coins Collected]
D3000000 14000000
0013BCF0 00015F90

[Mirror Mode Unlocked]
D3000000 14000000
2013BF1C 000000FF

[All Gliders]
D3000000 14000000
2013BF18 0000003F

[All Wheels]
D3000000 14000000
2013BF14 0000007F

[All Karts]
D3000000 14000000
1013BF10 00003FFF

[All Characters]
D3000000 14000000
0013BF08 01FF003F

[All Courses]
D3000000 14000000
2013BF07 0000003F

[Coin x 99,999 v1.0]
D3000000 14000000
0013BCF0 0001869F

[VR Extender - CHI Rev1]
60661CFC 00000000
B0661CFC 00000000
DC000000 FFFFF1D0
00000000 000F412E
D2000000 00000000

[Blinking invincible - CHI Rev1]
D3000000 10000000
946E1BB4 FF000001
B40005AC 00000000
B0000628 00000000
DC000000 FFFFF294
00000000 0000FFFF
D2000000 00000000

[Status invincible - CHI Rev1]
D3000000 10000000
946E1BB4 FF000001
B40005AC 00000000
B0000628 00000000
DC000000 FFFFEE9A
90000000 FF000001
20000000 00000000
D2000000 00000000

[Totally disable first person view - CHI Rev1]
0044374C E3A01000

[Moonjump (D-Pad UP) - CHI Rev1]
DD000000 00000040
D3000000 10000000
946E1BB4 FF000001
B40005AC 00000000
B0000628 00000000
DC000000 FFFFE2A4
00000000 42000000
D2000000 00000000