

[Max Money]
083FF09C 000F423F

[Max Macca]
083FF0A0 000F423F

[All items x255]
C0000000 0000016F
283FEF20 000000FF
DC000000 00000001
D1000000 00000000

[Hero Max Exp]
00915A24 000F423F

[Hero HP/MP]
10915A28 000003E7
10915A2C 000003E7
10915A30 000003E7
10915A34 000003E7

[Hero Stats]
00915A52 28282828
10915A56 00002828

[Nemissa Max Exp]
00915A74 000F423F

[Nemissa HP/MP]
10915A78 000003E7
10915A7C 000003E7
10915A80 000003E7
10915A84 000003E7

[Nemissa Stats]
00915AA2 28282828
10915AA6 00002828

[11 Demon HP/MP]
C0000000 0000000A
10915724 000003E7
10915728 000003E7
1091572C 000003E7
10915730 000003E7
DC000000 00000040
D1000000 00000000

[11 Demon Stats]
C0000000 0000000A
0091574E 28282828
10915752 00002828
DC000000 00000040
D1000000 00000000