

[Max Macca]
08221F78 000F423F

[MC Max Stat in 1 code]
08221ACA 28282828

[MC Max ST,MA,VI,AG]
28221ACA 00000028
28221ACB 00000028
28221ACC 00000028
28221ACD 00000028

[MC Max MA stat]
28221ACB 00000028

[MC Max VI stat]
28221ACC 00000028

[MC Max AG stat]
28221ACD 00000028

[MC Max ST stat]
28221ACA 00000028

[MC - Max Lvl and Stats]
28221AC5 00000063
18221AC8 00000000
28221ACA 00000028
28221ACB 00000028
28221ACC 00000028
28221ACD 00000028
18221ACE 000003E7
18221AD0 000003E7

[2C - Max Lvl and Stats]
28221AE1 00000063
18221AE4 00000000
28221AE6 00000028
28221AE7 00000028
28221AE8 00000028
28221AE9 00000028
18221AEA 000003E7
18221AEC 000003E7

[Team 1, Slot 1 Demon - Max Lvl]
28221C85 00000063
18221C88 00000000
28221C8A 00000028
28221C8B 00000028
28221C8C 00000028
28221C8D 00000028
18221C8E 000003E7
18221C90 000003E7