

[Chun-li/Xiaoyu Max HP/SP v1.0]
D3000000 30000000
015680EC 000F423F
115680F0 000003E7
01568128 000F423F
1156812C 000003E7

[Chun-li/Xiaoyu Max CPv1.0]
D3000000 30000000
015686AC 0098967F

[Chun-li/Xiaoyu Max Expv1.0]
D3000000 30000000
015686A8 000F423F

[Max Gold v1.0/1.2]
D3000000 30000000
0005D3C0 000F423F

[All items x99 v1.0/1.2]
D3000000 30000000
C0000000 0000013E
2005D6B3 00000063
DC000000 00000003
D1000000 00000000

[All characters Max Exp v1.0]
D3000000 30000000
C0000000 0000001C
015680BC 000F423F
DC000000 000005EC
D1000000 00000000

[All characters Max Cp v1.0]
D3000000 30000000
C0000000 0000001C
015680C0 0098967F
DC000000 000005EC
D1000000 00000000

[All characters Max HP/SP v1.0]
D3000000 30000000
C0000000 0000001C
01567B00 000F423F
11567B04 000003E7
01567B3C 000F423F
11567B40 000003E7
DC000000 000005EC
D1000000 00000000

[All characters Max Stats v1.0]
D3000000 30000000
C0000000 0000001C
11567B42 000003E7
11567B44 000003E7
11567B46 000003E7
11567B48 000003E7
21567B4A 00000063
DC000000 000005EC
D1000000 00000000

[All characters Max Atk v1.0]
D3000000 30000000
C0000000 0000001C
11567B42 000003E7
DC000000 000005EC
D1000000 00000000

[All characters Max Def v1.0]
D3000000 30000000
C0000000 0000001C
11567B44 000003E7
DC000000 000005EC
D1000000 00000000

[All characters Max Tec v1.0]
D3000000 30000000
C0000000 0000001C
11567B46 000003E7
DC000000 000005EC
D1000000 00000000

[All characters Max Dex v1.0]
D3000000 30000000
C0000000 0000001C
11567B48 000003E7
DC000000 000005EC
D1000000 00000000

[All characters Max Move v1.0]
D3000000 30000000
C0000000 0000001C
21567B4A 00000063
DC000000 000005EC
D1000000 00000000

[Ryu/Ken Max Exp v1.0]
D3000000 30000000
015680BC 000F423F

[Ryu/Ken Max CP v1.0]
D3000000 30000000
015680C0 0098967F

[Ryu/Ken Max HP/SP v1.0]
01567B00 000F423F
11567B04 000003E7
01567B3C 000F423F
11567B40 000003E7

[Ryu/Ken Max Stats v1.0]
D3000000 30000000
11567B42 000003E7
11567B44 000003E7
11567B46 000003E7
11567B48 000003E7
21567B4A 00000063

[Ryu/Ken Max Atk v1.0]
D3000000 30000000
11567B42 000003E7

[Ryu/Ken Max Def v1.0]
D3000000 30000000
11567B44 000003E7

[Ryu/Ken Max Tec v1.0]
D3000000 30000000
11567B46 000003E7

[Ryu/Ken Max Dex v1.0]
D3000000 30000000
11567B48 000003E7

[Ryu/Ken Max Move v1.0]
D3000000 30000000
21567B4A 00000063

[Chun-li/Xiaoyu Max Stats v1.0]
D3000000 30000000
1156812E 000003E7
11568130 000003E7
11568132 000003E7
11568134 000003E7
21568136 00000063

[Chun-li/Xiaoyu Max Atk v1.0]
D3000000 30000000
1156812E 000003E7

[Chun-li/Xiaoyu Max Def v1.0]
D3000000 30000000
11568130 000003E7

[Chun-li/Xiaoyu Max Tec v1.0]
D3000000 30000000
11568132 000003E7

[Chun-li/Xiaoyu Max Dex v1.0]
D3000000 30000000
11568134 000003E7

[Chun-li/Xiaoyu Max Move v1.0]
D3000000 30000000
21568136 00000063

[Dante/Vergil Max Expv1.0]
D3000000 30000000
01568C94 000F423F

[Dante/Vergil Max CPv1.0]
D3000000 30000000
01568C98 0098967F

[Dante/Vergil Max HP/SP v1.0]
D3000000 30000000
015686D8 000F423F
115686DC 000003E7
01568714 000F423F
11568718 000003E7

[Dante/Vergil Max Stats v1.0]
D3000000 30000000
1156871A 000003E7
1156871C 000003E7
1156871E 000003E7
11568720 000003E7
21568722 00000063

[Dante/Vergil Max Atk v1.0]
D3000000 30000000
1156872A 000003E7

[Dante/Vergil Max Def v1.0]
D3000000 30000000
1156872C 000003E7

[Dante/Vergil Max Tec v1.0]
D3000000 30000000
1156872E 000003E7

[Dante/Vergil Max Dex v1.0]
D3000000 30000000
11568720 000003E7

[Dante/Vergil Max Move v1.0]
D3000000 30000000
21568722 00000063

[Chris/Jill Max Expv1.0]
D3000000 30000000
01569280 000F423F

[Chris/Jill Max CPv1.0]
D3000000 30000000
01569284 0098967F

[Chris/Jill Max HP/SP v1.0]
D3000000 30000000
01568CC4 000F423F
11568CC8 000003E7
01568D00 000F423F
11568D04 000003E7

[Chris/Jill Max Stats v1.0]
D3000000 30000000
11568D06 000003E7
11568D08 000003E7
11568D0A 000003E7
11568D0C 000003E7
21568D0E 00000063

[Chris/Jill Max Atk v1.0]
D3000000 30000000
11568D06 000003E7

[Chris/Jill Max Def v1.0]
D3000000 30000000
11568D08 000003E7

[Chris/Jill Max Tec v1.0]
D3000000 30000000
11568D0A 000003E7

[Chris/Jill Max Dex v1.0]
D3000000 30000000
11568D0C 000003E7

[Chris/Jill Max Move v1.0]
D3000000 30000000
21568D0E 00000063

[Demitri/Morrigan Max Expv1.0]
D3000000 30000000
0156986C 000F423F

[Demitri/Morrigan Max CPv1.0]
D3000000 30000000
01569870 0098967F

[Demitri/Morrigan Max HP/SP v1.0]
D3000000 30000000
015692B0 000F423F
115692B4 000003E7
015692EC 000F423F
115692F0 000003E7

[Demitri/Morrigan Max Stats v1.0]
D3000000 30000000
115692F2 000003E7
115692F4 000003E7
115692F6 000003E7
115692F8 000003E7
215692FA 00000063

[Demitri/Morrigan Max Atk v1.0]
D3000000 30000000
115692F2 000003E7

[Demitri/Morrigan Max Def v1.0]
D3000000 30000000
115692F4 000003E7

[Demitri/Morrigan Max Tec v1.0]
D3000000 30000000
115692F6 000003E7

[Demitri/Morrigan Max Dex v1.0]
D3000000 30000000
115692F8 000003E7

[Demitri/Morrigan Max Move v1.0]
D3000000 30000000
215692FA 00000063

[X/Zero Max Exp v1.0]
D3000000 30000000
01569E58 000F423F

[X/Zero Max CP v1.0]
D3000000 30000000
01569E5C 0098967F

[X/Zero Max HP/SP v1.0]
D3000000 30000000
0156989C 000F423F
115698A0 000003E7
015698D8 000F423F
115698DC 000003E7

[X/Zero Max Stats v1.0]
D3000000 30000000
115698DE 000003E7
115698E0 000003E7
115698E2 000003E7
115698E4 000003E7
215698E6 00000063

[X/Zero Max Atk v1.0]
D3000000 30000000
115698DE 000003E7

[X/Zero Max Def v1.0]
D3000000 30000000
115698E0 000003E7

[X/Zero Max Tec v1.0]
D3000000 30000000
115698E2 000003E7

[X/Zero Max Dex v1.0]
D3000000 30000000
115698E4 000003E7

[X/Zero Max Move v1.0]
D3000000 30000000
215698E6 00000063

[Hiryu/Hotsuma Max Expv1.0]
D3000000 30000000
0156A444 000F423F

[Hiryu/Hotsuma Max CPv1.0]
D3000000 30000000
0156A448 0098967F

[Hiryu/Hotsuma Max HP/SP v1.0]
D3000000 30000000
01569E88 000F423F
11569E8C 000003E7
01569EC4 000F423F
11569EC8 000003E7

[Hiryu/Hotsuma Max Stats v1.0]
D3000000 30000000
11569ECA 000003E7
11569ECC 000003E7
11569ECE 000003E7
11569ED0 000003E7
21569ED2 00000063

[Hiryu/Hotsuma Max Atk v1.0]
D3000000 30000000
11569ECA 000003E7

[Hiryu/Hotsuma Max Def v1.0]
D3000000 30000000
11569ECC 000003E7

[Hiryu/Hotsuma Max Tec v1.0]
D3000000 30000000
11569ECE 000003E7

[Hiryu/Hotsuma Max Dex v1.0]
D3000000 30000000
11569ED0 000003E7

[Hiryu/Hotsuma Max Move v1.0]
D3000000 30000000
21569ED2 00000063

[Akira/Kage Maru Max Expv1.0]
D3000000 30000000
0156BBF4 000F423F

[Akira/Kage Maru Max CPv1.0]
D3000000 30000000
0156BBF8 0098967F

[Akira/Kage Maru Max HP/SP v1.0]
D3000000 30000000
0156B638 000F423F
1156B63C 000003E7
0156B674 000F423F
1156B678 000003E7

[Akira/Kage Maru Max Stats v1.0]
D3000000 30000000
1156B67A 000003E7
1156B67C 000003E7
1156B67E 000003E7
1156B680 000003E7
2156B682 00000063

[Akira/Kage Maru Max Atk v1.0]
D3000000 30000000
1156B67A 000003E7

[Akira/Kage Maru Max Def v1.0]
D3000000 30000000
1156B67C 000003E7

[Akira/Kage Maru Max Tec v1.0]
D3000000 30000000
1156B67E 000003E7

[Akira/Kage Maru Max Dex v1.0]
D3000000 30000000
1156B680 000003E7

[Akira/Kage Maru Max Move v1.0]
D3000000 30000000
2156B682 00000063

[Ichiro/Erica Max Expv1.0]
D3000000 30000000
0156C1E0 000F423F

[Ichiro/Erica Max CPv1.0]
D3000000 30000000
0156C1E4 0098967F

[Ichiro/Erica Max HP/SP v1.0]
D3000000 30000000
0156BC24 000F423F
1156BC28 000003E7
0156BC60 000F423F
1156BC64 000003E7

[Ichiro/Erica Max Stats v1.0]
D3000000 30000000
1156BC66 000003E7
1156BC68 000003E7
1156BC6A 000003E7
1156BC6C 000003E7
2156BC6E 00000063

[Ichiro/Erica Max Atk v1.0]
D3000000 30000000
1156BC66 000003E7

[Ichiro/Erica Max Def v1.0]
D3000000 30000000
1156BC68 000003E7

[Ichiro/Erica Max Tec v1.0]
D3000000 30000000
1156BC6A 000003E7

[Ichiro/Erica Max Dex v1.0]
D3000000 30000000
1156BC6C 000003E7

[Ichiro/Erica Max Move v1.0]
D3000000 30000000
2156BC6E 00000063

[Sakura/Gemini Max Expv1.0]
D3000000 30000000
0156C7CC 000F423F

[Sakura/Gemini Max CPv1.0]
D3000000 30000000
0156C7D0 0098967F

[Sakura/Gemini Max HP/SP v1.0]
D3000000 30000000
0156C210 000F423F
1156C214 000003E7
0156C24C 000F423F
1156C250 000003E7

[Sakura/Gemini Max Stats v1.0]
D3000000 30000000
1156C252 000003E7
1156C254 000003E7
1156C256 000003E7
1156C258 000003E7
2156C25A 00000063

[Sakura/Gemini Max Atk v1.0]
D3000000 30000000
1156C252 000003E7

[Sakura/Gemini Max Def v1.0]
D3000000 30000000
1156C254 000003E7

[Sakura/Gemini Max Tec v1.0]
D3000000 30000000
1156C256 000003E7

[Sakura/Gemini Max Dex v1.0]
D3000000 30000000
1156C258 000003E7

[Sakura/Gemini Max Move v1.0]
D3000000 30000000
2156C25A 00000063

[Kiryu/Majima Max Expv1.0]
D3000000 30000000
0156CDB8 000F423F

[Kiryu/Majima Max CPv1.0]
D3000000 30000000
0156CDBC 0098967F

[Kiryu/Majima Max HP/SP v1.0]
D3000000 30000000
0156C7FC 000F423F
1156C800 000003E7
0156C838 000F423F
1156C83C 000003E7

[Kiryu/Majima Max Stats v1.0]
D3000000 30000000
1156C83E 000003E7
1156C840 000003E7
1156C842 000003E7
1156C844 000003E7
2156C846 00000063

[Kiryu/Majima Max Atk v1.0]
D3000000 30000000
1156C83E 000003E7

[Kiryu/Majima Max Def v1.0]
D3000000 30000000
1156C840 000003E7

[Kiryu/Majima Max Tec v1.0]
D3000000 30000000
1156C842 000003E7

[Kiryu/Majima Max Dex v1.0]
D3000000 30000000
1156C844 000003E7

[Kiryu/Majima Max Move v1.0]
D3000000 30000000
2156C846 00000063

[Zephyr/Vashyron Max Expv1.0]
D3000000 30000000
0156D3A4 000F423F

[Zephyr/Vashyron Max CPv1.0]
D3000000 30000000
0156D3A8 0098967F

[Zephyr/Vashyron Max HP/SP v1.0]
D3000000 30000000
0156CDE8 000F423F
1156CDEC 000003E7
0156CE24 000F423F
1156CE28 000003E7

[Zephyr/Vashyron Max Stats v1.0]
D3000000 30000000
1156CE2A 000003E7
1156CE2D 000003E7
1156CE2E 000003E7
1156CE30 000003E7
2156CE32 00000063

[Zephyr/Vashyron Max Atk v1.0]
D3000000 30000000
1156CE2A 000003E7

[Zephyr/Vashyron Max Def v1.0]
D3000000 30000000
1156CE2C 000003E7

[Zephyr/Vashyron Max Tec v1.0]
D3000000 30000000
1156CE2E 000003E7

[Zephyr/Vashyron Max Dex v1.0]
D3000000 30000000
1156CE30 000003E7

[Zephyr/Vashyron Max Move v1.0]
D3000000 30000000
2156CE32 00000063

[Jin/Kazuya Max Expv1.0]
D3000000 30000000
0156F72C 000F423F

[Jin/Kazuya Max CPv1.0]
D3000000 30000000
0156F730 0098967F

[Jin/Kazuya Max HP/SP v1.0]
D3000000 30000000
0156F170 000F423F
1156F174 000003E7
0156F1AC 000F423F
1156F1B0 000003E7

[Jin/Kazuya Max Stats v1.0]
D3000000 30000000
1156F1B2 000003E7
1156F1B4 000003E7
1156F1B6 000003E7
1156F1B8 000003E7
2156F1BA 00000063

[Jin/Kazuya Max Atk v1.0]
D3000000 30000000
1156F1B2 000003E7

[Jin/Kazuya Max Def v1.0]
D3000000 30000000
1156F1B4 000003E7

[Jin/Kazuya Max Tec v1.0]
D3000000 30000000
1156F1B6 000003E7

[Jin/Kazuya Max Dex v1.0]
D3000000 30000000
1156F1B8 000003E7

[Jin/Kazuya Max Move v1.0]
D3000000 30000000
2156F1BA 00000063

[Yuri/Flynn Max Expv1.0]
D3000000 30000000
0156FD18 000F423F

[Yuri/Flynn Max CPv1.0]
D3000000 30000000
0156FD1C 0098967F

[Yuri/Flynn Max HP/SP v1.0]
D3000000 30000000
0156F75C 000F423F
1156F760 000003E7
0156F798 000F423F
1156F79C 000003E7

[Yuri/Flynn Max Stats v1.0]
D3000000 30000000
1156F79E 000003E7
1156F7A0 000003E7
1156F7A2 000003E7
1156F7A4 000003E7
2156F7A6 00000063

[Yuri/Flynn Max Atk v1.0]
D3000000 30000000
1156F79E 000003E7

[Yuri/Flynn Max Def v1.0]
D3000000 30000000
1156F7A0 000003E7

[Yuri/Flynn Max Tec v1.0]
D3000000 30000000
1156F7A2 000003E7

[Yuri/Flynn Max Dex v1.0]
D3000000 30000000
1156F7A4 000003E7

[Yuri/Flynn Max Move v1.0]
D3000000 30000000
2156F7A6 00000063

[Ciel/Nana Max Expv1.0]
D3000000 30000000
01570304 000F423F

[iel/Nana Max CPv1.0]
D3000000 30000000
01570308 0098967F

[Ciel/Nana Max HP/SP v1.0]
D3000000 30000000
0156FD48 000F423F
1156FD4C 000003E7
0156FD84 000F423F
1156FD88 000003E7

[Ciel/Nana Max Stats v1.0]
D3000000 30000000
1156FD8A 000003E7
1156FD8C 000003E7
1156FD8E 000003E7
1156FD90 000003E7
2156FD92 00000063

[Ciel/Nana Max Atk v1.0]
D3000000 30000000
1156FD8A 000003E7

[Ciel/Nana Max Def v1.0]
D3000000 30000000
1156FD8C 000003E7

[Ciel/Nana Max Tec v1.0]
D3000000 30000000
1156FD8E 000003E7

[Ciel/Nana Max Dex v1.0]
D3000000 30000000
1156FD90 000003E7

[Ciel/Nana Max Move v1.0]
D3000000 30000000
2156FD92 00000063

[Kite/Haseo Max Expv1.0]
D3000000 30000000
015708F0 000F423F

[Kite/Haseo Max CPv1.0]
D3000000 30000000
015708F4 0098967F

[Kite/Haseo Max HP/SP v1.0]
D3000000 30000000
01570334 000F423F
11570338 000003E7
01570370 000F423F
11570374 000003E7

[Kite/Haseo Max Stats v1.0]
D3000000 30000000
11570376 000003E7
11570378 000003E7
1157037A 000003E7
1157037C 000003E7
2157037E 00000063

[Kite/Haseo Max Atk v1.0]
D3000000 30000000
11570376 000003E7

[Kite/Haseo Max Def v1.0]
D3000000 30000000
11570378 000003E7

[Kite/Haseo Max Tec v1.0]
D3000000 30000000
1157037A 000003E7

[Kite/Haseo Max Dex v1.0]
D3000000 30000000
1157037C 000003E7

[Kite/Haseo Max Move v1.0]
D3000000 30000000
2157037E 00000063

[Reiji/Xiaomu Max Expv1.0]
D3000000 30000000
01570EDC 000F423F

[Reiji/Xiaomu Max CPv1.0]
D3000000 30000000
01570EE0 0098967F

[Reiji/Xiaomu Max HP/SP v1.0]
D3000000 30000000
01570920 000F423F
11570924 000003E7
0157095C 000F423F
11570960 000003E7

[Reiji/Xiaomu Max Stats v1.0]
D3000000 30000000
11570962 000003E7
11570964 000003E7
11570966 000003E7
11570968 000003E7
2157096A 00000063

[Reiji/Xiaomu Max Atk v1.0]
D3000000 30000000
11570962 000003E7

[Reiji/Xiaomu Max Def v1.0]
D3000000 30000000
11570964 000003E7

[Reiji/Xiaomu Max Tec v1.0]
D3000000 30000000
11570966 000003E7

[Reiji/Xiaomu Max Dex v1.0]
D3000000 30000000
11570968 000003E7

[Reiji/Xiaomu Max Move v1.0]
D3000000 30000000
2157096A 00000063

[KOS-MOS/Fiora Max Expv1.0]
D3000000 30000000
015714C8 000F423F

[KOS-MOS/Fiora Max CPv1.0]
D3000000 30000000
015714CC 0098967F

[KOS-MOS/Fiora Max HP/SP v1.0]
D3000000 30000000
01570F0C 000F423F
11570F10 000003E7
01570F48 000F423F
11570F4C 000003E7

[KOS-MOS/Fiora Max Stats v1.0]
D3000000 30000000
11570F4E 000003E7
11570F50 000003E7
11570F52 000003E7
11570F54 000003E7
21570F56 00000063

[KOS-MOS/Fiora Max Atk v1.0]
D3000000 30000000
11570F4E 000003E7

[KOS-MOS/Fiora Max Def v1.0]
D3000000 30000000
11570F50 000003E7

[KOS-MOS/Fiora Max Tec v1.0]
D3000000 30000000
11570F52 000003E7

[KOS-MOS/Fiora Max Dex v1.0]
D3000000 30000000
11570F54 000003E7

[KOS-MOS/Fiora Max Move v1.0]
D3000000 30000000
21570F56 00000063

[Chrom/Lucina Max Expv1.0]
D3000000 30000000
01571AB4 000F423F

[Chrom/Lucina Max CPv1.0]
D3000000 30000000
01571AB8 0098967F

[Chrom/Lucina Max HP/SP v1.0]
D3000000 30000000
015714F8 000F423F
115714FC 000003E7
01571534 000F423F
11571538 000003E7

[Chrom/Lucina Max Stats v1.0]
D3000000 30000000
1157153A 000003E7
1157153C 000003E7
1157153E 000003E7
11571540 000003E7
21571542 00000063

[Chrom/Lucina Max Atk v1.0]
D3000000 30000000
1157153A 000003E7

[Chrom/Lucina Max Def v1.0]
D3000000 30000000
1157153C 000003E7

[Chrom/Lucina Max Tec v1.0]
D3000000 30000000
1157153E 000003E7

[Chrom/Lucina Max Dex v1.0]
D3000000 30000000
11571540 000003E7

[Chrom/Lucina Max Move v1.0]
D3000000 30000000
21571542 00000063