
++Fort42 Codes++

[Total Coins 999999]
00483380 000F423F

[EXP 9999]
00483570 0000270F

[--]

[++INSIDE ABYSS MODE ONLY!++]

[ABYSS ATTACK x50 START+UP]
DD000000 00000048
D3000000 00000000
204C553C 00000032
D2000000 00000000

[ABYSS SPEED x50 START+UP]
DD000000 00000048
D3000000 00000000
204C5548 00000032
D2000000 00000000

[ABYSS HEAT x50 START+UP]
DD000000 00000048
D3000000 00000000
204C5544 00000032
D2000000 00000000

[ABYSS DEFENSE x50 START+UP]
DD000000 00000048
D3000000 00000000
204C5540 00000032
D2000000 00000000

[ABYSS DEPTH x999 START+UP]
DD000000 00000048
D3000000 00000000
104C552C 000003E7
D2000000 00000000

[--]

[++INSIDE LEGION MODE ONLY!++]

[LEGION ATTACK x50 START+DOWN]
DD000000 00000088
D3000000 00000000
C0000000 0000000A
2050D2E0 00000032
DC000000 00000024
D1000000 00000000

[LEGION DEFENSE x50 START+DOWN]
DD000000 00000088
D3000000 00000000
C0000000 0000000A
2050D2E4 00000032
DC000000 00000024
D1000000 00000000

[LEGION SPEED x50 START+DOWN]
DD000000 00000088
D3000000 00000000
C0000000 0000000A
2050D2E8 00000032
DC000000 00000024
D1000000 00000000

[LEGION HEAT x50 START+DOWN]
DD000000 00000088
D3000000 00000000
C0000000 0000000A
2050D2EC 00000032
DC000000 00000024
D1000000 00000000

[BECOME NORMAL SELECT+LEFT]
DD000000 00000024
D3000000 00000000
C0000000 0000000A
2050D2DC 00000000
DC000000 00000024
D1000000 00000000

[BECOME EX SELECT+RIGHT]
DD000000 00000014
D3000000 00000000
C0000000 0000000A
2050D2DC 00000001
DC000000 00000024
D1000000 00000000

[BECOME UNLIMITED SELECT+DOWN]
DD000000 00000084
D3000000 00000000
C0000000 0000000A
2050D2DC 00000002
DC000000 00000024
D1000000 00000000

[--]

[++OTHERS++]

[MAX P$]
D3000000 00000000
00483380 000F423F
D2000000 00000000

[MAX EXP]
D3000000 00000000
1048356C 0000270F
D2000000 00000000

[MAX BGM]
188A7154 000001FF
188A724C 000001FF

[MAX VOICE]
188A89D0 000001FF
188A8A98 000001FF
188A8B60 000001FF
188A8C28 000001FF
188A9018 000001FF
188A89D0 000001FF
188A9114 000001FF
188A9210 000001FF
188A930C 000001FF
188A9408 000001FF
188A9504 000001FF
188A9600 000001FF
188A96FC 000001FF
188A97F8 000001FF
188A98F4 000001FF
D2000000 00000000

[MAX SFX]
188A73B0 000001FF
188A7478 000001FF
188A7540 000001FF
188A7608 000001FF
188A76D0 000001FF
188A7798 000001FF
188A7860 000001FF
188A7928 000001FF
188A79F0 000001FF
188A7AB8 000001FF
188A7B80 000001FF
188A7C48 000001FF
188A7D10 000001FF
188A7DD8 000001FF
188A7EA0 000001FF
188A7F68 000001FF
188A8030 000001FF
188A80F8 000001FF
188A81C0 000001FF
188A8288 000001FF
188A8350 000001FF
188A8418 000001FF
188A84E0 000001FF
188A85A8 000001FF
188A8670 000001FF
188A8738 000001FF
188A8800 000001FF
188A80C8 000001FF
188A8D24 000001FF
188A8E20 000001FF
188A8F1C 000001FF
D2000000 00000000

[--]
