

[Max Infinite Lives]
D3000000 00000000
004101B8 E5801004

[Freeze Timer, Doesn't show in interface]
D3000000 15000000
00B76100 00000539
D3000000 16000000
0048F75C 00000539

[Infinate Lives]
D3000000 14000000
0015E43C 000004FF

[Always have Tanooki suit]
D3000000 14000000
00162AD5 00000004

[Always have 99 ,Coins Doesn't show in interface]
D3000000 14000000
0015E468 00000063

[500 Star Coins]
D3000000 16000000
00758058 000001F4

[Regular Mario]
D3000000 10000000
06768264 00000000

[Super Mario]
D3000000 10000000
06768264 00000001

[Fire Mario]
D3000000 10000000
06768264 00000002

[Mini Mario]
D3000000 10000000
06768264 00000003

[Gold Mario]
D3000000 10000000
06768264 00000006

[Gold Tanooki Mario]
D3000000 10000000
06768264 00000007

[Rapid Fireballs]
D3000000 00000000
202E9110 00000000
202E9130 00000000

[Max Infinite Lives]
D3000000 00000000
004101B8 E5801004

[Invincible L+RIGHT BrowserCastle]
DD000000 00000210
D3000000 00000000
605E61E8 00000000
B05E61E8 00000000
30000364 14000000
B00003B0 00000000
20000015 00000007
D2000000 00000000

[Small Mario L and LEFT]
DD000000 00000220
D3000000 00000000
605E61E8 00000000
B05E61E8 00000000
40000364 14000000
B0000364 00000000
20000015 00000000
D2000000 00000000

[Big Mario L and DOWN]
DD000000 00000280
D3000000 00000000
605E61E8 00000000
B05E61E8 00000000
40000364 14000000
B0000364 00000000
20000015 00000001
D2000000 00000000

[Gold Mario L and UP]
DD000000 00000240
D3000000 00000000
605E61E8 00000000
B05E61E8 00000000
40000364 14000000
B0000364 00000000
20000015 00000006
D2000000 00000000

[Invincibe Mario R and RIGHT]
DD000000 00000110
D3000000 00000000
605E61E8 00000000
B05E61E8 00000000
40000364 14000000
B0000364 00000000
20000015 00000007
D2000000 00000000

[Raccoon Mario R and LEFT]
DD000000 00000120
D3000000 00000000
605E61E8 00000000
B05E61E8 00000000
40000364 14000000
B0000364 00000000
20000015 00000004
D2000000 00000000

[Mini Mario R and DOWN]
DD000000 00000180
D3000000 00000000
605E61E8 00000000
B05E61E8 00000000
40000364 14000000
B0000364 00000000
20000015 00000003
D2000000 00000000

[Fire Mario R and UP]
DD000000 00000140
D3000000 00000000
605E61E8 00000000
B05E61E8 00000000
40000364 14000000
B0000364 00000000
20000015 00000002
D2000000 00000000

[L+R add 100000 coins in Stage]
DD000000 00000300
D3000000 00000000
605E61E8 00000000
B05E61E8 00000000
000000B0 000186A0
D2000000 00000000

[500 Lives]
D3000000 14000000
0015E43C 000001F4

[Small Mario L+LEFT, Browser Castle]
DD000000 00000220
D3000000 00000000
605E61E8 00000000
B05E61E8 00000000
30000364 14000000
B00003B0 00000000
20000015 00000000
D2000000 00000000

[Big Mario L+DOWN, Browser Castle]
DD000000 00000280
D3000000 00000000
605E61E8 00000000
B05E61E8 00000000
30000364 14000000
B00003B0 00000000
20000015 00000001
D2000000 00000000

[Gold Mario L+UP, Browser Castle]
DD000000 00000240
D3000000 00000000
605E61E8 00000000
B05E61E8 00000000
30000364 14000000
B00003B0 00000000
20000015 00000006
D2000000 00000000

[Raccoon Mario R+LEFT, Browser Castle]
DD000000 00000120
D3000000 00000000
605E61E8 00000000
B05E61E8 00000000
30000364 14000000
B00003B0 00000000
20000015 00000004
D2000000 00000000

[Mini Mario R+DOWN, Browser Castle]
DD000000 00000180
D3000000 00000000
605E61E8 00000000
B05E61E8 00000000
30000364 14000000
B00003B0 00000000
20000015 00000003
D2000000 00000000

[Fire Mario R+UP, Browser Castle]
DD000000 00000140
D3000000 00000000
605E61E8 00000000
B05E61E8 00000000
30000364 14000000
B00003B0 00000000
20000015 00000002
D2000000 00000000

[(static) Max Inf lives *v1.0]
D3000000 10000000
6402EED0 00000000
B402EED0 00000000
DC000000 FFFFFEF4
10000000 00000456
D2000000 00000000

[Reset Lives to 5]
D3000000 14000000
0015E43C 00000005

[Reset Amount of Coins in Stage]
D3000000 14000000
0015E468 00000000

[Multi-Jump]
D3000000 00000000
005694C0 E2841A01
005694C4 E28110E0
005694C8 E591100C
005694CC E2111001
005694D0 159F100C
005694D4 15801010
005694D8 E1A01000
005694DC E1A00000
005694E0 E12FFF1E
005694E4 40500000
001F63E0 EB0DCC36
D2000000 00000000

[Infinite Coins]
605E61E8 00000000
B05E61E8 00000000
000000AC 00000000
D2000000 00000000

[Invincible]
605E61E8 00000000
B05E61E8 00000000
000015EC 00000000
D2000000 00000000