

[(SELECT+Y)Max Money v1.0]
DD000000 00000804
D3000000 00000000
B06DA3E0 00000000
00000038 000F423F
D0000000 00000000

[(SELECT+Y)Dragon Point99 v1.0]
DD000000 00000804
D3000000 00000000
B06D1B30 00000000
B0000008 00000000
B0000000 00000000
100000D0 000026AC
D0000000 00000000

[(SELECT+Y)Gems & Foodstuff x99 v1.0]
DD000000 00000804
D3000000 00000000
B06D1B30 00000000
B0000008 00000000
B0000000 00000000
000000DC 03FF0FFF
B00000D4 00000000
00000000 63636363
00000004 63636363
00000008 63636363
00000018 63636363
0000001C 63636363
10000020 00006363
D0000000 00000000

[(SELECT+Y)Enable All City Item v1.0]
DD000000 00000804
D3000000 00000000
B06D1B30 00000000
B0000008 00000000
B0000000 00000000
10000046 00002492
00000048 49249249
0000004C 92492492
00000050 24924924
00000054 49249249
00000058 92492492
0000005C 24924924
00000060 49249249
00000064 92492492
00000068 24924924
0000006C 49249249
00000070 92492492
10000084 00007FE0
D0000000 00000000

[(SELECT+Y)Mastering weapon v1.0]
DD000000 00000804
D3000000 00000000
B06DA0D8 00000000
C0000000 000000FA
000000E8 FFFFFFFF
000000EC FFFFFFFF
60000014 00000000
B0000014 00000000
D0000000 00000000
D1000000 00000000
D0000000 00000000

[(SELECT+Y)Member's skill flag v1.0]
DD000000 00000804
D3000000 00000000
B06DA0D8 00000000
C0000000 000000FA
2000003F 000000FF
00000040 FFFFFFFF
00000044 FFFFFFFF
00000048 FFFFFFFF
0000004C FFFFFFFF
10000050 0000FFFF
20000052 000000FF
60000014 00000000
B0000014 00000000
D0000000 00000000
D1000000 00000000
D0000000 00000000

[(SELECT+Y)Move Add +100 v1.0]
DD000000 00000804
D3000000 00000000
B06DA0D8 00000000
C0000000 000000FA
2000012C 00000064
60000014 00000000
B0000014 00000000
D0000000 00000000
D1000000 00000000
D0000000 00000000

[(SELECT+Y)Convoy's item x99 v1.0]
DD000000 00000804
D3000000 00000000
B06D9780 00000000
C0000000 000001F4
60000004 00000000
20000004 00000063
D0000000 00000000
DC000000 00000008
D1000000 00000000
D0000000 00000000

[(SELECT+Y)All items in convoy to x95 v1.0]
D3000000 00000000
E0610F80 00000050
E5940000 E92D40FF
E59F003C E5904000
E3A05001 E3A0605F
E3A07C01 E2877063
E5845000 E1C460B4
E1A00005 EBF70110
E5D0101E E5C41003
E2844008 E2855001
E1550007 1AFFFFF5
E8BD80FF 006D9780
0010421C E5940000
DD000000 00000804
0010421C EB143357
D0000000 00000000

[(SELECT+Y)Can receive all items in Path Bonus v1.0]
DD000000 00000804
D3000000 00000000
B06D1B30 00000000
B0000008 00000000
B0000000 00000000
B00004C8 00000000
00000004 0077AC10
D3000000 00000000
B06D37D4 00000000
00000000 0077A000
00000004 00000170
D3000000 00000000
D5000000 00000001
C0000000 00000170
0077A000 00000001
D6000000 0077A004
D4000000 00000001
DC000000 00000004
D1000000 00000000
D3000000 00000000
00463860 000005CC
0048DD7C E3A00003
0048DD80 E12FFF1E
D0000000 00000000

[Get Exp 100(SELECT+X;ON, SELECT+B;OFF) v1.0]
D3000000 00000000
DD000000 00000404
0052DDC0 E3A01064
D0000000 00000000
DD000000 00000006
0052DDC0 C3A01064
D0000000 00000000

[Able to control enemy v1.0]
D3000000 00000000
0035205C E1500000

[Infinite Movement v1.0]
D3000000 00000000
0035206C EA00016C

[Able to item trade with the enemy v1.0]
D3000000 00000000
005287A0 E1500000

[Able to use convoy anyone v1.0]
D3000000 00000000
0037A92C E1A00000

[Able to attack an ally v1.0]
D3000000 00000000
0034BA68 E3A00000
003A1944 E3A00000

[Can receive Path Bonus again and again v1.0]
D3000000 00000000
0048DD7C E3A00003
0048DD80 E12FFF1E

[Stock in a store x99 v1.0]
D3000000 00000000
00610FE8 E92D0002
00610FEC E3A01063
00610FF0 E5C01002
00610FF4 E1A00001
00610FF8 E8BD0002
00610FFC E12FFF1E
00528EE0 1A03A040

[Next lottery no waiting v1.0]
D3000000 00000000
003C75B0 E3A04001
003C75B4 E5C04034
003C75B8 E3A00001
003C75BC E1A00000

[Lilith can eat again not waiting v1.0]
D3000000 00000000
0021C58C E3A00000

[When you defeat an enemy, Drop all items of the enemy v1.0]
D3000000 00000000
0035C984 E1D220B0
0035C988 E1A00000
0035C98C E3520000

[Can battle again not waiting in Arena v1.0]
D3000000 00000000
003BA728 E3A01001

[Free change difficult v1.0]
D3000000 00000000
00460908 E3840000
004609FC E3840000
00460A00 EA000000

[Anywhere starting position in preparations (including enemy) v1.0]
D3000000 00000000
003520F4 E1A00000
00352108 E3A00001
0035EC18 E3100B02
0035EC88 E3100B02

[All class selectable in Heart Seal (or Dread Scroll) v1.0]
D3000000 00000000
0021B41C EA000043
0021B538 E1A00004
0021B55C E3540082
0021B5F0 EA000004
0021B644 E1A00000

[Path Bonus item receive x99 in a mass v1.0]
D3000000 00000000
0048DCBC E3A01063

[More than 1% of growth rates don't fail to stat increases v1.0]
D3000000 00000000
003D8760 E3A00000

[Supports fast v1.0]
D3000000 00000000
0052F6F4 E3A01063
0052F5FC E3A01063
0052F59C E3A01063

[Able to set all skills(Include Personal skills) v1.0]
D3000000 00000000
004B9344 E1A00000
006D3DF8 000000E5

[Able to sell all the items v1.0]
D3000000 00000000
0053B9C0 13A00000

[Forge is possible from 0 to 63 v1.0]
D3000000 00000000
00529230 EA000009
00529298 E3A00063
003C16A8 E3A01000
003C1860 E351003F
003C1864 C3A0103F
003C186C E5841044
003C3FE4 E1A00000

[Infinite Staves & Batons & Items v1.0]
D3000000 00000000
0041A0E4 EA00000A

[All Weapon & Staves & Batons equipment possible v1.0]
D3000000 00000000
0052D864 E3A020FF
005303B8 E3A020FF
005250E0 E3A00001
0052D950 EA0000F6

[Able to take the Rage & Breath from Convoy v1.0]
D3000000 00000000
004B6C78 E3C22C02
004B6C7C E5842000
004B6C80 E1500000
004B7A8C E3C22C02
004B7A90 E5842000
004B7A94 E1500000
004BF138 E3C22C02
004BF13C E5852000
004BF140 E1500000
00610F60 E1C520D0
00610F64 E3C22C01
00610F68 E5852000
00610F6C E12FFF1E
00530C40 EB0380C6

[Can invite ally without waiting v1.0]
D3000000 00000000
00540D48 E3A00000
00540D4C E5850128
0018C348 E3A00000
0018C34C E5880128
0018C8DC E3A01008
0018C8E0 E5801014
0018C8E4 E1A00000