

[255 Coins (Hit A)]
DD000000 00000001
1868CE18 000000FF
D2000000 00000000

[Max Lives (hit B)]
DD000000 00000002
2868CE0B 00000063
D2000000 00000000

[Reset Timer (Hit R)]
DD000000 00000100
2868CE1D 00000001
D2000000 00000000