

[Berry Picker Minigame 999 Record]
082A46B0 000003E7

[Max Money]
08C6A69C 0098967F

[Max Pokemilles]
08C82B90 0098967F

[Berries you own x255]
C0000000 00000040
28C67FBE 00000063
DC000000 00000004
D1000000 00000000

[Items and Balls you own x255]
C0000000 000000F0
28C67556 000000FF
DC000000 00000004
D1000000 00000000

[Med pack items you own x255]
C0000000 0000003F
28C67EBE 000000FF
DC000000 00000004
D1000000 00000000

[Max/Inf HP v1.5]
481FB284 08200000
481FB624 08200000
B81FB284 00000000
1000000E 000003E7
10000010 000003E7
D3000000 00000000
B81FB624 00000000
1000000E 000003E7
10000010 000003E7
D2000000 00000000

[Max/Inf AP v1.5]
481FB284 08200000
481FB624 08200000
B81FB284 00000000
C0000000 00000002
C0000000 00000004
20000118 00000063
20000119 00000063
2000011E 00000063
2000011F 00000063
DC000000 0000000E
D1000000 00000000
D3000000 00000000
B81FB624 00000000
D1000000 00000000
D2000000 00000000

[Refill all HP (Press L) v1.5]
DD000000 00000200
481FB284 08200000
481FB624 08200000
B81FB284 00000000
C0000000 00000002
DA000000 0000000E
D7000000 00000010
D3000000 00000000
B81FB624 00000000
D1000000 00000000
D3000000 00000000
B81FB288 00000000
C0000000 00000002
DA000000 0000000E
D7000000 00000010
D3000000 00000000
B81FB628 00000000
D1000000 00000000
D3000000 00000000
B81FB28C 00000000
C0000000 00000002
DA000000 0000000E
D7000000 00000010
D3000000 00000000
B81FB62C 00000000
D1000000 00000000
D3000000 00000000
B81FB290 00000000
C0000000 00000002
DA000000 0000000E
D7000000 00000010
D3000000 00000000
B81FB630 00000000
D1000000 00000000
D3000000 00000000
B81FB294 00000000
C0000000 00000002
DA000000 0000000E
D7000000 00000010
D3000000 00000000
B81FB634 00000000
D1000000 00000000
D3000000 00000000
B81FB298 00000000
C0000000 00000002
DA000000 0000000E
D7000000 00000010
D3000000 00000000
B81FB698 00000000
D1000000 00000000
D3000000 00000000
D2000000 00000000

[Refill all AP (Press L) v1.5]
DD000000 00000200
481FB284 08200000
481FB624 08200000
B81FB284 00000000
C0000000 00000002
C0000000 00000004
DB000000 00000119
D8000000 00000118
D8000000 0000011D
DC000000 0000000C
D1000000 00000000
D3000000 00000000
B81FB624 00000000
D1000000 00000000
D3000000 00000000
B81FB288 00000000
C0000000 00000002
C0000000 00000004
DB000000 00000119
D8000000 00000118
D8000000 0000011D
DC000000 0000000C
D1000000 00000000
D3000000 00000000
B81FB628 00000000
D1000000 00000000
D3000000 00000000
B81FB28C 00000000
C0000000 00000002
C0000000 00000004
DB000000 00000119
D8000000 00000118
D8000000 0000011D
DC000000 0000000C
D1000000 00000000
D3000000 00000000
B81FB62C 00000000
D1000000 00000000
D3000000 00000000
B81FB290 00000000
C0000000 00000002
C0000000 00000004
DB000000 00000119
D8000000 00000118
D8000000 0000011D
DC000000 0000000C
D1000000 00000000
D3000000 00000000
B81FB630 00000000
D1000000 00000000
D3000000 00000000
B81FB294 00000000
C0000000 00000002
C0000000 00000004
DB000000 00000119
D8000000 00000118
D8000000 0000011D
DC000000 0000000C
D1000000 00000000
D3000000 00000000
B81FB634 00000000
D1000000 00000000
D3000000 00000000
B81FB298 00000000
C0000000 00000002
C0000000 00000004
DB000000 00000119
D8000000 00000118
D8000000 0000011D
DC000000 0000000C
D1000000 00000000
D3000000 00000000
B81FB638 00000000
D1000000 00000000
D2000000 00000000

[Max all HP (Press R) v1.5]
DD000000 00000100
481FB284 08200000
481FB624 08200000
B81FB284 00000000
1000000E 000003E7
D3000000 00000000
B81FB288 00000000
1000000E 000003E7
D3000000 00000000
B81FB28C 00000000
1000000E 000003E7
D3000000 00000000
B81FB290 00000000
1000000E 000003E7
D3000000 00000000
B81FB294 00000000
1000000E 000003E7
D3000000 00000000
B81FB298 00000000
1000000E 000003E7
D3000000 00000000
B81FB624 00000000
1000000E 000003E7
D3000000 00000000
B81FB628 00000000
1000000E 000003E7
D3000000 00000000
B81FB62C 00000000
1000000E 000003E7
D3000000 00000000
B81FB630 00000000
1000000E 000003E7
D3000000 00000000
B81FB634 00000000
1000000E 000003E7
D3000000 00000000
B81FB638 00000000
1000000E 000003E7
D2000000 00000000

[Max all AP (Press R) v1.5]
DD000000 00000100
481FB284 08200000
481FB624 08200000
B81FB284 00000000
C0000000 00000002
C0000000 00000004
20000119 00000063
2000011F 00000063
DC000000 0000000E
D1000000 00000000
D3000000 00000000
B81FB624 00000000
D1000000 00000000
D3000000 00000000
B81FB288 00000000
C0000000 00000002
C0000000 00000004
20000119 00000063
2000011F 00000063
DC000000 0000000E
D1000000 00000000
D3000000 00000000
B81FB628 00000000
D1000000 00000000
D3000000 00000000
B81FB28C 00000000
C0000000 00000002
C0000000 00000004
20000119 00000063
2000011F 00000063
DC000000 0000000E
D1000000 00000000
D3000000 00000000
B81FB62C 00000000
D1000000 00000000
D3000000 00000000
B81FB290 00000000
C0000000 00000002
C0000000 00000004
20000119 00000063
2000011F 00000063
DC000000 0000000E
D1000000 00000000
D3000000 00000000
B81FB630 00000000
D1000000 00000000
D3000000 00000000
B81FB294 00000000
C0000000 00000002
C0000000 00000004
20000119 00000063
2000011F 00000063
DC000000 0000000E
D1000000 00000000
D3000000 00000000
B81FB634 00000000
D1000000 00000000
D3000000 00000000
B81FB298 00000000
C0000000 00000002
C0000000 00000004
20000119 00000063
2000011F 00000063
DC000000 0000000E
D1000000 00000000
D3000000 00000000
B81FB638 00000000
D1000000 00000000
D2000000 00000000

[All Lvl 100 after Battle (Press Y) v1.5]
DD000000 00000800
481FB284 08200000
481FB624 08200000
B81FB284 00000000
00000008 00200000
D3000000 00000000
B81FB288 00000000
00000008 00200000
D3000000 00000000
B81FB28C 00000000
00000008 00200000
D3000000 00000000
B81FB290 00000000
00000008 00200000
D3000000 00000000
B81FB294 00000000
00000008 00200000
D3000000 00000000
B81FB298 00000000
00000008 00200000
D3000000 00000000
B81FB624 00000000
00000008 00200000
D3000000 00000000
B81FB628 00000000
00000008 00200000
D3000000 00000000
B81FB62C 00000000
00000008 00200000
D3000000 00000000
B81FB630 00000000
00000008 00200000
D3000000 00000000
B81FB634 00000000
00000008 00200000
D3000000 00000000
B81FB638 00000000
00000008 00200000
D3000000 00000000
D2000000 00000000

[Lvl 100 aft battle 1st PKMN (Press Y) v1.5]
DD000000 00000800
481FB284 08200000
481FB624 08200000
B81FB284 00000000
00000008 00200000
D3000000 00000000
B81FB624 00000000
00000008 00200000
D2000000 00000000

[1st ATK 1st PKMN Modifier v1.5]
481FB284 08200000
481FB624 08200000
B81FB284 00000000
1000011C 00001111
D3000000 00000000
B81FB624 00000000
1000011C 00001111
D2000000 00000000

[2nd ATK 1st PKMN Modifier v1.5]
481FB284 08200000
481FB624 08200000
B81FB284 00000000
1000012A 00001111
D3000000 00000000
B81FB624 00000000
1000012A 00001111
D2000000 00000000

[3rd ATK 1st PKMN Modifier v1.5]
481FB284 08200000
481FB624 08200000
B81FB284 00000000
10000138 00001111
D3000000 00000000
B81FB624 00000000
10000138 00001111
D2000000 00000000

[4th ATK 1st PKMN Modifier v1.5]
481FB284 08200000
481FB624 08200000
B81FB284 00000000
10000146 00001111
D3000000 00000000
B81FB624 00000000
10000146 00001111
D2000000 00000000

[Refill HP 1st PKMN (Press L) v1.5]
DD000000 00000200
481FB284 08200000
481FB624 08200000
B81FB284 00000000
DA000000 0000000E
D7000000 00000010
D3000000 00000000
B81FB624 00000000
D7000000 00000010
D2000000 00000000

[Max HP 1st Pokemon (Press R) v1.5]
DD000000 00000100
481FB284 08200000
481FB624 08200000
B81FB284 00000000
1000000E 000003E7
D3000000 00000000
B81FB624 00000000
1000000E 000003E7
D2000000 00000000

[Refill All AP 1st PKMN (Press L) v1.5]
DD000000 00000200
481FB284 08200000
481FB624 08200000
B81FB284 00000000
C0000000 00000002
C0000000 00000004
DB000000 00000119
D8000000 00000118
D8000000 0000011D
DC000000 0000000C
D1000000 00000000
D3000000 00000000
B81FB624 00000000
D1000000 00000000
D2000000 00000000

[Max All AP 1st PKMN (Press R) v1.5]
DD000000 00000100
481FB284 08200000
481FB624 08200000
B81FB284 00000000
C0000000 00000002
C0000000 00000004
20000119 00000063
2000011F 00000063
DC000000 0000000E
D1000000 00000000
D3000000 00000000
B81FB624 00000000
D1000000 00000000
D2000000 00000000

[Refill AP 1st ATK 1st PKMN (Press UP+L) v1.5]
DD000000 00000240
481FB284 08200000
481FB624 08200000
B81FB284 00000000
DB000000 00000119
D8000000 00000118
D8000000 0000011D
D3000000 00000000
B81FB624 00000000
D8000000 00000118
D8000000 0000011D
D2000000 00000000

[Max AP 1st ATK 1st PKMN (Press UP+R) v1.5]
DD000000 00000140
481FB284 08200000
481FB624 08200000
B81FB284 00000000
20000119 00000063
2000011F 00000063
D3000000 00000000
B81FB624 00000000
20000119 00000063
2000011F 00000063
D2000000 00000000

[Refill AP 2nd ATK 1st PKMN (Press RIGHT+L) v1.5]
DD000000 00000210
481FB284 08200000
481FB624 08200000
B81FB284 00000000
DB000000 00000127
D8000000 00000126
D8000000 0000012B
D3000000 00000000
B81FB624 00000000
D8000000 00000126
D8000000 0000012B
D2000000 00000000

[Max AP 2nd ATK 1st PKMN (Press RIGHT+R) v1.5]
DD000000 00000110
481FB284 08200000
481FB624 08200000
B81FB284 00000000
20000127 00000063
2000012D 00000063
D3000000 00000000
B81FB624 00000000
20000127 00000063
2000012D 00000063
D2000000 00000000

[Refill AP 3rd ATK 1st PKMN (Press DOWN+L) v1.5]
DD000000 00000280
481FB284 08200000
481FB624 08200000
B81FB284 00000000
DB000000 00000135
D8000000 00000134
D8000000 00000139
D3000000 00000000
B81FB624 00000000
D8000000 00000134
D8000000 00000139
D2000000 00000000

[Max AP 3rd ATK 1st PKMN (Press DOWN+R) v1.5]
DD000000 00000180
481FB284 08200000
481FB624 08200000
B81FB284 00000000
20000135 00000063
2000013B 00000063
D3000000 00000000
B81FB624 00000000
20000135 00000063
2000013B 00000063
D2000000 00000000

[Refill AP 4th ATK 1st PKMN (Press LEFT+L) v1.5]
DD000000 00000220
481FB284 08200000
481FB624 08200000
B81FB284 00000000
DB000000 00000143
D8000000 00000142
D8000000 00000147
D3000000 00000000
B81FB624 00000000
D8000000 00000142
D8000000 00000147
D2000000 00000000

[Max AP 4th ATK 1st PKMN (Press LEFT+R) v1.5]
DD000000 00000120
481FB284 08200000
481FB624 08200000
B81FB284 00000000
20000143 00000063
20000149 00000063
D3000000 00000000
B81FB624 00000000
20000143 00000063
20000149 00000063
D2000000 00000000

[Lvl 100 aft battle 2nd PKMN (Press Y) v1.5]
DD000000 00000800
481FB284 08200000
481FB624 08200000
B81FB288 00000000
00000008 00200000
D3000000 00000000
B81FB628 00000000
00000008 00200000
D2000000 00000000

[1st ATK 2nd PKMN Modifier v1.5]
481FB284 08200000
481FB624 08200000
B81FB288 00000000
1000011C 00001111
D3000000 00000000
B81FB628 00000000
1000011C 00001111
D2000000 00000000

[2nd ATK 2nd PKMN Modifier v1.5]
481FB284 08200000
481FB624 08200000
B81FB288 00000000
1000012A 00001111
D3000000 00000000
B81FB628 00000000
1000012A 00001111
D2000000 00000000

[3rd ATK 2nd PKMN Modifier v1.5]
481FB284 08200000
481FB624 08200000
B81FB288 00000000
10000138 00001111
D3000000 00000000
B81FB628 00000000
10000138 00001111
D2000000 00000000

[4th ATK 2nd PKMN Modifier v1.5]
481FB284 08200000
481FB624 08200000
B81FB288 00000000
10000146 00001111
D3000000 00000000
B81FB628 00000000
10000146 00001111
D2000000 00000000

[Refill HP 2nd PKMN (Press L) v1.5]
DD000000 00000200
481FB284 08200000
481FB624 08200000
B81FB288 00000000
DA000000 0000000E
D7000000 00000010
D3000000 00000000
B81FB628 00000000
D7000000 00000010
D2000000 00000000

[Max HP 2nd Pokemon (Press R) v1.5]
DD000000 00000100
481FB284 08200000
481FB624 08200000
B81FB288 00000000
1000000E 000003E7
D3000000 00000000
B81FB628 00000000
1000000E 000003E7
D2000000 00000000

[Refill All AP 2nd PKMN (Press L) v1.5]
DD000000 00000200
481FB284 08200000
481FB624 08200000
B81FB288 00000000
C0000000 00000002
C0000000 00000004
DB000000 00000119
D8000000 00000118
D8000000 0000011D
DC000000 0000000C
D1000000 00000000
D3000000 00000000
B81FB628 00000000
D1000000 00000000
D2000000 00000000

[Max All AP 2nd PKMN (Press R) v1.5]
DD000000 00000100
481FB284 08200000
481FB624 08200000
B81FB288 00000000
C0000000 00000002
C0000000 00000004
20000119 00000063
2000011F 00000063
DC000000 0000000E
D1000000 00000000
D3000000 00000000
B81FB628 00000000
D1000000 00000000
D2000000 00000000

[Refill AP 1st ATK 2nd PKMN (Press UP+L) v1.5]
DD000000 00000240
481FB284 08200000
481FB624 08200000
B81FB288 00000000
DB000000 00000119
D8000000 00000118
D8000000 0000011D
D3000000 00000000
B81FB628 00000000
D8000000 00000118
D8000000 0000011D
D2000000 00000000

[Max AP 1st ATK 2nd PKMN (Press UP+R) v1.5]
DD000000 00000140
481FB284 08200000
481FB624 08200000
B81FB288 00000000
20000119 00000063
2000011F 00000063
D3000000 00000000
B81FB628 00000000
20000119 00000063
2000011F 00000063
D2000000 00000000

[Refill AP 2nd ATK 2nd PKMN (Press RIGHT+L) v1.5]
DD000000 00000210
481FB284 08200000
481FB624 08200000
B81FB288 00000000
DB000000 00000127
D8000000 00000126
D8000000 0000012B
D3000000 00000000
B81FB628 00000000
D8000000 00000126
D8000000 0000012B
D2000000 00000000

[Max AP 2nd ATK 2nd PKMN (Press RIGHT+R) v1.5]
DD000000 00000110
481FB284 08200000
481FB624 08200000
B81FB288 00000000
20000127 00000063
2000012D 00000063
D3000000 00000000
B81FB628 00000000
20000127 00000063
2000012D 00000063
D2000000 00000000

[Refill AP 3rd ATK 2nd PKMN (Press DOWN+L) v1.5]
DD000000 00000280
481FB284 08200000
481FB624 08200000
B81FB288 00000000
DB000000 00000135
D8000000 00000134
D8000000 00000139
D3000000 00000000
B81FB628 00000000
D8000000 00000134
D8000000 00000139
D2000000 00000000

[Max AP 3rd ATK 2nd PKMN (Press DOWN+R) v1.5]
DD000000 00000180
481FB284 08200000
481FB624 08200000
B81FB288 00000000
20000135 00000063
2000013B 00000063
D3000000 00000000
B81FB628 00000000
20000135 00000063
2000013B 00000063
D2000000 00000000

[Refill AP 4th ATK 2nd PKMN (Press LEFT+L) v1.5]
DD000000 00000220
481FB284 08200000
481FB624 08200000
B81FB288 00000000
DB000000 00000143
D8000000 00000142
D8000000 00000147
D3000000 00000000
B81FB628 00000000
D8000000 00000142
D8000000 00000147
D2000000 00000000

[Max AP 4th ATK 2nd PKMN (Press LEFT+R) v1.5]
DD000000 00000120
481FB284 08200000
481FB624 08200000
B81FB288 00000000
20000143 00000063
20000149 00000063
D3000000 00000000
B81FB628 00000000
20000143 00000063
20000149 00000063
D2000000 00000000

[Lvl 100 aft battle 3rd PKMN (Press Y) v1.5]
DD000000 00000800
481FB284 08200000
481FB624 08200000
B81FB28C 00000000
00000008 00200000
D3000000 00000000
B81FB62C 00000000
00000008 00200000
D2000000 00000000

[1st ATK 3rd PKMN Modifier v1.5]
481FB284 08200000
481FB624 08200000
B81FB28C 00000000
1000011C 00001111
D3000000 00000000
B81FB62C 00000000
1000011C 00001111
D2000000 00000000

[2nd ATK 3rd PKMN Modifier v1.5]
481FB284 08200000
481FB624 08200000
B81FB28C 00000000
1000012A 00001111
D3000000 00000000
B81FB62C 00000000
1000012A 00001111
D2000000 00000000

[3rd ATK 3rd PKMN Modifier v1.5]
481FB284 08200000
481FB624 08200000
B81FB28C 00000000
10000138 00001111
D3000000 00000000
B81FB62C 00000000
10000138 00001111
D2000000 00000000

[4th ATK 3rd PKMN Modifier v1.5]
481FB284 08200000
481FB624 08200000
B81FB28C 00000000
10000146 00001111
D3000000 00000000
B81FB62C 00000000
10000146 00001111
D2000000 00000000

[Refill HP 3rd PKMN (Press L) v1.5]
DD000000 00000200
481FB284 08200000
481FB624 08200000
B81FB28C 00000000
DA000000 0000000E
D7000000 00000010
D3000000 00000000
B81FB62C 00000000
D7000000 00000010
D2000000 00000000

[Max HP 3rd Pokemon (Press R) v1.5]
DD000000 00000100
481FB284 08200000
481FB624 08200000
B81FB28C 00000000
1000000E 000003E7
D3000000 00000000
B81FB62C 00000000
1000000E 000003E7
D2000000 00000000

[Refill All AP 3rd PKMN (Press L) v1.5]
DD000000 00000200
481FB284 08200000
481FB624 08200000
B81FB28C 00000000
C0000000 00000002
C0000000 00000004
DB000000 00000119
D8000000 00000118
D8000000 0000011D
DC000000 0000000C
D1000000 00000000
D3000000 00000000
B81FB62C 00000000
D1000000 00000000
D2000000 00000000

[Max All AP 3rd PKMN (Press R) v1.5]
DD000000 00000100
481FB284 08200000
481FB624 08200000
B81FB28C 00000000
C0000000 00000002
C0000000 00000004
20000119 00000063
2000011F 00000063
DC000000 0000000E
D1000000 00000000
D3000000 00000000
B81FB62C 00000000
D1000000 00000000
D2000000 00000000

[Refill AP 1st ATK 3rd PKMN (Press UP+L) v1.5]
DD000000 00000240
481FB284 08200000
481FB624 08200000
B81FB28C 00000000
DB000000 00000119
D8000000 00000118
D8000000 0000011D
D3000000 00000000
B81FB62C 00000000
D8000000 00000118
D8000000 0000011D
D2000000 00000000

[Max AP 1st ATK 3rd PKMN (Press UP+R) v1.5]
DD000000 00000140
481FB284 08200000
481FB624 08200000
B81FB28C 00000000
20000119 00000063
2000011F 00000063
D3000000 00000000
B81FB62C 00000000
20000119 00000063
2000011F 00000063
D2000000 00000000

[Refill AP 2nd ATK 3rd PKMN (Press RIGHT+L) v1.5]
DD000000 00000210
481FB284 08200000
481FB624 08200000
B81FB28C 00000000
DB000000 00000127
D8000000 00000126
D8000000 0000012B
D3000000 00000000
B81FB62C 00000000
D8000000 00000126
D8000000 0000012B
D2000000 00000000

[Max AP 2nd ATK 3rd PKMN (Press RIGHT+R) v1.5]
DD000000 00000110
481FB284 08200000
481FB624 08200000
B81FB28C 00000000
20000127 00000063
2000012D 00000063
D3000000 00000000
B81FB62C 00000000
20000127 00000063
2000012D 00000063
D2000000 00000000

[Refill AP 3rd ATK 3rd PKMN (Press DOWN+L) v1.5]
DD000000 00000280
481FB284 08200000
481FB624 08200000
B81FB28C 00000000
DB000000 00000135
D8000000 00000134
D8000000 00000139
D3000000 00000000
B81FB62C 00000000
D8000000 00000134
D8000000 00000139
D2000000 00000000

[Max AP 3rd ATK 3rd PKMN (Press DOWN+R) v1.5]
DD000000 00000180
481FB284 08200000
481FB624 08200000
B81FB28C 00000000
20000135 00000063
2000013B 00000063
D3000000 00000000
B81FB62C 00000000
20000135 00000063
2000013B 00000063
D2000000 00000000

[Refill AP 4th ATK 3rd PKMN (Press LEFT+L) v1.5]
DD000000 00000220
481FB284 08200000
481FB624 08200000
B81FB28C 00000000
DB000000 00000143
D8000000 00000142
D8000000 00000147
D3000000 00000000
B81FB62C 00000000
D8000000 00000142
D8000000 00000147
D2000000 00000000

[Max AP 4th ATK 3rd PKMN (Press LEFT+R) v1.5]
DD000000 00000120
481FB284 08200000
481FB624 08200000
B81FB28C 00000000
20000143 00000063
20000149 00000063
D3000000 00000000
B81FB62C 00000000
20000143 00000063
20000149 00000063
D2000000 00000000

[Lvl 100 aft battle 4th PKMN (Press Y) v1.5]
DD000000 00000800
481FB284 08200000
481FB624 08200000
B81FB290 00000000
00000008 00200000
D3000000 00000000
B81FB630 00000000
00000008 00200000
D2000000 00000000

[1st ATK 4th PKMN Modifier v1.5]
481FB284 08200000
481FB624 08200000
B81FB290 00000000
1000011C 00001111
D3000000 00000000
B81FB630 00000000
1000011C 00001111
D2000000 00000000

[2nd ATK 4th PKMN Modifier v1.5]
481FB284 08200000
481FB624 08200000
B81FB290 00000000
1000012A 00001111
D3000000 00000000
B81FB630 00000000
1000012A 00001111
D2000000 00000000

[3rd ATK 4th PKMN Modifier v1.5]
481FB284 08200000
481FB624 08200000
B81FB290 00000000
10000138 00001111
D3000000 00000000
B81FB630 00000000
10000138 00001111
D2000000 00000000

[4th ATK 4th PKMN Modifier v1.5]
481FB284 08200000
481FB624 08200000
B81FB290 00000000
10000146 00001111
D3000000 00000000
B81FB630 00000000
10000146 00001111
D2000000 00000000

[Refill HP 4th PKMN (Press L) v1.5]
DD000000 00000200
481FB284 08200000
481FB624 08200000
B81FB290 00000000
DA000000 0000000E
D7000000 00000010
D3000000 00000000
B81FB630 00000000
D7000000 00000010
D2000000 00000000

[Max HP 4th Pokemon (Press R) v1.5]
DD000000 00000100
481FB284 08200000
481FB624 08200000
B81FB290 00000000
1000000E 000003E7
D3000000 00000000
B81FB630 00000000
1000000E 000003E7
D2000000 00000000

[Refill All AP 4th PKMN (Press L) v1.5]
DD000000 00000200
481FB284 08200000
481FB624 08200000
B81FB290 00000000
C0000000 00000002
C0000000 00000004
DB000000 00000119
D8000000 00000118
D8000000 0000011D
DC000000 0000000C
D1000000 00000000
D3000000 00000000
B81FB630 00000000
D1000000 00000000
D2000000 00000000

[Max All AP 4th PKMN (Press R) v1.5]
DD000000 00000100
481FB284 08200000
481FB624 08200000
B81FB290 00000000
C0000000 00000002
C0000000 00000004
20000119 00000063
2000011F 00000063
DC000000 0000000E
D1000000 00000000
D3000000 00000000
B81FB630 00000000
D1000000 00000000
D2000000 00000000

[Refill AP 1st ATK 4th PKMN (Press UP+L) v1.5]
DD000000 00000240
481FB284 08200000
481FB624 08200000
B81FB290 00000000
DB000000 00000119
D8000000 00000118
D8000000 0000011D
D3000000 00000000
B81FB630 00000000
D8000000 00000118
D8000000 0000011D
D2000000 00000000

[Max AP 1st ATK 4th PKMN (Press UP+R) v1.5]
DD000000 00000140
481FB284 08200000
481FB624 08200000
B81FB290 00000000
20000119 00000063
2000011F 00000063
D3000000 00000000
B81FB630 00000000
20000119 00000063
2000011F 00000063
D2000000 00000000

[Refill AP 2nd ATK 4th PKMN (Press RIGHT+L) v1.5]
DD000000 00000210
481FB284 08200000
481FB624 08200000
B81FB290 00000000
DB000000 00000127
D8000000 00000126
D8000000 0000012B
D3000000 00000000
B81FB630 00000000
D8000000 00000126
D8000000 0000012B
D2000000 00000000

[Max AP 2nd ATK 4th PKMN (Press RIGHT+R) v1.5]
DD000000 00000110
481FB284 08200000
481FB624 08200000
B81FB290 00000000
20000127 00000063
2000012D 00000063
D3000000 00000000
B81FB630 00000000
20000127 00000063
2000012D 00000063
D2000000 00000000

[Refill AP 3rd ATK 4th PKMN (Press DOWN+L) v1.5]
DD000000 00000280
481FB284 08200000
481FB624 08200000
B81FB290 00000000
DB000000 00000135
D8000000 00000134
D8000000 00000139
D3000000 00000000
B81FB630 00000000
D8000000 00000134
D8000000 00000139
D2000000 00000000

[Max AP 3rd ATK 4th PKMN (Press DOWN+R) v1.5]
DD000000 00000180
481FB284 08200000
481FB624 08200000
B81FB290 00000000
20000135 00000063
2000013B 00000063
D3000000 00000000
B81FB630 00000000
20000135 00000063
2000013B 00000063
D2000000 00000000

[Refill AP 4th ATK 4th PKMN (Press LEFT+L) v1.5]
DD000000 00000220
481FB284 08200000
481FB624 08200000
B81FB290 00000000
DB000000 00000143
D8000000 00000142
D8000000 00000147
D3000000 00000000
B81FB630 00000000
D8000000 00000142
D8000000 00000147
D2000000 00000000

[Max AP 4th ATK 4th PKMN (Press LEFT+R) v1.5]
DD000000 00000120
481FB284 08200000
481FB624 08200000
B81FB290 00000000
20000143 00000063
20000149 00000063
D3000000 00000000
B81FB630 00000000
20000143 00000063
20000149 00000063
D2000000 00000000

[Lvl 100 aft battle 5th PKMN (Press Y) v1.5]
DD000000 00000800
481FB284 08200000
481FB624 08200000
B81FB294 00000000
00000008 00200000
D3000000 00000000
B81FB634 00000000
00000008 00200000
D2000000 00000000

[1st ATK 5th PKMN Modifier v1.5]
481FB284 08200000
481FB624 08200000
B81FB294 00000000
1000011C 00001111
D3000000 00000000
B81FB634 00000000
1000011C 00001111
D2000000 00000000

[2nd ATK 5th PKMN Modifier v1.5]
481FB284 08200000
481FB624 08200000
B81FB294 00000000
1000012A 00001111
D3000000 00000000
B81FB634 00000000
1000012A 00001111
D2000000 00000000

[3rd ATK 5th PKMN Modifier v1.5]
481FB284 08200000
481FB624 08200000
B81FB294 00000000
10000138 00001111
D3000000 00000000
B81FB634 00000000
10000138 00001111
D2000000 00000000

[4th ATK 5th PKMN Modifier v1.5]
481FB284 08200000
481FB624 08200000
B81FB294 00000000
10000146 00001111
D3000000 00000000
B81FB634 00000000
10000146 00001111
D2000000 00000000

[Refill HP 5th PKMN (Press L) v1.5]
DD000000 00000200
481FB284 08200000
481FB624 08200000
B81FB294 00000000
DA000000 0000000E
D7000000 00000010
D3000000 00000000
B81FB634 00000000
D7000000 00000010
D2000000 00000000

[Max HP 5th Pokemon (Press R) v1.5]
DD000000 00000100
481FB284 08200000
481FB624 08200000
B81FB294 00000000
1000000E 000003E7
D3000000 00000000
B81FB634 00000000
1000000E 000003E7
D2000000 00000000

[Refill All AP 5th PKMN (Press L) v1.5]
DD000000 00000200
481FB284 08200000
481FB624 08200000
B81FB294 00000000
C0000000 00000002
C0000000 00000004
DB000000 00000119
D8000000 00000118
D8000000 0000011D
DC000000 0000000C
D1000000 00000000
D3000000 00000000
B81FB634 00000000
D1000000 00000000
D2000000 00000000

[Max All AP 5th PKMN (Press R) v1.5]
DD000000 00000100
481FB284 08200000
481FB624 08200000
B81FB294 00000000
C0000000 00000002
C0000000 00000004
20000119 00000063
2000011F 00000063
DC000000 0000000E
D1000000 00000000
D3000000 00000000
B81FB634 00000000
D1000000 00000000
D2000000 00000000

[Refill AP 1st ATK 5th PKMN (Press UP+L) v1.5]
DD000000 00000240
481FB284 08200000
481FB624 08200000
B81FB294 00000000
DB000000 00000119
D8000000 00000118
D8000000 0000011D
D3000000 00000000
B81FB634 00000000
D8000000 00000118
D8000000 0000011D
D2000000 00000000

[Max AP 1st ATK 5th PKMN (Press UP+R) v1.5]
DD000000 00000140
481FB284 08200000
481FB624 08200000
B81FB294 00000000
20000119 00000063
2000011F 00000063
D3000000 00000000
B81FB634 00000000
20000119 00000063
2000011F 00000063
D2000000 00000000

[Refill AP 2nd ATK 5th PKMN (Press RIGHT+L) v1.5]
DD000000 00000210
481FB284 08200000
481FB624 08200000
B81FB294 00000000
DB000000 00000127
D8000000 00000126
D8000000 0000012B
D3000000 00000000
B81FB634 00000000
D8000000 00000126
D8000000 0000012B
D2000000 00000000

[Max AP 2nd ATK 5th PKMN (Press RIGHT+R) v1.5]
DD000000 00000110
481FB284 08200000
481FB624 08200000
B81FB294 00000000
20000127 00000063
2000012D 00000063
D3000000 00000000
B81FB634 00000000
20000127 00000063
2000012D 00000063
D2000000 00000000

[Refill AP 3rd ATK 5th PKMN (Press DOWN+L) v1.5]
DD000000 00000280
481FB284 08200000
481FB624 08200000
B81FB294 00000000
DB000000 00000135
D8000000 00000134
D8000000 00000139
D3000000 00000000
B81FB634 00000000
D8000000 00000134
D8000000 00000139
D2000000 00000000

[Max AP 3rd ATK 5th PKMN (Press DOWN+R) v1.5]
DD000000 00000180
481FB284 08200000
481FB624 08200000
B81FB294 00000000
20000135 00000063
2000013B 00000063
D3000000 00000000
B81FB634 00000000
20000135 00000063
2000013B 00000063
D2000000 00000000

[Refill AP 4th ATK 5th PKMN (Press LEFT+L) v1.5]
DD000000 00000220
481FB284 08200000
481FB624 08200000
B81FB294 00000000
DB000000 00000143
D8000000 00000142
D8000000 00000147
D3000000 00000000
B81FB634 00000000
D8000000 00000142
D8000000 00000147
D2000000 00000000

[Max AP 4th ATK 5th PKMN (Press LEFT+R) v1.5]
DD000000 00000120
481FB284 08200000
481FB624 08200000
B81FB294 00000000
20000143 00000063
20000149 00000063
D3000000 00000000
B81FB634 00000000
20000143 00000063
20000149 00000063
D2000000 00000000

[Lvl 100 aft battle 6th PKMN (Press Y) v1.5]
DD000000 00000800
481FB284 08200000
481FB624 08200000
B81FB298 00000000
00000008 00200000
D3000000 00000000
B81FB638 00000000
00000008 00200000
D2000000 00000000

[1st ATK 6th PKMN Modifier v1.5]
481FB284 08200000
481FB624 08200000
B81FB298 00000000
1000011C 00001111
D3000000 00000000
B81FB638 00000000
1000011C 00001111
D2000000 00000000

[2nd ATK 6th PKMN Modifier v1.5]
481FB284 08200000
481FB624 08200000
B81FB298 00000000
1000012A 00001111
D3000000 00000000
B81FB638 00000000
1000012A 00001111
D2000000 00000000

[3rd ATK 6th PKMN Modifier v1.5]
481FB284 08200000
481FB624 08200000
B81FB298 00000000
10000138 00001111
D3000000 00000000
B81FB638 00000000
10000138 00001111
D2000000 00000000

[4th ATK 6th PKMN Modifier v1.5]
481FB284 08200000
481FB624 08200000
B81FB298 00000000
10000146 00001111
D3000000 00000000
B81FB638 00000000
10000146 00001111
D2000000 00000000

[Refill HP 6th PKMN (Press L) v1.5]
DD000000 00000200
481FB284 08200000
481FB624 08200000
B81FB298 00000000
DA000000 0000000E
D7000000 00000010
D3000000 00000000
B81FB638 00000000
D7000000 00000010
D2000000 00000000

[Max HP 6th Pokemon (Press R) v1.5]
DD000000 00000100
481FB284 08200000
481FB624 08200000
B81FB298 00000000
1000000E 000003E7
D3000000 00000000
B81FB638 00000000
1000000E 000003E7
D2000000 00000000

[Refill All AP 6th PKMN (Press L) v1.5]
DD000000 00000200
481FB284 08200000
481FB624 08200000
B81FB298 00000000
C0000000 00000002
C0000000 00000004
DB000000 00000119
D8000000 00000118
D8000000 0000011D
DC000000 0000000C
D1000000 00000000
D3000000 00000000
B81FB638 00000000
D1000000 00000000
D2000000 00000000

[Max All AP 6th PKMN (Press R) v1.5]
DD000000 00000100
481FB284 08200000
481FB624 08200000
B81FB298 00000000
C0000000 00000002
C0000000 00000004
20000119 00000063
2000011F 00000063
DC000000 0000000E
D1000000 00000000
D3000000 00000000
B81FB638 00000000
D1000000 00000000
D2000000 00000000

[Refill AP 1st ATK 6th PKMN (Press UP+L) v1.5]
DD000000 00000240
481FB284 08200000
481FB624 08200000
B81FB298 00000000
DB000000 00000119
D8000000 00000118
D8000000 0000011D
D3000000 00000000
B81FB638 00000000
D8000000 00000118
D8000000 0000011D
D2000000 00000000

[Max AP 1st ATK 6th PKMN (Press UP+R) v1.5]
DD000000 00000140
481FB284 08200000
481FB624 08200000
B81FB298 00000000
20000119 00000063
2000011F 00000063
D3000000 00000000
B81FB638 00000000
20000119 00000063
2000011F 00000063
D2000000 00000000

[Refill AP 2nd ATK 6th PKMN (Press RIGHT+L) v1.5]
DD000000 00000210
481FB284 08200000
481FB624 08200000
B81FB298 00000000
DB000000 00000127
D8000000 00000126
D8000000 0000012B
D3000000 00000000
B81FB638 00000000
D8000000 00000126
D8000000 0000012B
D2000000 00000000

[Max AP 2nd ATK 6th PKMN (Press RIGHT+R) v1.5]
DD000000 00000110
481FB284 08200000
481FB624 08200000
B81FB298 00000000
20000127 00000063
2000012D 00000063
D3000000 00000000
B81FB638 00000000
20000127 00000063
2000012D 00000063
D2000000 00000000

[Refill AP 3rd ATK 6th PKMN (Press DOWN+L) v1.5]
DD000000 00000280
481FB284 08200000
481FB624 08200000
B81FB298 00000000
DB000000 00000135
D8000000 00000134
D8000000 00000139
D3000000 00000000
B81FB638 00000000
D8000000 00000134
D8000000 00000139
D2000000 00000000

[Max AP 3rd ATK 6th PKMN (Press DOWN+R) v1.5]
DD000000 00000180
481FB284 08200000
481FB624 08200000
B81FB298 00000000
20000135 00000063
2000013B 00000063
D3000000 00000000
B81FB638 00000000
20000135 00000063
2000013B 00000063
D2000000 00000000

[Refill AP 4th ATK 6th PKMN (Press LEFT+L) v1.5]
DD000000 00000220
481FB284 08200000
481FB624 08200000
B81FB298 00000000
DB000000 00000143
D8000000 00000142
D8000000 00000147
D3000000 00000000
B81FB638 00000000
D8000000 00000142
D8000000 00000147
D2000000 00000000

[Max AP 4th ATK 6th PKMN (Press LEFT+R) v1.5]
DD000000 00000120
481FB284 08200000
481FB624 08200000
B81FB298 00000000
20000143 00000063
20000149 00000063
D3000000 00000000
B81FB638 00000000
20000143 00000063
20000149 00000063
D2000000 00000000

[(Hold R)Walkthrough Wall v1.5]
D3000000 00000000
0053ED50 E1A01000
0053ED54 E12FFF1E
0053ED58 E1A06000
0053ED5C E12FFF1E
DD000000 00000100
0053ED50 E3A01000
0053ED58 E3A06000
D0000000 00000000
580B5820 E1A01000
080B5820 EBF8914A
D0000000 00000000
580B3A1C E1A06000
080B3A1C EBF898CD
D0000000 00000000

[Egg Instant Hatch v1.5]
D3000000 00000000
58072D14 0A000007
08072D14 EA000007
D0000000 00000000

[100%Catch v1.5]
D3000000 00000000
58073334 0A000004
5053ED70 00000000
0053ED70 00000010
D0000000 00000000
D0000000 00000000
6053ED70 00000000
D9000000 0053ED70
D4000000 FFFFFFFF
D6000000 0053ED70
D0000000 00000000
D3000000 00000000
5053ED70 00000001
08073334 EA000004
D0000000 00000000

[Catch Trainer's Pokemon v1.5]
D3000000 00000000
58075474 E5D00000
5053ED74 00000000
0053ED74 00000010
D0000000 00000000
D0000000 00000000
6053ED74 00000000
D9000000 0053ED74
D4000000 FFFFFFFF
D6000000 0053ED74
D0000000 00000000
D3000000 00000000
5053ED74 00000001
08075474 E3A0B000
08075478 E5C0B000
0807547C EA00000E
D0000000 00000000

[Access the PC from anywhere v1.5]
D3000000 00000000
003BBFA8 E3A00018
DD000000 00000200
003BBFA8 E3A00004
D0000000 00000000

[Walk&run Speed x2(Only work for D-pad) v1.5]
58092F38 03A05007
08092DE4 13A05003
08092DE8 03A05002
08092F34 13A05005
08092F38 03A05003
D0000000 00000000

[(START+L)Wild Pokemon Shiny, (START+R)Disable v1.5]
6053ED8C E12FFF1E
0053ED80 E5C70004
0053ED84 EA000000
0053ED88 E5C71006
0053ED8C E12FFF1E
D0000000 00000000
580B9334 E5C70004
080B9334 EBF88291
D0000000 00000000
DD000000 00000208
0053ED84 E3A01001
D0000000 00000000
DD000000 00000108
0053ED84 EA000000
D0000000 00000000

[Instant Messages v1.5]
003F6FB4 E3A04003
003F7818 E3A05003

[Money modifier v1.5]
08C6A6AC 00000000