

[Max Money]
D3000000 14000000
00C68BC4 0098967F

[Max Passion Points]
D3000000 14000000
00C68BC8 0098967F

[111 Char. Max Stats]
D3000000 14000000
C0000000 0000006E
00E21D2C 03E703E7
00E21DEC 03E703E7
00E21DF0 03E703E7
00E21DF4 03E703E7
00E21DF8 03E703E7
00E21DFC 03E703E7
DC000000 000000FC
D1000000 00000000

[111 Char.Lvl99 after match]
D3000000 14000000
C0000000 0000006E
00E21D28 0098967F
DC000000 000000FC
D1000000 00000000

[All items/techs. you own x99]
D3000000 14000000
C0000000 000000FD
20C68FC0 00000063
DC000000 00000010
D1000000 00000000

[All equip./EG you own x99]
D3000000 14000000
C0000000 000000D7
20C6D6E8 00000063
DC000000 00000014
D1000000 00000000