

[B+R 70k Rupees In town]
DD000000 00000102
D3000000 32000000
00C82520 00011170
D0000000 00000000

[B+R Drabland Rupees 9999]
DD000000 00000102
D3000000 32000000
00C8178C 0000270F
D0000000 00000000

[Max Rupee v2.1.0 O3DS]
D3000000 10000000
06C82520 0001869F

[Infinite Hearts v2.1.0 O3DS]
D3000000 10000000
26C824F4 00000024

[Infinite Energy v2.1.0 O3DS]
D3000000 10000000
068496C4 44160000

[Infnite Fairies v2.1.0 O3DS]
D3000000 10000000
26D81F14 0000000A

[Infnite Time v2.1.0 O3DS]
D3000000 10000000
26D81F18 0000007F

[All Materials x99 v2.1.0 O3DS]
D3000000 10000000
C0000000 00000046
26C82569 00000063
DC000000 00000001
D2000000 00000000

[Outfit Modifier v2.1.0 O3DS]
06849564 00000300
0684A260 00000000

[Outfit Changer (R+Left/R+Right) v2.1.0 O3DS]
DD000000 00000110
D3000000 10000000
56849564 00000325
D9000000 06849564
D4000000 FFFFFFDB
D6000000 06849564
D3000000 10000000
5684A260 00002500
D9000000 0684A260
D4000000 FFFFDB00
D6000000 0684A260
D2000000 00000000
DD000000 00000120
D3000000 10000000
56849564 00000300
D9000000 06849564
D4000000 00000025
D6000000 06849564
D3000000 10000000
5684A260 00000000
D9000000 0684A260
D4000000 00002500
D6000000 0684A260
D2000000 00000000
DD000000 00000110
D3000000 10000000
36849564 00000325
D9000000 06849564
D4000000 00000001
D6000000 06849564
D3000000 10000000
3684A260 00002500
D9000000 0684A260
D4000000 00000100
D6000000 0684A260
D2000000 00000000
DD000000 00000120
D3000000 10000000
46849564 00000300
D9000000 06849564
D4000000 FFFFFFFF
D6000000 06849564
D3000000 10000000
4684A260 00000000
D9000000 0684A260
D4000000 FFFFFFFF
D6000000 0684A260
D2000000 00000000

[Reset Amount of Rupees]
D3000000 10000000
06C82520 00000000