

[All Beans x99]
D3000000 00000000
007BB1E0 63636363
107BB1E4 00006363

[All Beans DX x99]
D3000000 00000000
007BB1E7 63636363
107BB1EB 00006363

[Gold x999999]
D3000000 00000000
007BB1C4 000F423F

[Miracle Mushroom x99]
D3000000 00000000
207BB1CF 00000063

[All Mushrooms x99]
D3000000 00000000
007BB1CC 63636363

[All 1-UP Mushrooms x99]
D3000000 00000000
007BB1DC 00636363

[Miracle Syrup x99]
D3000000 00000000
207BB1D7 00000063

[All Syrups x99]
D3000000 00000000
007BB1D4 63636363

[Miracle Candy x99]
D3000000 00000000
207BB1DB 00000063

[All Candys x99]
D3000000 00000000
007BB1D8 63636363

[Miracle Peanut x99]
D3000000 00000000
207BB1D3 00000063

[All Peanuts x99]
D3000000 00000000
007BB1D0 63636363

[Refreshing Herb x99]
D3000000 00000000
207BB1DF 00000063

[Boo Biscuits x99]
D3000000 00000000
207BB1E6 00000063

[1-Up Double Mushrooms x99]
D3000000 00000000
207BB1DE 00000063

[Mario Exp Modifier]
007BB120 0000FFFF

[Luigi Exp Modifier]
007BB164 0000FFFF

[Paper Mario Exp Modifier]
007BB1A8 0000FFFF

[Paper Mario,Luigi, And Mario(in that order) Exp Modifier]
007BB1A8 0000FFFF
007BB164 0000FFFF
007BB120 0000FFFF

[Money]
007BB1C4 000F423F

[3 character exp before 2nd rank]
007BB120 00000231
007BB164 00000231
007BB1A8 00000275

[3 character exp before 3rd rank]
007BB120 00000E37
007BB164 00000EBE
007BB1A8 00000F45

[All items x99]
C0000000 000000EB
207BB1CC 00000063
DC000000 00000001
D1000000 00000000

[All cards (use only after unlocked)]
C0000000 0000009E
207BB2BE 00000001
DC000000 00000001
D1000000 00000000

[Star Points]
207BBB04 0000FFFF

[All challenges unlocked]
C0000000 000000B5
207BBB09 00000003
DC000000 00000004
D1000000 00000000

[All challenges done]
C0000000 000000B5
207BBB09 00000005
DC000000 00000004
D1000000 00000000

[Exp in battle modifier(Mario)]
D3000000 10000000
64B35080 00000000
B4B35080 00000000
000009B8 000000FF
D2000000 00000000

[Exp in battle Modifier(Luigi)]
D3000000 10000000
64BDD9F4 00000000
B4BDD9F4 00000000
00000084 000001FF
D2000000 00000000

[Exp in battle Modifier(P.Mario)]
D3000000 10000000
64B35C28 00000000
B4B35C28 00000000
00000314 000001FF
D2000000 00000000

[Shields in Battle (Luigi)]
D3000000 10000000
64B35C2C 00000000
B4B35C2C 00000000
00000AB4 00000063
D2000000 00000000

[Shields in battle (Mario)]
D3000000 10000000
64B34C34 00000000
B4B34C34 00000000
000006B8 00000063
D2000000 00000000

[Shields in battle (P.Mario)]
D3000000 10000000
64B34C3C 00000000
B4B34C3C 00000000
000006B8 00000063
D2000000 00000000

[Reset Coins]
D3000000 00000000
007BB1C4 00000000

[Expert challenge points mod.]
D3000000 10000000
04B36050 0000FFFF

[Expert challenge points mod. (Outside battle)]
007BBB04 0000FFFF