[No Softban v1.2 (restart to turn off)]
2045DD70 00000001

[Max Money v1.0]
D3000000 30000000
030D8FC0 0098967F

[Walk & Run Speed x1.5 v1.0]
D3000000 00000000
0039AF74 3FC00000

[(Hold R)Walk through Walls v1.0]
D3000000 00000000
0039D140 EB01E7E7
0039D274 EB01E79A
DD000000 00000100
0039D140 E1A00000
0039D274 E1A00000
D0000000 00000000

[BP9999 v1.0]
D3000000 00000000
6067206C 00000000
B067206C 00000000
B0000024 00000000
B0000004 00000000
100037B0 0000270F
D0000000 00000000

[(SELECT + UP)All TMs & HMs v1.0]
DD000000 00000044
D3000000 330D62CC
D5000000 00000548
C0000000 0000005C
D6000000 00000000
D4000000 00000001
D1000000 00000000
D3000000 330D62CC
E0000170 00000038
0000066A 0000066B
0000066C 000006B2
000006B3 000006B4
000006B5 000006B6
000005A4 000005A5
000005A6 000005A7
000005A8 000005A9
000001A8 000006E1
D0000000 00000000

[(SELECT + UP)All MEDICINE x950 v1.0]
DD000000 00000044
D3000000 330D647C
D5000000 000ED811
C0000000 00000026
D6000000 00000000
D4000000 00000001
D1000000 00000000
D3000000 330D647C
E0000098 00000040
000ED841 000ED842
000ED843 000ED886
000ED9F8 000EDA35
000EDA36 000EDA37
000EDA38 000EDA39
000EDA3A 000EDA4F
000EDA85 000EDAC4
000EDAC5 000EDB54
D0000000 00000000

[(SELECT + UP)All BERRIES x950 v1.0]
DD000000 00000044
D3000000 330D657C
D5000000 000ED895
C0000000 00000040
D6000000 00000000
D4000000 00000001
D1000000 00000000
D3000000 330D657C
00000100 000EDAAE
00000104 000EDAAF
00000108 000EDAB0
D0000000 00000000

[(SELECT + UP)All ITEMS x950 v1.0]
DD000000 00000044
D3000000 330D5934
E0000000 00000068
000ED801 000ED802
000ED803 000ED804
000ED805 000ED806
000ED807 000ED808
000ED809 000ED80A
000ED80B 000ED80C
000ED80D 000ED80E
000ED80F 000ED810
000ED837 000ED838
000ED839 000ED83A
000ED83B 000ED83C
000ED83D 000ED83E
000ED83F 000ED840
D5000000 000ED844
C0000000 0000002D
D6000000 00000068
D4000000 00000001
D1000000 00000000
D3000000 330D5934
0000011C 000ED874
E0000120 00000050
000ED875 000ED876
000ED877 000ED887
000ED888 000ED889
000ED88A 000ED88B
000ED88C 000ED88D
000ED88E 000ED88F
000ED890 000ED891
000ED892 000ED893
000ED894 000ED8D5
000ED8D6 000ED8D7
D5000000 000ED8D9
C0000000 0000006F
D6000000 00000170
D4000000 00000001
D1000000 00000000
D3000000 330D5934
E000032C 000001E8
000ED9E5 000ED9E6
000ED9E7 000ED9E8
000ED9E9 000ED9EA
000ED9EB 000ED9EC
000ED9ED 000ED9EE
000ED9EF 000ED9F0
000ED9F1 000ED9F2
000ED9F3 000ED9F4
000ED9F9 000ED9FA
000ED9FB 000ED9FC
000ED9FD 000ED9FE
000ED9FF 000EDA00
000EDA01 000EDA02
000EDA03 000EDA04
000EDA05 000EDA06
000EDA07 000EDA08
000EDA09 000EDA0A
000EDA0B 000EDA0C
000EDA0D 000EDA0E
000EDA0F 000EDA10
000EDA11 000EDA12
000EDA13 000EDA16
000EDA17 000EDA19
000EDA1A 000EDA1B
000EDA1C 000EDA1D
000EDA1E 000EDA1F
000EDA20 000EDA21
000EDA22 000EDA23
000EDA24 000EDA25
000EDA26 000EDA27
000EDA28 000EDA29
000EDA2A 000EDA2B
000EDA2C 000EDA2D
000EDA2E 000EDA2F
000EDA30 000EDA31
000EDA32 000EDA33
000EDA34 000EDA3B
000EDA3C 000EDA3D
000EDA3F 000EDA40
000EDA41 000EDA44
000EDA45 000EDA46
000EDA47 000EDA48
000EDA49 000EDA4A
000EDA4B 000EDA4C
000EDA4D 000EDA4E
000EDA50 000EDA51
000EDA52 000EDA53
000EDA54 000EDA55
000EDA56 000EDA57
000EDA58 000EDA59
000EDA5A 000EDA5B
000EDA5C 000EDA5D
000EDA5E 000EDA5F
000EDA60 000EDA61
000EDA62 000EDA63
000EDA64 000EDA65
000EDA66 000EDA67
000EDA7F 000EDA80
000EDA84 000EDA86
000EDA87 000EDA88
000EDA89 000EDA8A
D5000000 000EDA8C
C0000000 00000022
D6000000 00000514
D4000000 00000001
D1000000 00000000
D3000000 330D5934
0000059C 000EDABB
E00005A0 000000D8
000EDAC0 000EDAC6
000EDAC7 000EDACB
000EDAF0 000EDAF1
000EDAF2 000EDAF3
000EDAF4 000EDAF5
000EDAF6 000EDAF7
000EDAF8 000EDAF9
000EDAFA 000EDAFB
000EDAFC 000EDAFF
000EDB00 000EDB01
000EDB02 000EDB1B
000EDB1C 000EDB4C
000EDB4E 000EDB51
000EDB53 000EDB55
000EDB56 000EDB57
000EDB58 000EDB6F
000EDB70 000EDB71
000EDB72 000EDB73
000EDB74 000EDB88
000EDB89 000EDB8A
000EDB8B 000EDB8C
000EDB8D 000EDB8E
000EDB8F 000EDB90
000EDB91 000EDB92
000EDB93 000EDB94
000EDB95 000EDB96
000EDB97 000EDB98
D0000000 00000000

[100%Catch v1.0]
D3000000 00000000
5803528C 0A000004
505957A0 00000000
005957A0 00000010
D0000000 00000000
D0000000 00000000
605957A0 00000000
D9000000 005957A0
D4000000 FFFFFFFF
D6000000 005957A0
D0000000 00000000
D3000000 00000000
505957A0 00000001
0803528C EA000004
D0000000 00000000

[Catch Trainer's Pokemon v1.0]
D3000000 00000000
58035C84 0A00000B
505957A4 00000000
005957A4 00000010
D0000000 00000000
D0000000 00000000
605957A4 00000000
D9000000 005957A4
D4000000 FFFFFFFF
D6000000 005957A4
D0000000 00000000
D3000000 00000000
505957A4 00000001
08035C78 E3A0B000
08035C7C E590000C
08035C80 E5C0B000
08035C84 EA00000B
D0000000 00000000

[Instant Messages v1.0]
D3000000 00000000
003BF26C E3A05003
003BE9C8 E3A04003

[No Forced Trainer Battles v1.0]
D3000000 00000000
5802EA54 EB00FA0B
0802EA54 E3A00001
D0000000 00000000

[Rematch Trainers (Hold L & talk to Trainers) v1.0]
D3000000 00000000
0049D200 E5911004
0049D204 E5900044
DD000000 00000200
0049D200 E3A00000
0049D204 E12FFF1E
D0000000 00000000

[Egg Instant Hatch v1.0]
D3000000 00000000
5802B734 0A000007
0802B734 EA000007
D0000000 00000000

[No Encounter, Hold START Instant Encounter v1.0]
D3000000 00000000
5807A28C E3A00064
0807A284 E3A09000
DD000000 00000008
0807A284 E3A09064
D0000000 00000000
D0000000 00000000

[(SELECT + UP)All Z-Crystal v1.0]
DD000000 00000044
D3000000 330D669C
D5000000 00000727
C0000000 0000001D
D6000000 00000000
D4000000 00000001
D1000000 00000000
D0000000 00000000

[EXP x10 after battle(Includes figure of a decimal point) v1.0]
D3000000 00000000
00595800 E1D002B2
00595804 E92D4002
00595808 E3A0100A
0059580C E0000190
00595810 E8BD8002
0048F1EC EB041983

[Wild Pokemon Modifier v1.0]
00000000 00000000

[(START+L)Wild Pokemon Shiny, (START+R)Disable v1.0]
D3000000 00000000
605957BC E12FFF1E
005957B0 EA000000
005957B4 E584600C
005957B8 E2846020
005957BC E12FFF1E
D0000000 00000000
0031835C EB09F513
DD000000 00000208
005957B0 E3A06002
D0000000 00000000
DD000000 00000108
005957B0 EA000000
D0000000 00000000

[Pokemon Can Learn Any HM/TM v1.0]
D3000000 00000000
0048F0AC E3A00001

[Able to rename Outsider Pokemon in Name Rater v1.0]
D3000000 00000000
004A84F8 E3A00001

[QR Scan Point 100 v1.0]
D3000000 00000000
6067206C 00000000
B067206C 00000000
B0000024 00000000
B0000004 00000000
2006960B 00000064
D0000000 00000000

[No QR Scanning Wait Time v1.0]
D3000000 00000000
0043DAA8 E3A00000

[Camera zoom out(SELECT+L)Enable, (SELECT+R)Disable v1.0]
D3000000 00000000
60595824 ED940A1C
00595824 ED940A1C
00595828 ED9F1A03
0059582C EE300A01
00595830 ED840A1C
00595834 E2840004
00595838 E12FFF1E
0059583C 00000000
D0000000 00000000
5803797C E2840004
0803797C EBFAEBA8
D0000000 00000000
DD000000 00000204
0059583C C4BB8000
D0000000 00000000
DD000000 00000104
0059583C 00000000
D0000000 00000000

[Hold SELECT/START to view IVs/EVs on Pokemon Status Screen v1.0]
D3000000 00000000
58010EAC EBFFFCE7
08010E78 E1A00001
08010E7C EBFFFD13
08010EB0 E1A00006
08010EB4 EBFFFD07
08010EE0 E1A00006
08010EE4 EBFFFCFD
08010F10 E1A00006
08010F14 EBFFFCF1
08010F40 E1A00006
08010F44 EBFFFCE5
08010F70 E1A00006
08010F74 EBFFFCD9
08010FA0 E1A00006
08010FA4 EBFFFCCD
DD000000 00000004
08010E78 E591000C
08010E7C EBF773E3
08010EB0 E596000C
08010EB4 EBF773D5
08010EE0 E596000C
08010EE4 EBF7742D
08010F10 E596000C
08010F14 EBF7742E
08010F40 E596000C
08010F44 EBF774B6
08010F70 E596000C
08010F74 EBF774B7
08010FA0 E596000C
08010FA4 EBF773F0
D0000000 00000000
DD000000 00000008
08010E78 E591000C
08010E7C EBF77382
08010EB0 E596000C
08010EB4 EBF77374
08010EE0 E596000C
08010EE4 EBF7740A
08010F10 E596000C
08010F14 EBF77409
08010F40 E596000C
08010F44 EBF77484
08010F70 E596000C
08010F74 EBF77483
08010FA0 E596000C
08010FA4 EBF773CF
D0000000 00000000
D0000000 00000000

[Receive Egg from Daycare v1.0]
D3000000 00000000
00444A6C E2800E1E
00444A70 E1D000D0
00444A74 E12FFF1E
DD000000 00000008
00444A6C E3A01001
00444A70 E5C011E0
00444A74 EA00684B
D0000000 00000000

[(SELECT + UP)All Clothes(male) v1.0]
DD000000 00000044
D3000000 33116620
D5000000 00000001
C0000000 0000003A
D8000000 00000000
D1000000 00000000
D5000000 00000000
C0000000 00000087
D8000000 00000000
D1000000 00000000
D5000000 00000001
C0000000 00000014
D8000000 00000000
D1000000 00000000
D5000000 00000000
C0000000 00000020
D8000000 00000000
D1000000 00000000
D5000000 00000001
C0000000 00000100
D8000000 00000000
D1000000 00000000
D5000000 00000000
C0000000 0000008F
D8000000 00000000
D1000000 00000000
D5000000 00000001
C0000000 00000069
D8000000 00000000
D1000000 00000000
D5000000 00000000
C0000000 000000C7
D8000000 00000000
D1000000 00000000
D5000000 00000001
C0000000 00000025
D8000000 00000000
D1000000 00000000
D5000000 00000000
C0000000 00000079
D8000000 00000000
D1000000 00000000
D5000000 00000001
C0000000 0000005F
D8000000 00000000
D1000000 00000000
D5000000 00000000
C0000000 00000066
D8000000 00000000
D1000000 00000000
D5000000 00000001
C0000000 0000006D
D8000000 00000000
D1000000 00000000
D5000000 00000000
C0000000 00000044
D8000000 00000000
D1000000 00000000
D3000000 33116620
000000F8 03010101
0000028C 03010101
000003B4 01010103
00000450 01030000
00000514 03000000
D0000000 00000000

[(SELECT + UP)All Clothes(female) v1.0]
DD000000 00000044
D3000000 33116620
D5000000 00000001
C0000000 0000005E
D8000000 00000000
D1000000 00000000
D5000000 00000000
C0000000 00000020
D8000000 00000000
D1000000 00000000
D5000000 00000001
C0000000 00000023
D8000000 00000000
D1000000 00000000
D5000000 00000000
C0000000 00000020
D8000000 00000000
D1000000 00000000
D5000000 00000001
C0000000 00000014
D8000000 00000000
D1000000 00000000
D5000000 00000000
C0000000 00000020
D8000000 00000000
D1000000 00000000
D5000000 00000001
C0000000 0000018A
D8000000 00000000
D1000000 00000000
D5000000 00000000
C0000000 00000005
D8000000 00000000
D1000000 00000000
D5000000 00000001
C0000000 000000F9
D8000000 00000000
D1000000 00000000
D5000000 00000000
C0000000 00000037
D8000000 00000000
D1000000 00000000
D5000000 00000001
C0000000 0000007E
D8000000 00000000
D1000000 00000000
D5000000 00000000
C0000000 00000020
D8000000 00000000
D1000000 00000000
D5000000 00000001
C0000000 000000A7
D8000000 00000000
D1000000 00000000
D5000000 00000000
C0000000 0000001E
D8000000 00000000
D1000000 00000000
D5000000 00000001
C0000000 00000091
D8000000 00000000
D1000000 00000000
D5000000 00000000
C0000000 00000020
D8000000 00000000
D1000000 00000000
D3000000 33116620
00000100 01010103
00000288 01010103
000003B4 01010103
00000450 01030000
00000514 03000000
D0000000 00000000

[Z-moves use is possible without Z-Crystal(Press L to select FIGHT)v1.0]
D3000000 00000000
00595900 E92D4005
00595904 E1A00006
00595908 EA000000
0059590C E92D4005
00595910 E59D2050
00595914 E59F100C
00595918 E1510002
0059591C 01D510B4
00595920 11A01000
00595924 E8BD8005
00595928 0078BA28
00313DC0 EB0A06CE
00313E30 EB0A06B5
0036D0EC E3A00000
DD000000 00000200
0036D0EC E3A00001
D0000000 00000000

[Can use Z-moves many times v1.0]
D3000000 00000000
580311DC E320F000
505957A8 00000000
005957A8 00000010
D0000000 00000000
D0000000 00000000
605957A8 00000000
D9000000 005957A8
D4000000 FFFFFFFF
D6000000 005957A8
D0000000 00000000
D3000000 00000000
505957A8 00000001
080311D4 E3A00000
080311D8 E5C30005
080311DC E1500000
D0000000 00000000

[255 Rainbow Poké Beans]
DD000000 00000280
D3000000 30000000
2311549E 000000FF
D3000000 30000000
20001552 000000FF
D2000000 00000000

[(Hold START and Open OPTIONS menu)Access the PC from anywhere v1.0]
D3000000 00000000
E0595978 00000088
E92D400E E59F1074
E5912000 E3A03000
E5813000 E3A03C13
E2833093 E1520003
03A04000 11A04000
E8BD800E E350000E
EAF77D09 E92D400F
E24DD010 E3A00000
E58D0000 E58D0004
E58D0008 E58D000C
E1A03000 E1A02000
E3A01C13 E2811093
E59F0018 E5801000
E59F0014 E5900000
EBF7D9CE E3A00002
E28DD010 E8BD800F
00636000 0067206C
0037D560 EB086104
00373C48 EB088755
DD000000 00000008
005959A8 1AF77D09
D0000000 00000000

[Enable View of Enemy Pokemon HP v1.0]
D3000000 00000000
580AE178 E92D40F8
505957AC 00000000
005957AC 00000010
D0000000 00000000
D0000000 00000000
605957AC 00000000
D9000000 005957AC
D4000000 FFFFFFFF
D6000000 005957AC
D0000000 00000000
D3000000 00000000
505957AC 00000001
080AE178 EAFFFEE7
D0000000 00000000

[Raises the all Status of a Pokemon by 6 stage(Fix) v1.0]
D3000000 00000000
E0595A00 00000090
E59F2080 E152000E
1A00001D E92D001F
E59F2074 E59400D0
E2803004 E280401C
E4931004 E3510000
15C121EA 15C121EB
158121EC 15C121F0
E1530004 1AFFFFF7
E59D002C E5900A88
E2800A01 E5900808
E590000C E5900008
E2803004 E280401C
E4931004 E3510000
15C121EA 15C121EB
158121EC 15C121F0
E1530004 1AFFFFF7
E8BD001F EAF41170
006E77A4 0C0C0C0C
0029A048 EA0BEE6C

[Always critical hit v1.0]
D3000000 00000000
E0595AD0 00000030
E59D0000 E92D401E
E59A1008 E2813004
E281401C E4932004
E1500002 03A01001
058D1018 E1530004
1AFFFFF9 E8BD801E
58085D1C E59D0000
50595ACC 00000000
00595ACC 00000010
D0000000 00000000
D0000000 00000000
60595ACC 00000000
D9000000 00595ACC
D4000000 FFFFFFFF
D6000000 00595ACC
D0000000 00000000
D3000000 00000000
50595ACC 00000001
08085D1C EBF9B36B
D0000000 00000000

[250,000 FC]
D3000000 30000000
03124D58 0003D090
D2000000 00000000

[Can throw Pokeball at trial v1.0]
D3000000 00000000
580B8440 E1A01004
50595B00 00000000
00595B00 00000010
D0000000 00000000
D0000000 00000000
60595B00 00000000
D9000000 00595B00
D4000000 FFFFFFFF
D6000000 00595B00
D0000000 00000000
D3000000 00000000
50595B00 00000001
0807638C E3A00001
080B8440 E3A01000
D0000000 00000000

[Can learn the all moves in Move Reminder v1.0]
D3000000 00000000
004A6B30 E2850001
0042DCD4 E3A01C02
0042DCD8 E28110CF
0042DCDC E5851004

[Mega evolution does not cancel after battle v1.0]
D3000000 00000000
00595B04 E59D6020
E0595B08 00000048
E28F901C E499A004
E35A0000 01A06000
012FFF1E E15A0006
08BD4FF0 012FFF1E
EAFFFFF7 00727ED8
007281B8 007281D0
007281F4 00728214
0072824C 00728274
0031C690 00000000
0031BB50 EB09E7EB

[Mega evolution of party pokemon does not cancel after load v1.0]
D3000000 00000000
E0595B60 000000A0
E1A05000 E92D5FFF
E59D004C E59F2084
E1520000 03510000
18BD9FFF E59F0078
E5900000 E5900004
E5900020 E5900004
E5906024 E596500C
E5967004 E2877C0F
E2877074 E3A08F41
E5D54018 E3A03000
E7950103 E5901004
E5902008 E0297893
E289A0E8 E28AB01C
E499C004 E481C004
E15A0009 1AFFFFFB
E499C004 E482C004
E15B0009 1AFFFFFB
E2833001 E1540003
1AFFFFEE E8BD9FFF
006AD920 0063DCB8
002EC63C EB0AA547

[No Outlines v1.0]
0041B748 E320F000
D2000000 00000000

[Max Money v1.1]
D3000000 00000000
60640290 00000000
B0640290 00000000
B000001C 00000000
B0000024 00000000
B0000004 00000000
00003698 0098967F
D0000000 00000000

[BP9999 v1.1]
D3000000 00000000
60640290 00000000
B0640290 00000000
B000001C 00000000
B0000024 00000000
B0000004 00000000
100037B0 0000270F
D0000000 00000000

[Walk & Run Speed x1.5 v1.1]
D3000000 00000000
0039C394 3FC00000

[(Hold R)Walk through Walls v1.1]
D3000000 00000000
0039E560 EB01E8DC
0039E694 EB01E88F
DD000000 00000100
0039E560 E1A00000
0039E694 E1A00000
D0000000 00000000

[(SELECT + UP)All TMs & HMs v1.1]
DD000000 00000044
D3000000 330D62CC
D5000000 00000548
C0000000 0000005C
D6000000 00000000
D4000000 00000001
D1000000 00000000
D3000000 330D62CC
E0000170 00000038
0000066A 0000066B
0000066C 000006B2
000006B3 000006B4
000006B5 000006B6
000005A4 000005A5
000005A6 000005A7
000005A8 000005A9
000001A8 000006E1
D0000000 00000000

[(SELECT + UP)All MEDICINE x950 v1.1]
DD000000 00000044
D3000000 330D647C
D5000000 000ED811
C0000000 00000026
D6000000 00000000
D4000000 00000001
D1000000 00000000
D3000000 330D647C
E0000098 00000040
000ED841 000ED842
000ED843 000ED886
000ED9F8 000EDA35
000EDA36 000EDA37
000EDA38 000EDA39
000EDA3A 000EDA4F
000EDA85 000EDAC4
000EDAC5 000EDB54
D0000000 00000000

[(SELECT + UP)All BERRIES x950 v1.1]
DD000000 00000044
D3000000 330D657C
D5000000 000ED895
C0000000 00000040
D6000000 00000000
D4000000 00000001
D1000000 00000000
D3000000 330D657C
00000100 000EDAAE
00000104 000EDAAF
00000108 000EDAB0
D0000000 00000000

[(SELECT + UP)All ITEMS x950 v1.1]
DD000000 00000044
D3000000 330D5934
E0000000 00000068
000ED801 000ED802
000ED803 000ED804
000ED805 000ED806
000ED807 000ED808
000ED809 000ED80A
000ED80B 000ED80C
000ED80D 000ED80E
000ED80F 000ED810
000ED837 000ED838
000ED839 000ED83A
000ED83B 000ED83C
000ED83D 000ED83E
000ED83F 000ED840
D5000000 000ED844
C0000000 0000002D
D6000000 00000068
D4000000 00000001
D1000000 00000000
D3000000 330D5934
0000011C 000ED874
E0000120 00000050
000ED875 000ED876
000ED877 000ED887
000ED888 000ED889
000ED88A 000ED88B
000ED88C 000ED88D
000ED88E 000ED88F
000ED890 000ED891
000ED892 000ED893
000ED894 000ED8D5
000ED8D6 000ED8D7
D5000000 000ED8D9
C0000000 0000006F
D6000000 00000170
D4000000 00000001
D1000000 00000000
D3000000 330D5934
E000032C 000001E8
000ED9E5 000ED9E6
000ED9E7 000ED9E8
000ED9E9 000ED9EA
000ED9EB 000ED9EC
000ED9ED 000ED9EE
000ED9EF 000ED9F0
000ED9F1 000ED9F2
000ED9F3 000ED9F4
000ED9F9 000ED9FA
000ED9FB 000ED9FC
000ED9FD 000ED9FE
000ED9FF 000EDA00
000EDA01 000EDA02
000EDA03 000EDA04
000EDA05 000EDA06
000EDA07 000EDA08
000EDA09 000EDA0A
000EDA0B 000EDA0C
000EDA0D 000EDA0E
000EDA0F 000EDA10
000EDA11 000EDA12
000EDA13 000EDA16
000EDA17 000EDA19
000EDA1A 000EDA1B
000EDA1C 000EDA1D
000EDA1E 000EDA1F
000EDA20 000EDA21
000EDA22 000EDA23
000EDA24 000EDA25
000EDA26 000EDA27
000EDA28 000EDA29
000EDA2A 000EDA2B
000EDA2C 000EDA2D
000EDA2E 000EDA2F
000EDA30 000EDA31
000EDA32 000EDA33
000EDA34 000EDA3B
000EDA3C 000EDA3D
000EDA3F 000EDA40
000EDA41 000EDA44
000EDA45 000EDA46
000EDA47 000EDA48
000EDA49 000EDA4A
000EDA4B 000EDA4C
000EDA4D 000EDA4E
000EDA50 000EDA51
000EDA52 000EDA53
000EDA54 000EDA55
000EDA56 000EDA57
000EDA58 000EDA59
000EDA5A 000EDA5B
000EDA5C 000EDA5D
000EDA5E 000EDA5F
000EDA60 000EDA61
000EDA62 000EDA63
000EDA64 000EDA65
000EDA66 000EDA67
000EDA7F 000EDA80
000EDA84 000EDA86
000EDA87 000EDA88
000EDA89 000EDA8A
D5000000 000EDA8C
C0000000 00000022
D6000000 00000514
D4000000 00000001
D1000000 00000000
D3000000 330D5934
0000059C 000EDABB
E00005A0 000000D8
000EDAC0 000EDAC6
000EDAC7 000EDACB
000EDAF0 000EDAF1
000EDAF2 000EDAF3
000EDAF4 000EDAF5
000EDAF6 000EDAF7
000EDAF8 000EDAF9
000EDAFA 000EDAFB
000EDAFC 000EDAFF
000EDB00 000EDB01
000EDB02 000EDB1B
000EDB1C 000EDB4C
000EDB4E 000EDB51
000EDB53 000EDB55
000EDB56 000EDB57
000EDB58 000EDB6F
000EDB70 000EDB71
000EDB72 000EDB73
000EDB74 000EDB88
000EDB89 000EDB8A
000EDB8B 000EDB8C
000EDB8D 000EDB8E
000EDB8F 000EDB90
000EDB91 000EDB92
000EDB93 000EDB94
000EDB95 000EDB96
000EDB97 000EDB98
D0000000 00000000

[(SELECT + UP)All Z-Crystal v1.1]
DD000000 00000044
D3000000 330D669C
D5000000 00000727
C0000000 0000001D
D6000000 00000000
D4000000 00000001
D1000000 00000000
D0000000 00000000

[100%Catch v1.1]
D3000000 00000000
580350BC 0A000004
50597680 00000000
00597680 00000010
D0000000 00000000
D0000000 00000000
60597680 00000000
D9000000 00597680
D4000000 FFFFFFFF
D6000000 00597680
D0000000 00000000
D3000000 00000000
50597680 00000001
080350BC EA000004
D0000000 00000000

[Catch Trainer's Pokemon v1.1]
D3000000 00000000
58035AB4 0A00000B
50597684 00000000
00597684 00000010
D0000000 00000000
D0000000 00000000
60597684 00000000
D9000000 00597684
D4000000 FFFFFFFF
D6000000 00597684
D0000000 00000000
D3000000 00000000
50597684 00000001
08035AA8 E3A0B000
08035AAC E590000C
08035AB0 E5C0B000
08035AB4 EA00000B
D0000000 00000000

[Instant Messages v1.1]
D3000000 00000000
003C0498 E3A05003
003BFBF4 E3A04003

[No Forced Trainer Battles v1.1]
D3000000 00000000
5802EBF0 EB00FA2F
0802EBF0 E3A00001
D0000000 00000000

[Rematch Trainers (Hold L & talk to Trainers) v1.1]
D3000000 00000000
0049EFA0 E5911004
0049EFA4 E5900044
DD000000 00000200
0049EFA0 E3A00000
0049EFA4 E12FFF1E
D0000000 00000000

[Egg Instant Hatch v1.1]
D3000000 00000000
5802B8D0 0A000007
0802B8D0 EA000007
D0000000 00000000

[No Encounter, Hold START Instant Encounter v1.1]
D3000000 00000000
5807A5E8 E3A00064
0807A5E0 E3A09000
DD000000 00000008
0807A5E0 E3A09064
D0000000 00000000
D0000000 00000000

[Pokemon Can Learn Any HM/TM v1.1]
D3000000 00000000
00490D0C E3A00001

[Able to rename Outsider Pokemon in Name Rater v1.1]
D3000000 00000000
004AA298 E3A00001

[QR Scan Point 100 v1.1]
D3000000 00000000
60640290 00000000
B0640290 00000000
B000001C 00000000
B0000024 00000000
B0000004 00000000
2006960B 00000064
D0000000 00000000

[No QR Scanning Wait Time v1.1]
D3000000 00000000
0043F6B4 E3A00000

[Receive Egg from Daycare v1.1]
D3000000 00000000
00446684 E2800E1E
00446688 E1D000D0
0044668C E12FFF1E
DD000000 00000008
00446684 E3A01001
00446688 E5C011E0
0044668C EA00684B
D0000000 00000000

[(SELECT + UP)All Clothes(male) v1.1]
DD000000 00000044
D3000000 33116620
D5000000 00000001
C0000000 0000003A
D8000000 00000000
D1000000 00000000
D5000000 00000000
C0000000 00000087
D8000000 00000000
D1000000 00000000
D5000000 00000001
C0000000 00000014
D8000000 00000000
D1000000 00000000
D5000000 00000000
C0000000 00000020
D8000000 00000000
D1000000 00000000
D5000000 00000001
C0000000 00000100
D8000000 00000000
D1000000 00000000
D5000000 00000000
C0000000 0000008F
D8000000 00000000
D1000000 00000000
D5000000 00000001
C0000000 00000069
D8000000 00000000
D1000000 00000000
D5000000 00000000
C0000000 000000C7
D8000000 00000000
D1000000 00000000
D5000000 00000001
C0000000 00000025
D8000000 00000000
D1000000 00000000
D5000000 00000000
C0000000 00000079
D8000000 00000000
D1000000 00000000
D5000000 00000001
C0000000 0000005F
D8000000 00000000
D1000000 00000000
D5000000 00000000
C0000000 00000066
D8000000 00000000
D1000000 00000000
D5000000 00000001
C0000000 0000006D
D8000000 00000000
D1000000 00000000
D5000000 00000000
C0000000 00000044
D8000000 00000000
D1000000 00000000
D3000000 33116620
000000F8 03010101
0000028C 03010101
000003B4 01010103
00000450 01030000
00000514 03000000
D0000000 00000000

[(SELECT + UP)All Clothes(female) v1.1]
DD000000 00000044
D3000000 33116620
D5000000 00000001
C0000000 0000005E
D8000000 00000000
D1000000 00000000
D5000000 00000000
C0000000 00000020
D8000000 00000000
D1000000 00000000
D5000000 00000001
C0000000 00000023
D8000000 00000000
D1000000 00000000
D5000000 00000000
C0000000 00000020
D8000000 00000000
D1000000 00000000
D5000000 00000001
C0000000 00000014
D8000000 00000000
D1000000 00000000
D5000000 00000000
C0000000 00000020
D8000000 00000000
D1000000 00000000
D5000000 00000001
C0000000 0000018A
D8000000 00000000
D1000000 00000000
D5000000 00000000
C0000000 00000005
D8000000 00000000
D1000000 00000000
D5000000 00000001
C0000000 000000F9
D8000000 00000000
D1000000 00000000
D5000000 00000000
C0000000 00000037
D8000000 00000000
D1000000 00000000
D5000000 00000001
C0000000 0000007E
D8000000 00000000
D1000000 00000000
D5000000 00000000
C0000000 00000020
D8000000 00000000
D1000000 00000000
D5000000 00000001
C0000000 000000A7
D8000000 00000000
D1000000 00000000
D5000000 00000000
C0000000 0000001E
D8000000 00000000
D1000000 00000000
D5000000 00000001
C0000000 00000091
D8000000 00000000
D1000000 00000000
D5000000 00000000
C0000000 00000020
D8000000 00000000
D1000000 00000000
D3000000 33116620
00000100 01010103
00000288 01010103
000003B4 01010103
00000450 01030000
00000514 03000000
D0000000 00000000

[(START+L)Wild Pokemon Shiny, (START+R)Disable v1.1]
D3000000 00000000
605976BC E12FFF1E
005976B0 E5C40004
005976B4 EA000000
005976B8 E5C41006
005976BC E12FFF1E
D0000000 00000000
00399CA0 EB07F682
DD000000 00000208
005976B4 E3A01001
D0000000 00000000
DD000000 00000108
005976B4 EA000000
D0000000 00000000

[Wild Pokemon Modifier v1.1]
00000000 00000000

[EXP x10 after battle(Includes figure of a decimal point) v1.1]
D3000000 00000000
00597700 E1D002B2
00597704 E92D4002
00597708 E3A0100A
0059770C E0000190
00597710 E8BD8002
00490E4C EB041A2B

[Camera zoom out(SELECT+L)Enable, (SELECT+R)Disable v1.1]
D3000000 00000000
60597724 ED940A1C
00597724 ED940A1C
00597728 ED9F1A03
0059772C EE300A01
00597730 ED840A1C
00597734 E2840004
00597738 E12FFF1E
0059773C 00000000
D0000000 00000000
58037B18 E2840004
08037B18 EBFAEB01
D0000000 00000000
DD000000 00000204
0059773C C4BB8000
D0000000 00000000
DD000000 00000104
0059773C 00000000
D0000000 00000000

[Hold SELECT/START to view IVs/EVs on Pokemon Status Screen v1.1]
D3000000 00000000
58010EAC EBFFFCE7
08010E78 E1A00001
08010E7C EBFFFD13
08010EB0 E1A00006
08010EB4 EBFFFD07
08010EE0 E1A00006
08010EE4 EBFFFCFD
08010F10 E1A00006
08010F14 EBFFFCF1
08010F40 E1A00006
08010F44 EBFFFCE5
08010F70 E1A00006
08010F74 EBFFFCD9
08010FA0 E1A00006
08010FA4 EBFFFCCD
DD000000 00000004
08010E78 E591000C
08010E7C EBF772FB
08010EB0 E596000C
08010EB4 EBF772ED
08010EE0 E596000C
08010EE4 EBF77345
08010F10 E596000C
08010F14 EBF77346
08010F40 E596000C
08010F44 EBF773CE
08010F70 E596000C
08010F74 EBF773CF
08010FA0 E596000C
08010FA4 EBF77308
D0000000 00000000
DD000000 00000008
08010E78 E591000C
08010E7C EBF7729A
08010EB0 E596000C
08010EB4 EBF7728C
08010EE0 E596000C
08010EE4 EBF77322
08010F10 E596000C
08010F14 EBF77321
08010F40 E596000C
08010F44 EBF7739C
08010F70 E596000C
08010F74 EBF7739B
08010FA0 E596000C
08010FA4 EBF772E7
D0000000 00000000
D0000000 00000000

[Z-moves use without Z-Crystal(Press L to select FIGHT) v1.1]
D3000000 00000000
00597800 E92D4005
00597804 E1A00006
00597808 EA000000
0059780C E92D4005
00597810 E59D2050
00597814 E59F100C
00597818 E1510002
0059781C 01D510B4
00597820 11A01000
00597824 E8BD8005
00597828 0078BF60
00314300 EB0A0D3E
00314370 EB0A0D25
0036DFF4 E3A00000
DD000000 00000200
0036DFF4 E3A00001
D0000000 00000000

[Can use Z-moves many times v1.1]
D3000000 00000000
580311DC E320F000
50597688 00000000
00597688 00000010
D0000000 00000000
D0000000 00000000
60597688 00000000
D9000000 00597688
D4000000 FFFFFFFF
D6000000 00597688
D0000000 00000000
D3000000 00000000
50597688 00000001
080311D4 E3A00000
080311D8 E5C30005
080311DC E1500000
D0000000 00000000

[(Hold START and Open OPTIONS menu)Access the PC from anywhere v1.1]
D3000000 00000000
E0597878 00000088
E92D400E E59F1074
E5912000 E3A03000
E5813000 E3A03C13
E2833093 E1520003
03A04000 11A04000
E8BD800E E350000E
EAF77958 E92D400F
E24DD010 E3A00000
E58D0000 E58D0004
E58D0008 E58D000C
E1A03000 E1A02000
E3A01C13 E2811093
E59F0018 E5801000
E59F0014 E5900000
EBF7D6DC E3A00002
E28DD010 E8BD800F
00638000 006740B4
0037E5E4 EB0864A3
00374C3C EB088B18
DD000000 00000008
005978A8 1AF77958
D0000000 00000000

[Enable View of Enemy Pokemon HP v1.1]
D3000000 00000000
580AE5F8 E92D40F8
5059768C 00000000
0059768C 00000010
D0000000 00000000
D0000000 00000000
6059768C 00000000
D9000000 0059768C
D4000000 FFFFFFFF
D6000000 0059768C
D0000000 00000000
D3000000 00000000
5059768C 00000001
080AE5F8 EAFFFEE7
D0000000 00000000

[Raises the all Status of a Pokemon by 6 stage v1.1]
D3000000 00000000
E0597900 00000090
E59F2080 E152000E
1A00001D E92D001F
E59F2074 E59400D0
E2803004 E280401C
E4931004 E3510000
15C121EA 15C121EB
158121EC 15C121F0
E1530004 1AFFFFF7
E59D002C E5900A88
E2800A01 E5900808
E590000C E5900008
E2803004 E280401C
E4931004 E3510000
15C121EA 15C121EB
158121EC 15C121F0
E1530004 1AFFFFF7
E8BD001F EAF409F8
006E9680 0C0C0C0C
0029A168 EA0BF5E4

[Always critical hit v1.1]
D3000000 00000000
E05979D0 00000030
E59D0000 E92D401E
E59A1008 E2813004
E281401C E4932004
E1500002 03A01001
058D1018 E1530004
1AFFFFF9 E8BD801E
580860D8 E59D0000
50597690 00000000
00597690 00000010
D0000000 00000000
D0000000 00000000
60597690 00000000
D9000000 00597690
D4000000 FFFFFFFF
D6000000 00597690
D0000000 00000000
D3000000 00000000
50597690 00000001
080860D8 EBF9B23C
D0000000 00000000

[Can use Pokeball at trial v1.1]
D3000000 00000000
580B88FC E1A01004
50597694 00000000
00597694 00000010
D0000000 00000000
D0000000 00000000
60597694 00000000
D9000000 00597694
D4000000 FFFFFFFF
D6000000 00597694
D0000000 00000000
D3000000 00000000
50597694 00000001
08076530 E3A00001
080B88FC E3A01000
D0000000 00000000

[Can learn the all moves in Move Reminder v1.1]
D3000000 00000000
004A88D0 E2850001
0042F698 E3A01C02
0042F69C E28110CF
0042F6A0 E5851004

[Mega evolution does not cancel after battle v1.1]
D3000000 00000000
00597A04 E59D6020
E0597A08 00000048
E28F901C E499A004
E35A0000 01A06000
012FFF1E E15A0006
08BD4FF0 012FFF1E
EAFFFFF7 0072A294
0072A574 0072A58C
0072A5B0 0072A5D0
0072A608 0072A630
0031CD94 00000000
0031C254 EB09EDEA

[Mega evolution of party pokemon does not cancel after load v1.1]
D3000000 00000000
E0597A60 000000A0
E1A05000 E92D5FFF
E59D004C E59F2084
E1520000 03510000
18BD9FFF E59F0078
E5900000 E5900004
E5900020 E5900004
E5906024 E596500C
E5967004 E2877C0F
E2877074 E3A08F41
E5D54018 E3A03000
E7950103 E5901004
E5902008 E0297893
E289A0E8 E28AB01C
E499C004 E481C004
E15A0009 1AFFFFFB
E499C004 E482C004
E15B0009 1AFFFFFB
E2833001 E1540003
1AFFFFEE E8BD9FFF
006AF954 0063FCB8
002EC944 EB0AAC45

[No Outlines v1.1]
0041CFCC E320F000
D2000000 00000000

[Max Money v1.2]
60640290 00000000
B0640290 00000000
B000001C 00000000
B0000024 00000000
B0000004 00000000
00003698 0098967F
D2000000 00000000

[BP9999 v1.2]
60640290 00000000
B0640290 00000000
B000001C 00000000
B0000024 00000000
B0000004 00000000
100037B0 0000270F
D2000000 00000000

[Walk & Run Speed Multiplier v1.2]
00000000 00000000

[(Hold R)Walk through Walls v1.2]
0039E560 EB01E8DC
0039E694 EB01E88F
DD000000 00000100
0039E560 E1A00000
0039E694 E1A00000
D0000000 00000000

[(SELECT + UP)All TMs & HMs v1.2]
DD000000 00000044
D3000000 330D62CC
D5000000 00000548
C0000000 0000005C
D6000000 00000000
D4000000 00000001
D1000000 00000000
D3000000 330D62CC
E0000170 00000038
0000066A 0000066B
0000066C 000006B2
000006B3 000006B4
000006B5 000006B6
000005A4 000005A5
000005A6 000005A7
000005A8 000005A9
000001A8 000006E1
D2000000 00000000

[(SELECT + UP)All MEDICINE x950 v1.2]
DD000000 00000044
D3000000 330D647C
D5000000 000ED811
C0000000 00000026
D6000000 00000000
D4000000 00000001
D1000000 00000000
D3000000 330D647C
E0000098 00000040
000ED841 000ED842
000ED843 000ED886
000ED9F8 000EDA35
000EDA36 000EDA37
000EDA38 000EDA39
000EDA3A 000EDA4F
000EDA85 000EDAC4
000EDAC5 000EDB54
D2000000 00000000

[(SELECT + UP)All BERRIES x950 v1.2]
DD000000 00000044
D3000000 330D657C
D5000000 000ED895
C0000000 00000040
D6000000 00000000
D4000000 00000001
D1000000 00000000
D3000000 330D657C
00000100 000EDAAE
00000104 000EDAAF
00000108 000EDAB0
D2000000 00000000

[(SELECT + UP)All ITEMS x950 v1.2]
DD000000 00000044
D3000000 330D5934
E0000000 00000068
000ED801 000ED802
000ED803 000ED804
000ED805 000ED806
000ED807 000ED808
000ED809 000ED80A
000ED80B 000ED80C
000ED80D 000ED80E
000ED80F 000ED810
000ED837 000ED838
000ED839 000ED83A
000ED83B 000ED83C
000ED83D 000ED83E
000ED83F 000ED840
D5000000 000ED844
C0000000 0000002D
D6000000 00000068
D4000000 00000001
D1000000 00000000
D3000000 330D5934
0000011C 000ED874
E0000120 00000050
000ED875 000ED876
000ED877 000ED887
000ED888 000ED889
000ED88A 000ED88B
000ED88C 000ED88D
000ED88E 000ED88F
000ED890 000ED891
000ED892 000ED893
000ED894 000ED8D5
000ED8D6 000ED8D7
D5000000 000ED8D9
C0000000 0000006F
D6000000 00000170
D4000000 00000001
D1000000 00000000
D3000000 330D5934
E000032C 000001E8
000ED9E5 000ED9E6
000ED9E7 000ED9E8
000ED9E9 000ED9EA
000ED9EB 000ED9EC
000ED9ED 000ED9EE
000ED9EF 000ED9F0
000ED9F1 000ED9F2
000ED9F3 000ED9F4
000ED9F9 000ED9FA
000ED9FB 000ED9FC
000ED9FD 000ED9FE
000ED9FF 000EDA00
000EDA01 000EDA02
000EDA03 000EDA04
000EDA05 000EDA06
000EDA07 000EDA08
000EDA09 000EDA0A
000EDA0B 000EDA0C
000EDA0D 000EDA0E
000EDA0F 000EDA10
000EDA11 000EDA12
000EDA13 000EDA16
000EDA17 000EDA19
000EDA1A 000EDA1B
000EDA1C 000EDA1D
000EDA1E 000EDA1F
000EDA20 000EDA21
000EDA22 000EDA23
000EDA24 000EDA25
000EDA26 000EDA27
000EDA28 000EDA29
000EDA2A 000EDA2B
000EDA2C 000EDA2D
000EDA2E 000EDA2F
000EDA30 000EDA31
000EDA32 000EDA33
000EDA34 000EDA3B
000EDA3C 000EDA3D
000EDA3F 000EDA40
000EDA41 000EDA44
000EDA45 000EDA46
000EDA47 000EDA48
000EDA49 000EDA4A
000EDA4B 000EDA4C
000EDA4D 000EDA4E
000EDA50 000EDA51
000EDA52 000EDA53
000EDA54 000EDA55
000EDA56 000EDA57
000EDA58 000EDA59
000EDA5A 000EDA5B
000EDA5C 000EDA5D
000EDA5E 000EDA5F
000EDA60 000EDA61
000EDA62 000EDA63
000EDA64 000EDA65
000EDA66 000EDA67
000EDA7F 000EDA80
000EDA84 000EDA86
000EDA87 000EDA88
000EDA89 000EDA8A
D5000000 000EDA8C
C0000000 00000022
D6000000 00000514
D4000000 00000001
D1000000 00000000
D3000000 330D5934
0000059C 000EDABB
E00005A0 000000D8
000EDAC0 000EDAC6
000EDAC7 000EDACB
000EDAF0 000EDAF1
000EDAF2 000EDAF3
000EDAF4 000EDAF5
000EDAF6 000EDAF7
000EDAF8 000EDAF9
000EDAFA 000EDAFB
000EDAFC 000EDAFF
000EDB00 000EDB01
000EDB02 000EDB1B
000EDB1C 000EDB4C
000EDB4E 000EDB51
000EDB53 000EDB55
000EDB56 000EDB57
000EDB58 000EDB6F
000EDB70 000EDB71
000EDB72 000EDB73
000EDB74 000EDB88
000EDB89 000EDB8A
000EDB8B 000EDB8C
000EDB8D 000EDB8E
000EDB8F 000EDB90
000EDB91 000EDB92
000EDB93 000EDB94
000EDB95 000EDB96
000EDB97 000EDB98
D2000000 00000000

[(SELECT + UP)All Z-Crystal v1.2]
DD000000 00000044
D3000000 330D669C
D5000000 00000727
C0000000 0000001D
D6000000 00000000
D4000000 00000001
D1000000 00000000
D2000000 00000000

[No Outlines v1.2]
0041CFCC E320F000

[Instant Messages v1.2]
003C0498 E3A05003
003BFBF4 E3A04003

[No Forced Trainer Battles v1.2]
5802EBF0 EB00FA2F
0802EBF0 E3A00001
D0000000 00000000

[Rematch Trainers (Hold L & talk to Trainers) v1.2]
0049EFC8 E5911004
0049EFCC E5900044
DD000000 00000200
0049EFC8 E3A00000
0049EFCC E12FFF1E
D0000000 00000000

[No Encounter, Hold START Instant Encounter v1.2]
5807A5E8 E3A00064
0807A5E0 E3A09000
DD000000 00000008
0807A5E0 E3A09064
D0000000 00000000
D0000000 00000000

[Pokemon Can Learn Any HM/TM v1.2]
00490D34 E3A00001

[Able to rename Outsider Pokemon in Name Rater v1.2]
004AA2C0 E3A00001

[QR Scan Point 100 v1.2]
60640290 00000000
B0640290 00000000
B000001C 00000000
B0000024 00000000
B0000004 00000000
2006960B 00000064
D2000000 00000000

[No QR Scanning Wait Time v1.2]
0043F6D8 E3A00000

[Receive Egg from Daycare v1.2]
004466A8 E2800E1E
004466AC E1D000D0
004466B0 E12FFF1E
DD000000 00000008
004466A8 E3A01001
004466AC E5C011E0
004466B0 EA00684B
D0000000 00000000

[(SELECT + UP)All Clothes(male) v1.2]
DD000000 00000044
D3000000 33116620
D5000000 00000001
C0000000 0000003A
D8000000 00000000
D1000000 00000000
D5000000 00000000
C0000000 00000087
D8000000 00000000
D1000000 00000000
D5000000 00000001
C0000000 00000014
D8000000 00000000
D1000000 00000000
D5000000 00000000
C0000000 00000020
D8000000 00000000
D1000000 00000000
D5000000 00000001
C0000000 00000100
D8000000 00000000
D1000000 00000000
D5000000 00000000
C0000000 0000008F
D8000000 00000000
D1000000 00000000
D5000000 00000001
C0000000 00000069
D8000000 00000000
D1000000 00000000
D5000000 00000000
C0000000 000000C7
D8000000 00000000
D1000000 00000000
D5000000 00000001
C0000000 00000025
D8000000 00000000
D1000000 00000000
D5000000 00000000
C0000000 00000079
D8000000 00000000
D1000000 00000000
D5000000 00000001
C0000000 0000005F
D8000000 00000000
D1000000 00000000
D5000000 00000000
C0000000 00000066
D8000000 00000000
D1000000 00000000
D5000000 00000001
C0000000 0000006D
D8000000 00000000
D1000000 00000000
D5000000 00000000
C0000000 00000044
D8000000 00000000
D1000000 00000000
D3000000 33116620
000000F8 03010101
0000028C 03010101
000003B4 01010103
00000450 01030000
00000514 03000000
D2000000 00000000

[(SELECT + UP)All Clothes(female) v1.2]
DD000000 00000044
D3000000 33116620
D5000000 00000001
C0000000 0000005E
D8000000 00000000
D1000000 00000000
D5000000 00000000
C0000000 00000020
D8000000 00000000
D1000000 00000000
D5000000 00000001
C0000000 00000023
D8000000 00000000
D1000000 00000000
D5000000 00000000
C0000000 00000020
D8000000 00000000
D1000000 00000000
D5000000 00000001
C0000000 00000014
D8000000 00000000
D1000000 00000000
D5000000 00000000
C0000000 00000020
D8000000 00000000
D1000000 00000000
D5000000 00000001
C0000000 0000018A
D8000000 00000000
D1000000 00000000
D5000000 00000000
C0000000 00000005
D8000000 00000000
D1000000 00000000
D5000000 00000001
C0000000 000000F9
D8000000 00000000
D1000000 00000000
D5000000 00000000
C0000000 00000037
D8000000 00000000
D1000000 00000000
D5000000 00000001
C0000000 0000007E
D8000000 00000000
D1000000 00000000
D5000000 00000000
C0000000 00000020
D8000000 00000000
D1000000 00000000
D5000000 00000001
C0000000 000000A7
D8000000 00000000
D1000000 00000000
D5000000 00000000
C0000000 0000001E
D8000000 00000000
D1000000 00000000
D5000000 00000001
C0000000 00000091
D8000000 00000000
D1000000 00000000
D5000000 00000000
C0000000 00000020
D8000000 00000000
D1000000 00000000
D3000000 33116620
00000100 01010103
00000288 01010103
000003B4 01010103
00000450 01030000
00000514 03000000
D2000000 00000000

[(START+L)Wild Pokemon Shiny, (START+R)Disable v1.2]
605976BC E12FFF1E
005976B0 E5C40004
005976B4 EA000000
005976B8 E5C41006
005976BC E12FFF1E
D0000000 00000000
00399CA0 EB07F682
DD000000 00000208
005976B4 E3A01001
D0000000 00000000
DD000000 00000108
005976B4 EA000000
D0000000 00000000

[Wild Pokemon Modifier v1.2]
00000000 00000000

[EXP multiplier after battle(Includes figure of a decimal point) v1.2]
00000000 00000000

[Camera zoom out(SELECT+L)Enable, (SELECT+R)Disable v1.2]
60597724 ED940A1C
00597724 ED940A1C
00597728 ED9F1A03
0059772C EE300A01
00597730 ED840A1C
00597734 E2840004
00597738 E12FFF1E
0059773C 00000000
D0000000 00000000
58037B18 E2840004
08037B18 EBFAEB01
D0000000 00000000
DD000000 00000204
0059773C C4BB8000
D0000000 00000000
DD000000 00000104
0059773C 00000000
D0000000 00000000

[100%Catch v1.2]
0059775C E5D00008
00597760 E92D4003
00597764 E59D0010
00597768 E59F100C
0059776C E1510000
00597770 024000F8
00597774 058D0010
00597778 E8BD8003
0059777C 006DA1CC
00490E68 EB041A3B

[Catch Trainer's Pokemon(START+UP)Enable, (START+DOWN)Disable v1.2]
00597780 E1A03002
00597784 E92D4003
00597788 E59D000C
0059778C E59F1014
00597790 E1510000
00597794 05940004
00597798 0590000C
0059779C 03A01000
005977A0 05C01000
005977A4 E8BD8003
005977A8 006D42AC
DD000000 00000048
002FEA2C EB0A6353
D0000000 00000000
DD000000 00000088
002FEA2C E1A03002
D0000000 00000000

[Catch Trainer's Pokemon(GateWay Only) v1.2]
58035AB4 0A00000B
50638004 00000000
00638004 00000010
D0000000 00000000
D0000000 00000000
60638004 00000000
D9000000 00638004
D4000000 FFFFFFFF
D6000000 00638004
D0000000 00000000
D3000000 00000000
50638004 00000001
08035AA8 E3A0B000
08035AAC E590000C
08035AB0 E5C0B000
08035AB4 EA00000B
D0000000 00000000

[Egg Instant Hatch v1.2]
005977C0 E59D000C
005977C4 E59F500C
005977C8 E1500005
005977CC 03A00000
005977D0 11A00004
005977D4 E12FFF1E
005977D8 006D08C0
00493668 EB041054

[Z-moves use is possible without Z-Crystal(Press L to select FIGHT)v1.2]
E05977E0 00000090
E92D407D E1A00006
EA000000 E92D407D
E1D510B4 E59D201C
E202530F E3550203
18BD807D E59F504C
E5955000 E5955004
E5955014 E5955010
E595500C E5956030
E5965010 E59550D0
E2853004 E285401C
EB000009 E5966A88
E2866A01 E5966808
E596600C E5966008
E2863004 E286401C
EB000001 E8BD807D
0063FCB8 E4935004
E1550002 01A01000
E1530004 1AFFFFFA
00597870 E12FFF1E
00314300 EB0A0D36
00314370 EB0A0D1D
0036DFF4 E3A00000
DD000000 00000200
0036DFF4 E3A00001
D0000000 00000000

[Can use Z-moves many times v1.2]
580311DC E320F000
50638008 00000000
00638008 00000010
D0000000 00000000
D0000000 00000000
60638008 00000000
D9000000 00638008
D4000000 FFFFFFFF
D6000000 00638008
D0000000 00000000
D3000000 00000000
50638008 00000001
080311D4 E3A00000
080311D8 E5C30005
080311DC E1500000
D0000000 00000000

[(Hold START and Open OPTIONS menu)Access the PC from anywhere v1.2]
E0597878 00000088
E92D400E E59F1074
E5912000 E3A03000
E5813000 E3A03C13
E2833093 E1520003
03A04000 11A04000
E8BD800E E350000E
EAF77958 E92D400F
E24DD010 E3A00000
E58D0000 E58D0004
E58D0008 E58D000C
E1A03000 E1A02000
E3A01C13 E2811093
E59F0018 E5801000
E59F0014 E5900000
EBF7D6DC E3A00002
E28DD010 E8BD800F
00638000 006740BC
0037E5E4 EB0864A3
00374C3C EB088B18
DD000000 00000008
005978A8 1AF77958
D0000000 00000000

[Enable View of Enemy Pokemon HP v1.2]
580AE610 E92D40F8
5063800C 00000000
0063800C 00000010
D0000000 00000000
D0000000 00000000
6063800C 00000000
D9000000 0063800C
D4000000 FFFFFFFF
D6000000 0063800C
D0000000 00000000
D3000000 00000000
5063800C 00000001
080AE610 EAFFFEE7
D0000000 00000000

[Raises the all Status of a Pokemon by 6 stage v1.2]
E0597900 00000090
E59F2080 E152000E
1A00001D E92D001F
E59F2074 E59400D0
E2803004 E280401C
E4931004 E3510000
15C121EA 15C121EB
158121EC 15C121F0
E1530004 1AFFFFF7
E59D002C E5900A88
E2800A01 E5900808
E590000C E5900008
E2803004 E280401C
E4931004 E3510000
15C121EA 15C121EB
158121EC 15C121F0
E1530004 1AFFFFF7
E8BD001F EAF409F8
006E9680 0C0C0C0C
0029A168 EA0BF5E4

[Always critical hit v1.2]
E05979D0 00000030
E59D0000 E92D401E
E59A1008 E2813004
E281401C E4932004
E1500002 03A01001
058D1018 E1530004
1AFFFFF9 E8BD801E
580860D8 E59D0000
50638010 00000000
00638010 00000010
D0000000 00000000
D0000000 00000000
60638010 00000000
D9000000 00638010
D4000000 FFFFFFFF
D6000000 00638010
D0000000 00000000
D3000000 00000000
50638010 00000001
080860D8 EBF9B23C
D0000000 00000000

[Can throw Pokeball at trial v1.2]
580B8914 E1A01004
50638014 00000000
00638014 00000010
D0000000 00000000
D0000000 00000000
60638014 00000000
D9000000 00638014
D4000000 FFFFFFFF
D6000000 00638014
D0000000 00000000
D3000000 00000000
50638014 00000001
08076530 E3A00001
080B8914 E3A01000
D0000000 00000000

[Can learn the all moves in Move Reminder v1.2]
004A88F8 E2850001
0042F698 E3A01C02
0042F69C E28110CF
0042F6A0 E5851004

[Mega evolution does not cancel after battle v1.2]
00597A04 E59D6020
E0597A08 00000048
E28F901C E499A004
E35A0000 01A06000
012FFF1E E15A0006
08BD4FF0 012FFF1E
EAFFFFF7 0072A294
0072A574 0072A58C
0072A5B0 0072A5D0
0072A608 0072A630
0031CD94 00000000
0031C254 EB09EDEA

[Mega evolution of party pokemon does not cancel after load v1.2]
E0597A60 000000A0
E1A05000 E92D5FFF
E59D004C E59F2084
E1520000 03510000
18BD9FFF E59F0078
E5900000 E5900004
E5900020 E5900004
E5906024 E596500C
E5967004 E2877C0F
E2877074 E3A08F41
E5D54018 E3A03000
E7950103 E5901004
E5902008 E0297893
E289A0E8 E28AB01C
E499C004 E481C004
E15A0009 1AFFFFFB
E499C004 E482C004
E15B0009 1AFFFFFB
E2833001 E1540003
1AFFFFEE E8BD9FFF
006AF954 0063FCB8
002EC944 EB0AAC45

[Poke Finder get point multiplier v1.2]
00000000 00000000

[Hold SELECT/START to view IVs/EVs on Pokemon Status Screen v1.2]
58010EAC EBFFFCE7
08010E78 E1A00001
08010E7C EBFFFD13
08010EB0 E1A00006
08010EB4 EBFFFD07
08010EE0 E1A00006
08010EE4 EBFFFCFD
08010F10 E1A00006
08010F14 EBFFFCF1
08010F40 E1A00006
08010F44 EBFFFCE5
08010F70 E1A00006
08010F74 EBFFFCD9
08010FA0 E1A00006
08010FA4 EBFFFCCD
DD000000 00000004
08010E78 E591000C
08010E7C EBF77305
08010EB0 E596000C
08010EB4 EBF772F7
08010EE0 E596000C
08010EE4 EBF7734F
08010F10 E596000C
08010F14 EBF77350
08010F40 E596000C
08010F44 EBF773D8
08010F70 E596000C
08010F74 EBF773D9
08010FA0 E596000C
08010FA4 EBF77312
D0000000 00000000
DD000000 00000008
08010E78 E591000C
08010E7C EBF772A4
08010EB0 E596000C
08010EB4 EBF77296
08010EE0 E596000C
08010EE4 EBF7732C
08010F10 E596000C
08010F14 EBF7732B
08010F40 E596000C
08010F44 EBF773A6
08010F70 E596000C
08010F74 EBF773A5
08010FA0 E596000C
08010FA4 EBF772F1
D0000000 00000000
D0000000 00000000
