

[Max Money v1.2]
D3000000 30000000
0005D3C0 0098967F

[All Items x99 v1.2]
D3000000 30000000
C0000000 0000013E
0005D6B3 00000063
DC000000 00000001
D1000000 00000000

[All Characters Infinite HP v1.2]
D3000000 30000000
C0000000 0000003B
01551540 000F423F
DC000000 000005EC
D1000000 00000000
D3000000 30000000
C0000000 0000003B
0155157C 000F423F
DC000000 000005EC
D1000000 00000000

[All Characters Infinite SP v1.2]
D3000000 30000000
C0000000 0000003B
01551544 000003E7
DC000000 000005EC
D1000000 00000000
D3000000 30000000
C0000000 0000003B
01551580 000003E7
DC000000 000005EC
D1000000 00000000

[All Characters Max CP v1.2]
D3000000 30000000
C0000000 0000003B
01551B00 0098967F
DC000000 000005EC
D1000000 00000000

[All Characters Max EXP v1.2]
D3000000 30000000
C0000000 0000003B
01551AFC 0098967F
DC000000 000005EC
D1000000 00000000

[All Characters Max ATK v1.2]
D3000000 30000000
C0000000 0000003B
11551582 000003E7
DC000000 000005EC
D1000000 00000000

[All Characters Max DEF v1.2]
D3000000 30000000
C0000000 0000003B
11551584 000003E7
DC000000 000005EC
D1000000 00000000

[All Characters Max TEC v1.2]
D3000000 30000000
C0000000 0000003B
11551586 000003E7
DC000000 000005EC
D1000000 00000000

[All Characters Max DEX v1.2]
D3000000 30000000
C0000000 0000003B
11551588 000003E7
DC000000 000005EC
D1000000 00000000

[All Characters Max Move v1.2]
D3000000 30000000
C0000000 0000003B
2155158A 00000063
DC000000 000005EC
D1000000 00000000
D3000000 30000000

[Ryu/Ken Infinite HP v1.2]
D3000000 30000000
01551540 000F423F
0155157C 000F423F

[Max Gold v1.0/1.2]
D3000000 30000000
0005D3C0 000F423F

[All items x99 v1.0/1.2]
D3000000 30000000
C0000000 0000013E
2005D6B3 00000063
DC000000 00000003
D1000000 00000000

[All characters Max Exp v1.0]
D3000000 30000000
C0000000 0000001C
01550590 000F423F
DC000000 000005EC
D1000000 00000000

[All characters Max Cp v1.0]
D3000000 30000000
C0000000 0000001C
01550594 0098967F
DC000000 000005EC
D1000000 00000000

[All characters Max HP/SP v1.0]
D3000000 30000000
C0000000 0000001C
015505C0 000F423F
115505C4 000003E7
015505FC 000F423F
11550600 000003E7
DC000000 000005EC
D1000000 00000000

[All characters Max Stats v1.0]
D3000000 30000000
C0000000 0000001C
11550602 000003E7
11550604 000003E7
11550606 000003E7
11550608 000003E7
2155060A 00000063
DC000000 000005EC
D1000000 00000000

[Ryu/Ken Max Exp v1.0]
D3000000 30000000
01550B7C 000F423F

[Ryu/Ken Max CP v1.0]
D3000000 30000000
01550B80 0098967F

[Ryu/Ken Max HP/SP v1.0]
015505C0 000F423F
115505C4 000003E7
015505FC 000F423F
11550600 000003E7

[Ryu/Ken Max Stats v1.0]
D3000000 30000000
11550602 000003E7
11550604 000003E7
11550606 000003E7
11550608 000003E7
2155060A 00000063

[Ryu/Ken Max Atk v1.0]
D3000000 30000000
11550602 000003E7

[Ryu/Ken Max Def v1.0]
D3000000 30000000
11550604 000003E7

[Ryu/Ken Max Tec v1.0]
D3000000 30000000
11550606 000003E7

[Ryu/Ken Max Dex v1.0]
D3000000 30000000
11550608 000003E7

[Ryu/Ken Max Move v1.0]
D3000000 30000000
2155060A 00000063

[Chun-li/Xiaoyu Max Expv1.0]
D3000000 30000000
01551168 000F423F

[Chun-li/Xiaoyu Max CPv1.0]
D3000000 30000000
0155116C 0098967F

[Chun-li/Xiaoyu Max HP/SP v1.0]
D3000000 30000000
01550BAC 000F423F
11550BB0 000003E7
01550BE8 000F423F
11550BEC 000003E7

[Chun-li/Xiaoyu Max Stats v1.0]
D3000000 30000000
11550BEE 000003E7
11550BF0 000003E7
11550BF2 000003E7
11550BF4 000003E7
21550BF6 00000063

[Chun-li/Xiaoyu Max Atk v1.0]
D3000000 30000000
11550BEE 000003E7

[Chun-li/Xiaoyu Max Def v1.0]
D3000000 30000000
11550BF0 000003E7

[Chun-li/Xiaoyu Max Tec v1.0]
D3000000 30000000
11550BF2 000003E7

[Chun-li/Xiaoyu Max Dex v1.0]
D3000000 30000000
11550BF4 000003E7

[Chun-li/Xiaoyu Max Move v1.0]
D3000000 30000000
21550BF6 00000063

[Dante/Vergil Max Expv1.0]
D3000000 30000000
01551754 000F423F

[Dante/Vergil Max CPv1.0]
D3000000 30000000
01551758 0098967F

[Dante/Vergil Max HP/SP v1.0]
D3000000 30000000
01551198 000F423F
1155119C 000003E7
015511D4 000F423F
115511D8 000003E7

[Dante/Vergil Max Stats v1.0]
D3000000 30000000
115511DA 000003E7
115511DC 000003E7
115511DE 000003E7
115511E0 000003E7
215511E2 00000063

[Dante/Vergil Max Atk v1.0]
D3000000 30000000
115511DA 000003E7

[Dante/Vergil Max Def v1.0]
D3000000 30000000
115511DC 000003E7

[Dante/Vergil Max Tec v1.0]
D3000000 30000000
115511DE 000003E7

[Dante/Vergil Max Dex v1.0]
D3000000 30000000
115511E0 000003E7

[Dante/Vergil Max Move v1.0]
D3000000 30000000
215511E2 00000063

[Chris/Jill Max Expv1.0]
D3000000 30000000
01551D40 000F423F

[Chris/Jill Max CPv1.0]
D3000000 30000000
01551D44 0098967F

[Chris/Jill Max HP/SP v1.0]
D3000000 30000000
01551784 000F423F
11551788 000003E7
015517C0 000F423F
115517C4 000003E7

[Chris/Jill Max Stats v1.0]
D3000000 30000000
115517C6 000003E7
115517C8 000003E7
115517CA 000003E7
115517CC 000003E7
215517CE 00000063

[Chris/Jill Max Atk v1.0]
D3000000 30000000
115517C6 000003E7

[Chris/Jill Max Def v1.0]
D3000000 30000000
115517C8 000003E7

[Chris/Jill Max Tec v1.0]
D3000000 30000000
115517CA 000003E7

[Chris/Jill Max Dex v1.0]
D3000000 30000000
115517CC 000003E7

[Chris/Jill Max Move v1.0]
D3000000 30000000
215517CE 00000063

[Demitri/Morrigan Max Expv1.0]
D3000000 30000000
0155232C 000F423F

[Demitri/Morrigan Max CPv1.0]
D3000000 30000000
01552330 0098967F

[Demitri/Morrigan Max HP/SP v1.0]
D3000000 30000000
01551D70 000F423F
11551D74 000003E7
01551DAC 000F423F
11551DB0 000003E7

[Demitri/Morrigan Max Stats v1.0]
D3000000 30000000
11551DB2 000003E7
11551DB4 000003E7
11551DB6 000003E7
11551DB8 000003E7
21551DBA 00000063

[Demitri/Morrigan Max Atk v1.0]
D3000000 30000000
11551DB2 000003E7

[Demitri/Morrigan Max Def v1.0]
D3000000 30000000
11551DB4 000003E7

[Demitri/Morrigan Max Tec v1.0]
D3000000 30000000
11551DB6 000003E7

[Demitri/Morrigan Max Dex v1.0]
D3000000 30000000
11551DB8 000003E7

[Demitri/Morrigan Max Move v1.0]
D3000000 30000000
21551DBA 00000063

[X/Zero Max Exp v1.0]
D3000000 30000000
01552918 000F423F

[X/Zero Max CP v1.0]
D3000000 30000000
0155291C 0098967F

[X/Zero Max HP/SP v1.0]
D3000000 30000000
0155235C 000F423F
11552360 000003E7
01552398 000F423F
1155239C 000003E7

[X/Zero Max Stats v1.0]
D3000000 30000000
1155239E 000003E7
115523A0 000003E7
115523A2 000003E7
115523A4 000003E7
215523A6 00000063

[X/Zero Max Atk v1.0]
D3000000 30000000
1155239E 000003E7

[X/Zero Max Def v1.0]
D3000000 30000000
115523A0 000003E7

[X/Zero Max Tec v1.0]
D3000000 30000000
115523A2 000003E7

[X/Zero Max Dex v1.0]
D3000000 30000000
115523A4 000003E7

[X/Zero Max Move v1.0]
D3000000 30000000
215523A6 00000063

[Hiryu/Hotsuma Max Expv1.0]
D3000000 30000000
01552F04 000F423F

[Hiryu/Hotsuma Max CPv1.0]
D3000000 30000000
01552F08 0098967F

[Hiryu/Hotsuma Max HP/SP v1.0]
D3000000 30000000
01552948 000F423F
1155294C 000003E7
01552984 000F423F
11552988 000003E7

[Hiryu/Hotsuma Max Stats v1.0]
D3000000 30000000
1155298A 000003E7
1155298C 000003E7
1155298E 000003E7
11552990 000003E7
21552992 00000063

[Hiryu/Hotsuma Max Atk v1.0]
D3000000 30000000
1155298A 000003E7

[Hiryu/Hotsuma Max Def v1.0]
D3000000 30000000
1155298C 000003E7

[Hiryu/Hotsuma Max Tec v1.0]
D3000000 30000000
1155298E 000003E7

[Hiryu/Hotsuma Max Dex v1.0]
D3000000 30000000
11552990 000003E7

[Hiryu/Hotsuma Max Move v1.0]
D3000000 30000000
21552992 00000063

[Akira/Kage Maru Max Expv1.0]
D3000000 30000000
015546B4 000F423F

[Akira/Kage Maru Max CPv1.0]
D3000000 30000000
015546B8 0098967F

[Akira/Kage Maru HP/SP v1.0]
D3000000 30000000
015540F8 000F423F
115540FC 000003E7
01554134 000F423F
11554138 000003E7

[Akira/Kage Maru Stats v1.0]
D3000000 30000000
1155413A 000003E7
1155413C 000003E7
1155413E 000003E7
11554140 000003E7
21554142 00000063

[Akira/Kage Maru Atk v1.0]
D3000000 30000000
1155413A 000003E7

[Akira/Kage Maru Max Def v1.0]
D3000000 30000000
1155413C 000003E7

[Akira/Kage Maru Max Tec v1.0]
D3000000 30000000
1155413E 000003E7

[Akira/Kage Maru Max Dex v1.0]
D3000000 30000000
11554140 000003E7

[Akira/Kage Maru Max Move v1.0]
D3000000 30000000
21554142 00000063

[Ichiro/Erica Max Expv1.0]
D3000000 30000000
01554CA0 000F423F

[Ichiro/Erica Max CPv1.0]
D3000000 30000000
01554CA4 0098967F

[Ichiro/Erica Max HP/SP v1.0]
D3000000 30000000
015546E4 000F423F
115546E8 000003E7
01554720 000F423F
11554724 000003E7

[Ichiro/Erica Max Stats v1.0]
D3000000 30000000
11554726 000003E7
11554728 000003E7
1155472A 000003E7
1155472C 000003E7
2155472E 00000063

[Ichiro/Erica Max Atk v1.0]
D3000000 30000000
11554726 000003E7

[Ichiro/Erica Max Def v1.0]
D3000000 30000000
11554728 000003E7

[Ichiro/Erica Max Tec v1.0]
D3000000 30000000
1155472A 000003E7

[Ichiro/Erica Max Dex v1.0]
D3000000 30000000
1155472C 000003E7

[Ichiro/Erica Max Move v1.0]
D3000000 30000000
2155473E 00000063

[Sakura/Gemini Max Expv1.0]
D3000000 30000000
0155528C 000F423F

[Sakura/Gemini Max CPv1.0]
D3000000 30000000
01555290 0098967F

[Sakura/Gemini Max HP/SP v1.0]
D3000000 30000000
01554CD0 000F423F
11554CD4 000003E7
01554D0C 000F423F
11554D10 000003E7

[Sakura/Gemini Max Stats v1.0]
D3000000 30000000
11554D12 000003E7
11554D14 000003E7
11554D16 000003E7
11554D18 000003E7
21554D1A 00000063

[Sakura/Gemini Max Atk v1.0]
D3000000 30000000
11554D12 000003E7

[Sakura/Gemini Max Def v1.0]
D3000000 30000000
11554D14 000003E7

[Sakura/Gemini Max Tec v1.0]
D3000000 30000000
11554D16 000003E7

[Sakura/Gemini Max Dex v1.0]
D3000000 30000000
11554D18 000003E7

[Sakura/Gemini Max Move v1.0]
D3000000 30000000
21554D1A 00000063

[Kiryu/Majima Max Expv1.0]
D3000000 30000000
01555878 000F423F

[Kiryu/Majima Max CPv1.0]
D3000000 30000000
0155587C 0098967F

[Kiryu/Majima Max HP/SP v1.0]
D3000000 30000000
015552BC 000F423F
115552C0 000003E7
015552F8 000F423F
115552FC 000003E7

[Kiryu/Majima Max Atk v1.0]
D3000000 30000000
115552FE 000003E7

[Kiryu/Majima Max Def v1.0]
D3000000 30000000
11555300 000003E7

[Kiryu/Majima Max Tec v1.0]
D3000000 30000000
11555302 000003E7

[Kiryu/Majima Max Dex v1.0]
D3000000 30000000
11555304 000003E7

[Kiryu/Majima Max Move v1.0]
D3000000 30000000
21555306 00000063

[Zephyr/Vashyron Max Expv1.0]
D3000000 30000000
01555E64 000F423F

[Zephyr/Vashyron Max CPv1.0]
D3000000 30000000
01555E68 0098967F

[Zephyr/Vashyron Max HP/SP v1.0]
D3000000 30000000
015558A8 000F423F
115558AC 000003E7
015558E4 000F423F
115558E8 000003E7

[Zephyr/Vashyron Max Stats v1.0]
D3000000 30000000
115558EA 000003E7
115558ED 000003E7
115558EE 000003E7
115558F0 000003E7
215558F2 00000063

[Zephyr/Vashyron Max Atk v1.0]
D3000000 30000000
115558EA 000003E7

[Zephyr/Vashyron Max Def v1.0]
D3000000 30000000
115558EC 000003E7

[Zephyr/Vashyron Max Tec v1.0]
D3000000 30000000
115558EE 000003E7

[Zephyr/Vashyron Max Dex v1.0]
D3000000 30000000
115558F0 000003E7

[Zephyr/Vashyron Max Move v1.0]
D3000000 30000000
215558F2 00000063

[Jin/Kazuya Max Expv1.0]
D3000000 30000000
015581EC 000F423F

[Jin/Kazuya Max CPv1.0]
D3000000 30000000
015581F0 0098967F

[Jin/Kazuya Max HP/SP v1.0]
D3000000 30000000
01557C30 000F423F
11557C34 000003E7
01557C6C 000F423F
11557C70 000003E7

[Jin/Kazuya Max Stats v1.0]
D3000000 30000000
11557C72 000003E7
11557C74 000003E7
11557C76 000003E7
11557C78 000003E7
21557C7A 00000063

[Jin/Kazuya Max Atk v1.0]
D3000000 30000000
11557C72 000003E7

[Jin/Kazuya Max Def v1.0]
D3000000 30000000
11557C74 000003E7

[Jin/Kazuya Max Tec v1.0]
D3000000 30000000
11557C76 000003E7

[Jin/Kazuya Max Dex v1.0]
D3000000 30000000
11557C78 000003E7

[Jin/Kazuya Max Move v1.0]
D3000000 30000000
21557C7A 00000063

[Yuri/Flynn Max Expv1.0]
D3000000 30000000
015587D8 000F423F

[Yuri/Flynn Max CPv1.0]
D3000000 30000000
015587DC 0098967F

[Yuri/Flynn Max HP/SP v1.0]
D3000000 30000000
0155821C 000F423F
11558220 000003E7
01558258 000F423F
1155825C 000003E7

[Yuri/Flynn Max Stats v1.0]
D3000000 30000000
1155825E 000003E7
11558260 000003E7
11558262 000003E7
11558264 000003E7
21558266 00000063

[Yuri/Flynn Max Atk v1.0]
D3000000 30000000
1155825E 000003E7

[Yuri/Flynn Max Def v1.0]
D3000000 30000000
11558260 000003E7

[Yuri/Flynn Max Tec v1.0]
D3000000 30000000
11558262 000003E7

[Yuri/Flynn Max Dex v1.0]
D3000000 30000000
11558264 000003E7

[Yuri/Flynn Max Move v1.0]
D3000000 30000000
21558266 00000063

[Ciel/Nana Max Expv1.0]
D3000000 30000000
01558DC4 000F423F

[Ciel/Nana Max CPv1.0]
D3000000 30000000
01558DC8 0098967F

[Ciel/Nana Max HP/SP v1.0]
D3000000 30000000
01558808 000F423F
1155880C 000003E7
01558844 000F423F
11558848 000003E7

[Ciel/Nana Max Stats v1.0]
D3000000 30000000
1155884A 000003E7
1155884C 000003E7
1155884E 000003E7
11558850 000003E7
21558852 00000063

[Ciel/Nana Max Atk v1.0]
D3000000 30000000
1155884A 000003E7

[Ciel/Nana Max Def v1.0]
D3000000 30000000
1155884C 000003E7

[Ciel/Nana Max Tec v1.0]
D3000000 30000000
1155884E 000003E7

[Ciel/Nana Max Dex v1.0]
D3000000 30000000
11558850 000003E7

[Ciel/Nana Max Move v1.0]
D3000000 30000000
21558852 00000063

[Kite/Haseo Max Expv1.0]
D3000000 30000000
015593B0 000F423F

[Kite/Haseo Max CPv1.0]
D3000000 30000000
015593B4 0098967F

[Kite/Haseo Max HP/SP v1.0]
D3000000 30000000
01558DF4 000F423F
11558DF8 000003E7
01558E30 000F423F
11558E34 000003E7

[Kite/Haseo Max Stats v1.0]
D3000000 30000000
11558E36 000003E7
11558E38 000003E7
11558E3A 000003E7
11558E3C 000003E7
21558E3E 00000063

[Kite/Haseo Max Atk v1.0]
D3000000 30000000
11558E36 000003E7

[Kite/Haseo Max Def v1.0]
D3000000 30000000
11558E38 000003E7

[Kite/Haseo Max Tec v1.0]
D3000000 30000000
11558E3A 000003E7

[Kite/Haseo Max Dex v1.0]
D3000000 30000000
11558E3C 000003E7

[Kite/Haseo Max Move v1.0]
D3000000 30000000
21558E3E 00000063

[Reiji/Xiaomu Max Expv1.0]
D3000000 30000000
0155999C 000F423F

[Reiji/Xiaomu Max CPv1.0]
D3000000 30000000
015599A0 0098967F

[Reiji/Xiaomu Max HP/SP v1.0]
D3000000 30000000
015593E0 000F423F
115593E4 000003E7
0155941C 000F423F
11559420 000003E7

[Reiji/Xiaomu Max Stats v1.0]
D3000000 30000000
11559422 000003E7
11559424 000003E7
11559426 000003E7
11559428 000003E7
2155942A 00000063

[Reiji/Xiaomu Max Atk v1.0]
D3000000 30000000
11559422 000003E7

[Reiji/Xiaomu Max Def v1.0]
D3000000 30000000
11559424 000003E7

[Reiji/Xiaomu Max Tec v1.0]
D3000000 30000000
11559426 000003E7

[Reiji/Xiaomu Max Dex v1.0]
D3000000 30000000
11559428 000003E7

[Reiji/Xiaomu Max Move v1.0]
D3000000 30000000
2155942A 00000063

[KOS-MOS/Fiora Max Expv1.0]
D3000000 30000000
01559F88 000F423F

[KOS-MOS/Fiora Max CPv1.0]
D3000000 30000000
01559F8C 0098967F

[KOS-MOS/Fiora HP/SP v1.0]
D3000000 30000000
015599CC 000F423F
115599D0 000003E7
01559A08 000F423F
11559A0C 000003E7

[KOS-MOS/Fiora Stats v1.0]
D3000000 30000000
11559A0E 000003E7
11559A10 000003E7
11559A12 000003E7
11559A14 000003E7
21559A16 00000063

[KOS-MOS/Fiora Atk v1.0]
D3000000 30000000
11559A0E 000003E7

[KOS-MOS/Fiora Def v1.0]
D3000000 30000000
11559A10 000003E7

[KOS-MOS/Fiora Tec v1.0]
D3000000 30000000
11559A12 000003E7

[KOS-MOS/Fiora Dex v1.0]
D3000000 30000000
11559A14 000003E7

[KOS-MOS/Fiora Move v1.0]
D3000000 30000000
21559A16 00000063

[Chrom/Lucina Max Expv1.0]
D3000000 30000000
0155A574 000F423F

[Chrom/Lucina Max CPv1.0]
D3000000 30000000
0155A578 0098967F

[Chrom/Lucina Max HP/SP v1.0]
D3000000 30000000
01559FB8 000F423F
11559FBC 000003E7
01559FF4 000F423F
11559FF8 000003E7

[Chrom/Lucina Max Stats v1.0]
D3000000 30000000
11559FFA 000003E7
11559FFC 000003E7
11559FFE 000003E7
1155A000 000003E7
2155A002 00000063

[Chrom/Lucina Max Atk v1.0]
D3000000 30000000
11559FFA 000003E7

[Chrom/Lucina Max Def v1.0]
D3000000 30000000
11559FFC 000003E7

[Chrom/Lucina Max Tec v1.0]
D3000000 30000000
11559FFE 000003E7

[Chrom/Lucina Max Dex v1.0]
D3000000 30000000
1155A000 000003E7

[Chrom/Lucina Max Move v1.0]
D3000000 30000000
2155A002 00000063

[All characters Max Atk v1.0]
D3000000 30000000
C0000000 0000001C
11550602 000003E7
DC000000 000005EC
D1000000 00000000

[All characters Max Def v1.0]
D3000000 30000000
C0000000 0000001C
11550604 000003E7
DC000000 000005EC
D1000000 00000000

[All characters Max Tec v1.0]
D3000000 30000000
C0000000 0000001C
11550606 000003E7
DC000000 000005EC
D1000000 00000000

[All characters Max Dex v1.0]
D3000000 30000000
C0000000 0000001C
11550608 000003E7
DC000000 000005EC
D1000000 00000000

[All characters Max Move v1.0]
D3000000 30000000
C0000000 0000001C
2155060A 00000063
DC000000 000005EC
D1000000 00000000

[Ryu/Ken Infinite SP v1.2]
D3000000 30000000
01551544 000003E7
01551580 000003E7

[Ryu/Ken Max CP v1.2]
D3000000 30000000
01551B00 0098967F

[Ryu/Ken Max EXP v1.2]
D3000000 30000000
01551AFC 0098967F

[Ryu/Ken Max ATK v1.2]
D3000000 30000000
11551582 000003E7

[Ryu/Ken Max DEF v1.2]
D3000000 30000000
11551584 000003E7

[Ryu/Ken Max TEC v1.2]
D3000000 30000000
11551586 000003E7

[Ryu/Ken Max DEX v1.2]
D3000000 30000000
11551588 000003E7

[Ryu/Ken Max Move v1.2]
D3000000 30000000
2155158A 00000063

[Chun-li/Xiaoyu Infinite HP v1.2]
D3000000 30000000
01551B2C 000F423F
01551B68 000F423F

[Chun-li/Xiaoyu Infinite SP v1.2]
D3000000 30000000
01551B30 000003E7
01551B6C 000003E7

[Chun-li/Xiaoyu Max CP v1.2]
D3000000 30000000
015520EC 0098967F

[Chun-li/Xiaoyu Max EXP v1.2]
D3000000 30000000
015520E8 0098967F

[Chun-li/Xiaoyu Max ATK v1.2]
D3000000 30000000
11551B6E 000003E7

[Chun-li/Xiaoyu Max DEF v1.2]
D3000000 30000000
11551B70 000003E7

[Chun-li/Xiaoyu Max TEC v1.2]
D3000000 30000000
11551B72 000003E7

[Chun-li/Xiaoyu Max DEX v1.2]
D3000000 30000000
11551B74 000003E7

[Chun-li/Xiaoyu Max Move v1.2]
D3000000 30000000
21551B76 00000063

[Dante/Vergil Infinite HP v1.2]
D3000000 30000000
01551198 000F423F
015511D4 000F423F

[Dante/Vergil Infinite SP v1.2]
D3000000 30000000
0155119C 000003E7
015511D8 000003E7

[Dante/Vergil Max CP v1.2]
D3000000 30000000
01551758 0098967F

[Dante/Vergil Max EXP v1.2]
D3000000 30000000
01551754 0098967F

[Dante/Vergil Max ATK v1.2]
D3000000 30000000
115511DA 000003E7

[Dante/Vergil Max DEF v1.2]
D3000000 30000000
115511DC 000003E7

[Dante/Vergil Max TEC v1.2]
D3000000 30000000
115511DE 000003E7

[Dante/Vergil Max DEX v1.2]
D3000000 30000000
115511E0 000003E7

[Dante/Vergil Max Move v1.2]
D3000000 30000000
215511E2 00000063

[Chris/Jill Infinite HP v1.2]
D3000000 30000000
01552118 000F423F
01552154 000F423F

[Chris/Jill Infinite SP v1.2]
D3000000 30000000
0155211C 000003E7
01552158 000003E7

[Chris/Jill Max CP v1.2]
D3000000 30000000
015526D8 0098967F

[Chris/Jill Max EXP v1.2]
D3000000 30000000
015526D4 0098967F

[Chris/Jill Max ATK v1.2]
D3000000 30000000
1155215A 000003E7

[Chris/Jill Max DEF v1.2]
D3000000 30000000
1155215C 000003E7

[Chris/Jill Max TEC v1.2]
D3000000 30000000
1155215E 000003E7

[Chris/Jill Max DEX v1.2]
D3000000 30000000
11552160 000003E7

[Chris/Jill Max Move v1.2]
D3000000 30000000
21552162 00000063

[Demitri/Morrigan Infinite HP v1.2]
D3000000 30000000
01552CF0 000F423F
01552D2C 000F423F

[Demitri/Morrigan Infinite SP v1.2]
D3000000 30000000
01552CF4 000003E7
01552D30 000003E7

[Demitri/Morrigan Max CP v1.2]
D3000000 30000000
015532B0 0098967F

[Demitri/Morrigan Max EXP v1.2]
D3000000 30000000
015532AC 0098967F

[Demitri/Morrigan Max ATK v1.2]
D3000000 30000000
11552D32 000003E7

[Demitri/Morrigan Max DEF v1.2]
D3000000 30000000
11552D34 000003E7

[Demitri/Morrigan Max TEC v1.2]
D3000000 30000000
11552D36 000003E7

[Demitri/Morrigan Max DEX v1.2]
D3000000 30000000
11552D38 000003E7

[Demitri/Morrigan Max Move v1.2]
D3000000 30000000
21552D3A 00000063

[X/Zero Infinite HP v1.2]
D3000000 30000000
015532DC 000F423F
01553318 000F423F

[X/Zero Infinite SP v1.2]
D3000000 30000000
015532E0 000003E7
0155331C 000003E7

[X/Zero Max CP v1.2]
D3000000 30000000
0155389C 0098967F

[X/Zero Max EXP v1.2]
D3000000 30000000
01553898 0098967F

[X/Zero Max ATK v1.2]
D3000000 30000000
1155331E 000003E7

[X/Zero Max DEF v1.2]
D3000000 30000000
11553320 000003E7

[X/Zero Max TEC v1.2]
D3000000 30000000
11553322 000003E7

[X/Zero Max DEX v1.2]
D3000000 30000000
11553324 000003E7

[X/Zero Max Move v1.2]
D3000000 30000000
21553326 00000063

[Hiryu/Hotsuma Infinite HP v1.2]
D3000000 30000000
015538C8 000F423F
01553904 000F423F

[Hiryu/Hotsuma Infinite SP v1.2]
D3000000 30000000
015538CC 000003E7
01553908 000003E7

[Hiryu/Hotsuma Max CP v1.2]
D3000000 30000000
01553E88 0098967F

[Hiryu/Hotsuma Max EXP v1.2]
D3000000 30000000
01553E84 0098967F

[Hiryu/Hotsuma Max ATK v1.2]
D3000000 30000000
1155390A 000003E7

[Hiryu/Hotsuma Max DEF v1.2]
D3000000 30000000
1155390C 000003E7

[Hiryu/Hotsuma Max TEC v1.2]
D3000000 30000000
1155390E 000003E7

[Hiryu/Hotsuma Max DEX v1.2]
D3000000 30000000
11553910 000003E7

[Hiryu/Hotsuma Max Move v1.2]
D3000000 30000000
11553912 00000063

[Akira/Kage Maru Infinite HP v1.2]
D3000000 30000000
01555078 000F423F
015550B4 000F423F

[Akira/Kage Maru Infinite SP v1.2]
D3000000 30000000
0155507C 000003E7
015550B8 000003E7

[Akira/Kage Maru Max CP v1.2]
D3000000 30000000
01555638 0098967F

[Akira/Kage Maru Max EXP v1.2]
D3000000 30000000
01555634 0098967F

[Akira/Kage Maru Max ATK v1.2]
D3000000 30000000
115550BA 000003E7

[Akira/Kage Maru Max DEF v1.2]
D3000000 30000000
115550BC 000003E7

[Akira/Kage Maru Max TEC v1.2]
D3000000 30000000
115550BE 000003E7

[Akira/Kage Maru Max DEX v1.2]
D3000000 30000000
115550C0 000003E7

[Akira/Kage Maru Max Move v1.2]
D3000000 30000000
215550C2 00000063

[Ichiro/Erica Infinite HP v1.2]
D3000000 30000000
01555664 000F423F
015556A0 000F423F

[Ichiro/Erica Infinite SP v1.2]
D3000000 30000000
01555668 000003E7
015556A4 000003E7

[Ichiro/Erica Max CP v1.2]
D3000000 30000000
01555C24 0098967F

[Ichiro/Erica Max EXP v1.2]
D3000000 30000000
01555C20 0098967F

[Ichiro/Erica Max ATK v1.2]
D3000000 30000000
115556A6 000003E7

[Ichiro/Erica Max DEF v1.2]
D3000000 30000000
115556A8 000003E7

[Ichiro/Erica Max TEC v1.2]
D3000000 30000000
115556AA 000003E7

[Ichiro/Erica Max DEX v1.2]
D3000000 30000000
115556AC 000003E7

[Ichiro/Erica Max Move v1.2]
D3000000 30000000
215556AE 00000063

[Sakura/Gemini Infinite HP v1.2]
D3000000 30000000
01555C50 000F423F
01555C8C 000F423F

[Sakura/Gemini Infinite SP v1.2]
D3000000 30000000
01555C54 000003E7
01555C90 000003E7

[Sakura/Gemini Max CP v1.2]
D3000000 30000000
01556210 0098967F

[Sakura/Gemini Max EXP v1.2]
D3000000 30000000
0155620C 0098967F

[Sakura/Gemini Max ATK v1.2]
D3000000 30000000
11555C92 000003E7

[Sakura/Gemini Max DEF v1.2]
D3000000 30000000
11555C94 000003E7

[Sakura/Gemini Max TEC v1.2]
D3000000 30000000
11555C96 000003E7

[Sakura/Gemini Max DEX v1.2]
D3000000 30000000
11555C98 000003E7

[Sakura/Gemini Max Move v1.2]
D3000000 30000000
21555C9A 00000063

[Kiryu/Majima Infinite HP v1.2]
D3000000 30000000
0155623C 000F423F
01556278 000F423F

[Kiryu/Majima Infinite SP v1.2]
D3000000 30000000
01556240 000003E7
0155627C 000003E7

[Kiryu/Majima Max CP v1.2]
D3000000 30000000
015567FC 0098967F

[Kiryu/Majima Max EXP v1.2]
D3000000 30000000
015567F8 0098967F

[Kiryu/Majima Max ATK v1.2]
D3000000 30000000
1155627E 000003E7

[Kiryu/Majima Max DEF v1.2]
D3000000 30000000
11556280 000003E7

[Kiryu/Majima Max TEC v1.2]
D3000000 30000000
11556282 000003E7

[Kiryu/Majima Max DEX v1.2]
D3000000 30000000
11556284 000003E7

[Kiryu/Majima Max Move v1.2]
D3000000 30000000
21556286 00000063

[Zephyr/Vashyron Infinite HP v1.2]
D3000000 30000000
01556828 000F423F
01556864 000F423F

[Zephyr/Vashyron Infinite SP v1.2]
D3000000 30000000
0155682C 000003E7
01556868 000003E7

[Zephyr/Vashyron Max CP v1.2]
D3000000 30000000
01556DE8 0098967F

[Zephyr/Vashyron Max EXP v1.2]
D3000000 30000000
01556DE4 0098967F

[Zephyr/Vashyron Max ATK v1.2]
D3000000 30000000
1155686A 000003E7

[Zephyr/Vashyron Max DEF v1.2]
D3000000 30000000
1155686C 000003E7

[Zephyr/Vashyron Max TEC v1.2]
D3000000 30000000
1155686E 000003E7

[Zephyr/Vashyron Max DEX v1.2]
D3000000 30000000
11556870 000003E7

[Zephyr/Vashyron Max Move v1.2]
D3000000 30000000
21556872 00000063

[Jin/Kazuya Infinite HP v1.2]
D3000000 30000000
01558BB0 000F423F
01558BEC 000F423F

[Jin/Kazuya Infinite SP v1.2]
D3000000 30000000
01558BB4 000003E7
01558BF0 000003E7

[Jin/Kazuya Max CP v1.2]
D3000000 30000000
01559170 0098967F

[Jin/Kazuya Max EXP v1.2]
D3000000 30000000
0155916C 0098967F

[Jin/Kazuya Max ATK v1.2]
D3000000 30000000
11558BF2 000003E7

[Jin/Kazuya Max DEF v1.2]
D3000000 30000000
11558BF4 000003E7

[Jin/Kazuya Max TEC v1.2]
D3000000 30000000
11558BF6 000003E7

[Jin/Kazuya Max DEX v1.2]
D3000000 30000000
11558BF8 000003E7

[Jin/Kazuya Max Move v1.2]
D3000000 30000000
21558BFA 00000063

[Yuri/Flynn Infinite HP v1.2]
D3000000 30000000
0155919C 000F423F
015591D8 000F423F

[Yuri/Flynn Infinite SP v1.2]
D3000000 30000000
015591A0 000003E7
015591DC 000003E7

[Yuri/Flynn Max CP v1.2]
D3000000 30000000
0155975C 0098967F

[Yuri/Flynn Max EXP v1.2]
D3000000 30000000
01559758 0098967F

[Yuri/Flynn Max ATK v1.2]
D3000000 30000000
115591DE 000003E7

[Yuri/Flynn Max DEF v1.2]
D3000000 30000000
115591E0 000003E7

[Yuri/Flynn Max TEC v1.2]
D3000000 30000000
115591E2 000003E7

[Yuri/Flynn Max DEX v1.2]
D3000000 30000000
115591E4 000003E7

[Yuri/Flynn Max Move v1.2]
D3000000 30000000
215591E6 00000063

[Ciel/Nana Infinite HP v1.2]
D3000000 30000000
01559788 000F423F
015597C4 000F423F

[Ciel/Nana Infinite SP v1.2]
D3000000 30000000
0155978C 000003E7
015597C8 000003E7

[Ciel/Nana Max CP v1.2]
D3000000 30000000
01559D48 0098967F

[Ciel/Nana Max EXP v1.2]
D3000000 30000000
01559D44 0098967F

[Ciel/Nana Max ATK v1.2]
D3000000 30000000
115597CA 000003E7

[Ciel/Nana Max DEF v1.2]
D3000000 30000000
115597CC 000003E7

[Ciel/Nana Max TEC v1.2]
D3000000 30000000
115597CE 000003E7

[Ciel/Nana Max DEX v1.2]
D3000000 30000000
115597D0 000003E7

[Ciel/Nana Max Move v1.2]
D3000000 30000000
215597D2 00000063

[Kite/Haseo Infinite HP v1.2]
D3000000 30000000
01559D74 000F423F
01559DB0 000F423F

[Kite/Haseo Infinite SP v1.2]
D3000000 30000000
01559D78 000003E7
01559DB4 000003E7

[Kite/Haseo Max CP v1.2]
D3000000 30000000
0155A334 0098967F

[Kite/Haseo Max EXP v1.2]
D3000000 30000000
0155A330 0098967F

[Kite/Haseo Max ATK v1.2]
D3000000 30000000
11559DB6 000003E7

[Kite/Haseo Max DEF v1.2]
D3000000 30000000
11559DB8 000003E7

[Kite/Haseo Max TEC v1.2]
D3000000 30000000
11559DBA 000003E7

[Kite/Haseo Max DEX v1.2]
D3000000 30000000
11559DBC 000003E7

[Kite/Haseo Max Move v1.2]
D3000000 30000000
21559DBE 00000063

[Reiji/Xiaomu Infinite HP v1.2]
D3000000 30000000
0155A360 000F423F
0155A39C 000F423F

[Reiji/Xiaomu Infinite SP v1.2]
D3000000 30000000
0155A364 000003E7
0155A3A0 000003E7

[Reiji/Xiaomu Max CP v1.2]
D3000000 30000000
0155A920 0098967F

[Reiji/Xiaomu Max EXP v1.2]
D3000000 30000000
0155A91C 0098967F

[Reiji/Xiaomu Max ATK v1.2]
D3000000 30000000
1155A3A2 000003E7

[Reiji/Xiaomu Max DEF v1.2]
D3000000 30000000
1155A3A4 000003E7

[Reiji/Xiaomu Max TEC v1.2]
D3000000 30000000
1155A3A6 000003E7

[Reiji/Xiaomu Max DEX v1.2]
D3000000 30000000
1155A3A8 000003E7

[Reiji/Xiaomu Max Move v1.2]
D3000000 30000000
2155A3AA 00000063

[KOS-MOS/Fiora Infinite HP v1.2]
D3000000 30000000
0155A94C 000F423F
0155A988 000F423F

[KOS-MOS/Fiora Infinite SP v1.2]
D3000000 30000000
0155A950 000003E7
0155A98C 000003E7

[KOS-MOS/Fiora Max CP v1.2]
D3000000 30000000
0155AF0C 0098967F

[KOS-MOS/Fiora Max EXP v1.2]
D3000000 30000000
0155AF08 0098967F

[KOS-MOS/Fiora Max ATK v1.2]
D3000000 30000000
1155A98E 000003E7

[KOS-MOS/Fiora Max DEF v1.2]
D3000000 30000000
1155A990 000003E7

[KOS-MOS/Fiora Max TEC v1.2]
D3000000 30000000
1155A992 000003E7

[KOS-MOS/Fiora Max DEX v1.2]
D3000000 30000000
1155A994 000003E7

[KOS-MOS/Fiora Max Move v1.2]
D3000000 30000000
2155A996 00000063

[Chrom/LucinaInfinite HP v1.2]
D3000000 30000000
0155AF38 000F423F
0155AF74 000F423F

[Chrom/LucinaInfinite SP v1.2]
D3000000 30000000
0155AF3C 000003E7
0155AF78 000003E7

[Chrom/LucinaMax CP v1.2]
D3000000 30000000
0155B4F8 0098967F

[Chrom/LucinaMax EXP v1.2]
D3000000 30000000
0155B4F4 0098967F

[Chrom/LucinaMax ATK v1.2]
D3000000 30000000
1155AF7A 000003E7

[Chrom/LucinaMax DEF v1.2]
D3000000 30000000
1155AF7C 000003E7

[Chrom/LucinaMax TEC v1.2]
D3000000 30000000
1155AF7E 000003E7

[Chrom/LucinaMax DEX v1.2]
D3000000 30000000
1155AF80 000003E7

[Chrom/LucinaMax Move v1.2]
D3000000 30000000
2155AF82 00000063

[Walk Through Walls]
D3000000 00000000
D2000000 00000000