

[Inf. Money (9,999,999)]
08C71DB0 0098967F

[Pokemon Generator]
D3000000 00000000
DD000000 00000108
18C6AC80 00000001
18C6AC82 000002D1
18C6AC84 00000002
18C6AC86 00000064
D0000000 00000000
DD000000 00000200
D3000000 00000000
DA000000 08C6AC82
C0000000 0000003D
D7000000 08D0905A
DC000000 00000002
D1000000 00000000
D0000000 00000000
D3000000 00000000
DB000000 08C6AC86
C0000000 0000003D
D8000000 08D0905C
D8000000 08D0905C
DC000000 00000002
D1000000 00000000
D0000000 00000000
D3000000 00000000
D0000000 00000000

[Max Money, Game v1.0]
08C6DDD0 0098967F

[Max Money, Game v1.4]
08C71DC0 0098967F

[99x Items 1.Slot, Game v1.4]
28C6EC72 00000063

[99x Items 2.Slot, Game v1.4]
28C6EC76 00000063

[O-Power Always Full]
28C83D94 0000000A

[Hold R at route 116 - Catch Mew with PokeNav]
DD000000 00000100
182C8AF2 00000097
182C8AF6 00000001

[Shiny Pokemon with Radar]
DD000000 00000100
182C8AF8 00000001
182C80D8 00000001
182C6C98 00000001
182C9008 00000001
182C85E8 00000001
182C71A8 00000001
182CA448 00000001
182C9A28 00000001
182C71A8 00000001
182C9518 00000001
182C76B8 00000001

[Pokémon in Radar and Items (Hold R button)]
00000000 00000000

[Shiny Pokemon Radar v.2 (Hold R button)]
00000000 00000000

[DexNav Search Lv. 255 For All Seen Pokemon (Update 1.4)]
D3000000 08C82668
C0000000 000002D1
A0000000 00000000
20000000 000000FF
D0000000 00000000
DC000000 00000002
D1000000 00000000
D2000000 00000000

[Max/Inf HP v1.4]
481FB58C 08200000
481FB92C 08200000
B81FB58C 00000000
1000000E 000003E7
10000010 000003E7
D3000000 00000000
B81FB92C 00000000
1000000E 000003E7
10000010 000003E7
D2000000 00000000

[Max/Inf AP v1.4]
481FB58C 08200000
481FB92C 08200000
B81FB58C 00000000
C0000000 00000002
C0000000 00000004
20000118 00000063
20000119 00000063
2000011E 00000063
2000011F 00000063
DC000000 0000000E
D1000000 00000000
D3000000 00000000
B81FB92C 00000000
D1000000 00000000
D2000000 00000000

[Refill all HP (Press L) v1.4]
DD000000 00000200
481FB58C 08200000
481FB92C 08200000
B81FB58C 00000000
C0000000 00000002
DA000000 0000000E
D7000000 00000010
D3000000 00000000
B81FB92C 00000000
D1000000 00000000
D3000000 00000000
B81FB590 00000000
C0000000 00000002
DA000000 0000000E
D7000000 00000010
D3000000 00000000
B81FB930 00000000
D1000000 00000000
D3000000 00000000
B81FB594 00000000
C0000000 00000002
DA000000 0000000E
D7000000 00000010
D3000000 00000000
B81FB934 00000000
D1000000 00000000
D3000000 00000000
B81FB598 00000000
C0000000 00000002
DA000000 0000000E
D7000000 00000010
D3000000 00000000
B81FB938 00000000
D1000000 00000000
D3000000 00000000
B81FB59C 00000000
C0000000 00000002
DA000000 0000000E
D7000000 00000010
D3000000 00000000
B81FB93C 00000000
D1000000 00000000
D3000000 00000000
B81FB5A0 00000000
C0000000 00000002
DA000000 0000000E
D7000000 00000010
D3000000 00000000
B81FB940 00000000
D1000000 00000000
D3000000 00000000
D2000000 00000000

[Refill all AP (Press L) v1.4]
DD000000 00000200
481FB58C 08200000
481FB92C 08200000
B81FB58C 00000000
C0000000 00000002
C0000000 00000004
DB000000 00000119
D8000000 00000118
D8000000 0000011D
DC000000 0000000C
D1000000 00000000
D3000000 00000000
B81FB92C 00000000
D1000000 00000000
D3000000 00000000
B81FB590 00000000
C0000000 00000002
C0000000 00000004
DB000000 00000119
D8000000 00000118
D8000000 0000011D
DC000000 0000000C
D1000000 00000000
D3000000 00000000
B81FB930 00000000
D1000000 00000000
D3000000 00000000
B81FB594 00000000
C0000000 00000002
C0000000 00000004
DB000000 00000119
D8000000 00000118
D8000000 0000011D
DC000000 0000000C
D1000000 00000000
D3000000 00000000
B81FB934 00000000
D1000000 00000000
D3000000 00000000
B81FB598 00000000
C0000000 00000002
C0000000 00000004
DB000000 00000119
D8000000 00000118
D8000000 0000011D
DC000000 0000000C
D1000000 00000000
D3000000 00000000
B81FB938 00000000
D1000000 00000000
D3000000 00000000
B81FB59C 00000000
C0000000 00000002
C0000000 00000004
DB000000 00000119
D8000000 00000118
D8000000 0000011D
DC000000 0000000C
D1000000 00000000
D3000000 00000000
B81FB93C 00000000
D1000000 00000000
D3000000 00000000
B81FB5A0 00000000
C0000000 00000002
C0000000 00000004
DB000000 00000119
D8000000 00000118
D8000000 0000011D
DC000000 0000000C
D1000000 00000000
D3000000 00000000
B81FB940 00000000
D1000000 00000000
D2000000 00000000

[Max all HP (Press R) v1.4]
DD000000 00000100
481FB58C 08200000
481FB92C 08200000
B81FB58C 00000000
1000000E 000003E7
D3000000 00000000
B81FB590 00000000
1000000E 000003E7
D3000000 00000000
B81FB594 00000000
1000000E 000003E7
D3000000 00000000
B81FB598 00000000
1000000E 000003E7
D3000000 00000000
B81FB59C 00000000
1000000E 000003E7
D3000000 00000000
B81FB5A0 00000000
1000000E 000003E7
D3000000 00000000
B81FB92C 00000000
1000000E 000003E7
D3000000 00000000
B81FB930 00000000
1000000E 000003E7
D3000000 00000000
B81FB934 00000000
1000000E 000003E7
D3000000 00000000
B81FB938 00000000
1000000E 000003E7
D3000000 00000000
B81FB93C 00000000
1000000E 000003E7
D3000000 00000000
B81FB940 00000000
1000000E 000003E7
D2000000 00000000

[Max all AP (Press R) v1.4]
DD000000 00000100
481FB58C 08200000
481FB92C 08200000
B81FB58C 00000000
C0000000 00000002
C0000000 00000004
20000119 00000063
2000011F 00000063
DC000000 0000000E
D1000000 00000000
D3000000 00000000
B81FB92C 00000000
D1000000 00000000
D3000000 00000000
B81FB590 00000000
C0000000 00000002
C0000000 00000004
20000119 00000063
2000011F 00000063
DC000000 0000000E
D1000000 00000000
D3000000 00000000
B81FB930 00000000
D1000000 00000000
D3000000 00000000
B81FB594 00000000
C0000000 00000002
C0000000 00000004
20000119 00000063
2000011F 00000063
DC000000 0000000E
D1000000 00000000
D3000000 00000000
B81FB934 00000000
D1000000 00000000
D3000000 00000000
B81FB598 00000000
C0000000 00000002
C0000000 00000004
20000119 00000063
2000011F 00000063
DC000000 0000000E
D1000000 00000000
D3000000 00000000
B81FB938 00000000
D1000000 00000000
D3000000 00000000
B81FB59C 00000000
C0000000 00000002
C0000000 00000004
20000119 00000063
2000011F 00000063
DC000000 0000000E
D1000000 00000000
D3000000 00000000
B81FB93C 00000000
D1000000 00000000
D3000000 00000000
B81FB5A0 00000000
C0000000 00000002
C0000000 00000004
20000119 00000063
2000011F 00000063
DC000000 0000000E
D1000000 00000000
D3000000 00000000
B81FB940 00000000
D1000000 00000000
D2000000 00000000

[All Lvl 100 after Battle (Press Y) v1.4]
DD000000 00000800
481FB58C 08200000
481FB92C 08200000
B81FB58C 00000000
00000008 00200000
D3000000 00000000
B81FB590 00000000
00000008 00200000
D3000000 00000000
B81FB594 00000000
00000008 00200000
D3000000 00000000
B81FB598 00000000
00000008 00200000
D3000000 00000000
B81FB59C 00000000
00000008 00200000
D3000000 00000000
B81FB5A0 00000000
00000008 00200000
D3000000 00000000
B81FB92C 00000000
00000008 00200000
D3000000 00000000
B81FB930 00000000
00000008 00200000
D3000000 00000000
B81FB934 00000000
00000008 00200000
D3000000 00000000
B81FB938 00000000
00000008 00200000
D3000000 00000000
B81FB93C 00000000
00000008 00200000
D3000000 00000000
B81FB940 00000000
00000008 00200000
D3000000 00000000
D2000000 00000000

[Lvl 100 aft battle 1st PKMN (Press Y) v1.4]
DD000000 00000800
481FB58C 08200000
481FB92C 08200000
B81FB58C 00000000
00000008 00200000
D3000000 00000000
B81FB92C 00000000
00000008 00200000
D2000000 00000000

[1st ATK 1st PKMN Modifier v1.4]
481FB58C 08200000
481FB92C 08200000
B81FB58C 00000000
1000011C 00001111
D3000000 00000000
B81FB92C 00000000
1000011C 00001111
D2000000 00000000

[2nd ATK 1st PKMN Modifier v1.4]
481FB58C 08200000
481FB92C 08200000
B81FB58C 00000000
1000012A 00001111
D3000000 00000000
B81FB92C 00000000
1000012A 00001111
D2000000 00000000

[3rd ATK 1st PKMN Modifier v1.4]
481FB58C 08200000
481FB92C 08200000
B81FB58C 00000000
10000138 00001111
D3000000 00000000
B81FB92C 00000000
10000138 00001111
D2000000 00000000

[4th ATK 1st PKMN Modifier v1.4]
481FB58C 08200000
481FB92C 08200000
B81FB58C 00000000
10000146 00001111
D3000000 00000000
B81FB92C 00000000
10000146 00001111
D2000000 00000000

[Refill HP 1st PKMN (Press L) v1.4]
DD000000 00000200
481FB58C 08200000
481FB92C 08200000
B81FB58C 00000000
DA000000 0000000E
D7000000 00000010
D3000000 00000000
B81FB92C 00000000
D7000000 00000010
D2000000 00000000

[Max HP 1st Pokemon (Press R) v1.4]
DD000000 00000100
481FB58C 08200000
481FB92C 08200000
B81FB58C 00000000
1000000E 000003E7
D3000000 00000000
B81FB92C 00000000
1000000E 000003E7
D2000000 00000000

[Refill All AP 1st PKMN (Press L) v1.4]
DD000000 00000200
481FB58C 08200000
481FB92C 08200000
B81FB58C 00000000
C0000000 00000002
C0000000 00000004
DB000000 00000119
D8000000 00000118
D8000000 0000011D
DC000000 0000000C
D1000000 00000000
D3000000 00000000
B81FB92C 00000000
D1000000 00000000
D2000000 00000000

[Max All AP 1st PKMN (Press R) v1.4]
DD000000 00000100
481FB58C 08200000
481FB92C 08200000
B81FB58C 00000000
C0000000 00000002
C0000000 00000004
20000119 00000063
2000011F 00000063
DC000000 0000000E
D1000000 00000000
D3000000 00000000
B81FB92C 00000000
D1000000 00000000
D2000000 00000000

[Refill AP 1st ATK 1st PKMN (Press UP+L) v1.4]
DD000000 00000240
481FB58C 08200000
481FB92C 08200000
B81FB58C 00000000
DB000000 00000119
D8000000 00000118
D8000000 0000011D
D3000000 00000000
B81FB92C 00000000
D8000000 00000118
D8000000 0000011D
D2000000 00000000

[Max AP 1st ATK 1st PKMN (Press UP+R) v1.4]
DD000000 00000140
481FB58C 08200000
481FB92C 08200000
B81FB58C 00000000
20000119 00000063
2000011F 00000063
D3000000 00000000
B81FB92C 00000000
20000119 00000063
2000011F 00000063
D2000000 00000000

[Refill AP 2nd ATK 1st PKMN (Press RIGHT+L) v1.4]
DD000000 00000210
481FB58C 08200000
481FB92C 08200000
B81FB58C 00000000
DB000000 00000127
D8000000 00000126
D8000000 0000012B
D3000000 00000000
B81FB92C 00000000
D8000000 00000126
D8000000 0000012B
D2000000 00000000

[Max AP 2nd ATK 1st PKMN (Press RIGHT+R) v1.4]
DD000000 00000110
481FB58C 08200000
481FB92C 08200000
B81FB58C 00000000
20000127 00000063
2000012D 00000063
D3000000 00000000
B81FB92C 00000000
20000127 00000063
2000012D 00000063
D2000000 00000000

[Refill AP 3rd ATK 1st PKMN (Press DOWN+L) v1.4]
DD000000 00000280
481FB58C 08200000
481FB92C 08200000
B81FB58C 00000000
DB000000 00000135
D8000000 00000134
D8000000 00000139
D3000000 00000000
B81FB92C 00000000
D8000000 00000134
D8000000 00000139
D2000000 00000000

[Max AP 3rd ATK 1st PKMN (Press DOWN+R) v1.4]
DD000000 00000180
481FB58C 08200000
481FB92C 08200000
B81FB58C 00000000
20000135 00000063
2000013B 00000063
D3000000 00000000
B81FB92C 00000000
20000135 00000063
2000013B 00000063
D2000000 00000000

[Refill AP 4th ATK 1st PKMN (Press LEFT+L) v1.4]
DD000000 00000220
481FB58C 08200000
481FB92C 08200000
B81FB58C 00000000
DB000000 00000143
D8000000 00000142
D8000000 00000147
D3000000 00000000
B81FB92C 00000000
D8000000 00000142
D8000000 00000147
D2000000 00000000

[Max AP 4th ATK 1st PKMN (Press LEFT+R) v1.4]
DD000000 00000120
481FB58C 08200000
481FB92C 08200000
B81FB58C 00000000
20000143 00000063
20000149 00000063
D3000000 00000000
B81FB92C 00000000
20000143 00000063
20000149 00000063
D2000000 00000000

[Lvl 100 aft battle 2nd PKMN (Press Y) v1.4]
DD000000 00000800
481FB58C 08200000
481FB92C 08200000
B81FB590 00000000
00000008 00200000
D3000000 00000000
B81FB930 00000000
00000008 00200000
D2000000 00000000

[1st ATK 2nd PKMN Modifier v1.4]
481FB58C 08200000
481FB92C 08200000
B81FB590 00000000
1000011C 00001111
D3000000 00000000
B81FB930 00000000
1000011C 00001111
D2000000 00000000

[2nd ATK 2nd PKMN Modifier v1.4]
481FB58C 08200000
481FB92C 08200000
B81FB590 00000000
1000012A 00001111
D3000000 00000000
B81FB930 00000000
1000012A 00001111
D2000000 00000000

[3rd ATK 2nd PKMN Modifier v1.4]
481FB58C 08200000
481FB92C 08200000
B81FB590 00000000
10000138 00001111
D3000000 00000000
B81FB930 00000000
10000138 00001111
D2000000 00000000

[4th ATK 2nd PKMN Modifier v1.4]
481FB58C 08200000
481FB92C 08200000
B81FB590 00000000
10000146 00001111
D3000000 00000000
B81FB930 00000000
10000146 00001111
D2000000 00000000

[Refill HP 2nd PKMN (Press L) v1.4]
DD000000 00000200
481FB58C 08200000
481FB92C 08200000
B81FB590 00000000
DA000000 0000000E
D7000000 00000010
D3000000 00000000
B81FB930 00000000
D7000000 00000010
D2000000 00000000

[Max HP 2nd Pokemon (Press R) v1.4]
DD000000 00000100
481FB58C 08200000
481FB92C 08200000
B81FB590 00000000
1000000E 000003E7
D3000000 00000000
B81FB930 00000000
1000000E 000003E7
D2000000 00000000

[Refill All AP 2nd PKMN (Press L) v1.4]
DD000000 00000200
481FB58C 08200000
481FB92C 08200000
B81FB590 00000000
C0000000 00000002
C0000000 00000004
DB000000 00000119
D8000000 00000118
D8000000 0000011D
DC000000 0000000C
D1000000 00000000
D3000000 00000000
B81FB930 00000000
D1000000 00000000
D2000000 00000000

[Max All AP 2nd PKMN (Press R) v1.4]
DD000000 00000100
481FB58C 08200000
481FB92C 08200000
B81FB590 00000000
C0000000 00000002
C0000000 00000004
20000119 00000063
2000011F 00000063
DC000000 0000000E
D1000000 00000000
D3000000 00000000
B81FB930 00000000
D1000000 00000000
D2000000 00000000

[Refill AP 1st ATK 2nd PKMN (Press UP+L) v1.4]
DD000000 00000240
481FB58C 08200000
481FB92C 08200000
B81FB590 00000000
DB000000 00000119
D8000000 00000118
D8000000 0000011D
D3000000 00000000
B81FB930 00000000
D8000000 00000118
D8000000 0000011D
D2000000 00000000

[Max AP 1st ATK 2nd PKMN (Press UP+R) v1.4]
DD000000 00000140
481FB58C 08200000
481FB92C 08200000
B81FB590 00000000
20000119 00000063
2000011F 00000063
D3000000 00000000
B81FB930 00000000
20000119 00000063
2000011F 00000063
D2000000 00000000

[Refill AP 2nd ATK 2nd PKMN (Press RIGHT+L) v1.4]
DD000000 00000210
481FB58C 08200000
481FB92C 08200000
B81FB590 00000000
DB000000 00000127
D8000000 00000126
D8000000 0000012B
D3000000 00000000
B81FB930 00000000
D8000000 00000126
D8000000 0000012B
D2000000 00000000

[Max AP 2nd ATK 2nd PKMN (Press RIGHT+R) v1.4]
DD000000 00000110
481FB58C 08200000
481FB92C 08200000
B81FB590 00000000
20000127 00000063
2000012D 00000063
D3000000 00000000
B81FB930 00000000
20000127 00000063
2000012D 00000063
D2000000 00000000

[Refill AP 3rd ATK 2nd PKMN (Press DOWN+L) v1.4]
DD000000 00000280
481FB58C 08200000
481FB92C 08200000
B81FB590 00000000
DB000000 00000135
D8000000 00000134
D8000000 00000139
D3000000 00000000
B81FB930 00000000
D8000000 00000134
D8000000 00000139
D2000000 00000000

[Max AP 3rd ATK 2nd PKMN (Press DOWN+R) v1.4]
DD000000 00000180
481FB58C 08200000
481FB92C 08200000
B81FB590 00000000
20000135 00000063
2000013B 00000063
D3000000 00000000
B81FB930 00000000
20000135 00000063
2000013B 00000063
D2000000 00000000

[Refill AP 4th ATK 2nd PKMN (Press LEFT+L) v1.4]
DD000000 00000220
481FB58C 08200000
481FB92C 08200000
B81FB590 00000000
DB000000 00000143
D8000000 00000142
D8000000 00000147
D3000000 00000000
B81FB930 00000000
D8000000 00000142
D8000000 00000147
D2000000 00000000

[Max AP 4th ATK 2nd PKMN (Press LEFT+R) v1.4]
DD000000 00000120
481FB58C 08200000
481FB92C 08200000
B81FB590 00000000
20000143 00000063
20000149 00000063
D3000000 00000000
B81FB930 00000000
20000143 00000063
20000149 00000063
D2000000 00000000

[Lvl 100 aft battle 3rd PKMN (Press Y) v1.4]
DD000000 00000800
481FB58C 08200000
481FB92C 08200000
B81FB594 00000000
00000008 00200000
D3000000 00000000
B81FB934 00000000
00000008 00200000
D2000000 00000000

[1st ATK 3rd PKMN Modifier v1.4]
481FB58C 08200000
481FB92C 08200000
B81FB594 00000000
1000011C 00001111
D3000000 00000000
B81FB934 00000000
1000011C 00001111
D2000000 00000000

[2nd ATK 3rd PKMN Modifier v1.4]
481FB58C 08200000
481FB92C 08200000
B81FB594 00000000
1000012A 00001111
D3000000 00000000
B81FB934 00000000
1000012A 00001111
D2000000 00000000

[3rd ATK 3rd PKMN Modifier v1.4]
481FB58C 08200000
481FB92C 08200000
B81FB594 00000000
10000138 00001111
D3000000 00000000
B81FB934 00000000
10000138 00001111
D2000000 00000000

[4th ATK 3rd PKMN Modifier v1.4]
481FB58C 08200000
481FB92C 08200000
B81FB594 00000000
10000146 00001111
D3000000 00000000
B81FB934 00000000
10000146 00001111
D2000000 00000000

[Refill HP 3rd PKMN (Press L) v1.4]
DD000000 00000200
481FB58C 08200000
481FB92C 08200000
B81FB594 00000000
DA000000 0000000E
D7000000 00000010
D3000000 00000000
B81FB934 00000000
D7000000 00000010
D2000000 00000000

[Max HP 3rd Pokemon (Press R) v1.4]
DD000000 00000100
481FB58C 08200000
481FB92C 08200000
B81FB594 00000000
1000000E 000003E7
D3000000 00000000
B81FB934 00000000
1000000E 000003E7
D2000000 00000000

[Refill All AP 3rd PKMN (Press L) v1.4]
DD000000 00000200
481FB58C 08200000
481FB92C 08200000
B81FB594 00000000
C0000000 00000002
C0000000 00000004
DB000000 00000119
D8000000 00000118
D8000000 0000011D
DC000000 0000000C
D1000000 00000000
D3000000 00000000
B81FB934 00000000
D1000000 00000000
D2000000 00000000

[Max All AP 3rd PKMN (Press R) v1.4]
DD000000 00000100
481FB58C 08200000
481FB92C 08200000
B81FB594 00000000
C0000000 00000002
C0000000 00000004
20000119 00000063
2000011F 00000063
DC000000 0000000E
D1000000 00000000
D3000000 00000000
B81FB934 00000000
D1000000 00000000
D2000000 00000000

[Refill AP 1st ATK 3rd PKMN (Press UP+L) v1.4]
DD000000 00000240
481FB58C 08200000
481FB92C 08200000
B81FB594 00000000
DB000000 00000119
D8000000 00000118
D8000000 0000011D
D3000000 00000000
B81FB934 00000000
D8000000 00000118
D8000000 0000011D
D2000000 00000000

[Max AP 1st ATK 3rd PKMN (Press UP+R) v1.4]
DD000000 00000140
481FB58C 08200000
481FB92C 08200000
B81FB594 00000000
20000119 00000063
2000011F 00000063
D3000000 00000000
B81FB934 00000000
20000119 00000063
2000011F 00000063
D2000000 00000000

[Refill AP 2nd ATK 3rd PKMN (Press RIGHT+L) v1.4]
DD000000 00000210
481FB58C 08200000
481FB92C 08200000
B81FB594 00000000
DB000000 00000127
D8000000 00000126
D8000000 0000012B
D3000000 00000000
B81FB934 00000000
D8000000 00000126
D8000000 0000012B
D2000000 00000000

[Max AP 2nd ATK 3rd PKMN (Press RIGHT+R) v1.4]
DD000000 00000110
481FB58C 08200000
481FB92C 08200000
B81FB594 00000000
20000127 00000063
2000012D 00000063
D3000000 00000000
B81FB934 00000000
20000127 00000063
2000012D 00000063
D2000000 00000000

[Refill AP 3rd ATK 3rd PKMN (Press DOWN+L) v1.4]
DD000000 00000280
481FB58C 08200000
481FB92C 08200000
B81FB594 00000000
DB000000 00000135
D8000000 00000134
D8000000 00000139
D3000000 00000000
B81FB934 00000000
D8000000 00000134
D8000000 00000139
D2000000 00000000

[Max AP 3rd ATK 3rd PKMN (Press DOWN+R) v1.4]
DD000000 00000180
481FB58C 08200000
481FB92C 08200000
B81FB594 00000000
20000135 00000063
2000013B 00000063
D3000000 00000000
B81FB934 00000000
20000135 00000063
2000013B 00000063
D2000000 00000000

[Refill AP 4th ATK 3rd PKMN (Press LEFT+L) v1.4]
DD000000 00000220
481FB58C 08200000
481FB92C 08200000
B81FB594 00000000
DB000000 00000143
D8000000 00000142
D8000000 00000147
D3000000 00000000
B81FB934 00000000
D8000000 00000142
D8000000 00000147
D2000000 00000000

[Max AP 4th ATK 3rd PKMN (Press LEFT+R) v1.4]
DD000000 00000120
481FB58C 08200000
481FB92C 08200000
B81FB594 00000000
20000143 00000063
20000149 00000063
D3000000 00000000
B81FB934 00000000
20000143 00000063
20000149 00000063
D2000000 00000000

[Lvl 100 aft battle 4th PKMN (Press Y) v1.4]
DD000000 00000800
481FB58C 08200000
481FB92C 08200000
B81FB598 00000000
00000008 00200000
D3000000 00000000
B81FB938 00000000
00000008 00200000
D2000000 00000000

[1st ATK 4th PKMN Modifier v1.4]
481FB58C 08200000
481FB92C 08200000
B81FB598 00000000
1000011C 00001111
D3000000 00000000
B81FB938 00000000
1000011C 00001111
D2000000 00000000

[2nd ATK 4th PKMN Modifier v1.4]
481FB58C 08200000
481FB92C 08200000
B81FB598 00000000
1000012A 00001111
D3000000 00000000
B81FB938 00000000
1000012A 00001111
D2000000 00000000

[3rd ATK 4th PKMN Modifier v1.4]
481FB58C 08200000
481FB92C 08200000
B81FB598 00000000
10000138 00001111
D3000000 00000000
B81FB938 00000000
10000138 00001111
D2000000 00000000

[4th ATK 4th PKMN Modifier v1.4]
481FB58C 08200000
481FB92C 08200000
B81FB598 00000000
10000146 00001111
D3000000 00000000
B81FB938 00000000
10000146 00001111
D2000000 00000000

[Refill HP 4th PKMN (Press L) v1.4]
DD000000 00000200
481FB58C 08200000
481FB92C 08200000
B81FB598 00000000
DA000000 0000000E
D7000000 00000010
D3000000 00000000
B81FB938 00000000
D7000000 00000010
D2000000 00000000

[Max HP 4th Pokemon (Press R) v1.4]
DD000000 00000100
481FB58C 08200000
481FB92C 08200000
B81FB598 00000000
1000000E 000003E7
D3000000 00000000
B81FB938 00000000
1000000E 000003E7
D2000000 00000000

[Refill All AP 4th PKMN (Press L) v1.4]
DD000000 00000200
481FB58C 08200000
481FB92C 08200000
B81FB598 00000000
C0000000 00000002
C0000000 00000004
DB000000 00000119
D8000000 00000118
D8000000 0000011D
DC000000 0000000C
D1000000 00000000
D3000000 00000000
B81FB938 00000000
D1000000 00000000
D2000000 00000000

[Max All AP 4th PKMN (Press R) v1.4]
DD000000 00000100
481FB58C 08200000
481FB92C 08200000
B81FB598 00000000
C0000000 00000002
C0000000 00000004
20000119 00000063
2000011F 00000063
DC000000 0000000E
D1000000 00000000
D3000000 00000000
B81FB938 00000000
D1000000 00000000
D2000000 00000000

[Refill AP 1st ATK 4th PKMN (Press UP+L) v1.4]
DD000000 00000240
481FB58C 08200000
481FB92C 08200000
B81FB598 00000000
DB000000 00000119
D8000000 00000118
D8000000 0000011D
D3000000 00000000
B81FB938 00000000
D8000000 00000118
D8000000 0000011D
D2000000 00000000

[Max AP 1st ATK 4th PKMN (Press UP+R) v1.4]
DD000000 00000140
481FB58C 08200000
481FB92C 08200000
B81FB598 00000000
20000119 00000063
2000011F 00000063
D3000000 00000000
B81FB938 00000000
20000119 00000063
2000011F 00000063
D2000000 00000000

[Refill AP 2nd ATK 4th PKMN (Press RIGHT+L) v1.4]
DD000000 00000210
481FB58C 08200000
481FB92C 08200000
B81FB598 00000000
DB000000 00000127
D8000000 00000126
D8000000 0000012B
D3000000 00000000
B81FB938 00000000
D8000000 00000126
D8000000 0000012B
D2000000 00000000

[Max AP 2nd ATK 4th PKMN (Press RIGHT+R) v1.4]
DD000000 00000110
481FB58C 08200000
481FB92C 08200000
B81FB598 00000000
20000127 00000063
2000012D 00000063
D3000000 00000000
B81FB938 00000000
20000127 00000063
2000012D 00000063
D2000000 00000000

[Refill AP 3rd ATK 4th PKMN (Press DOWN+L) v1.4]
DD000000 00000280
481FB58C 08200000
481FB92C 08200000
B81FB598 00000000
DB000000 00000135
D8000000 00000134
D8000000 00000139
D3000000 00000000
B81FB938 00000000
D8000000 00000134
D8000000 00000139
D2000000 00000000

[Max AP 3rd ATK 4th PKMN (Press DOWN+R) v1.4]
DD000000 00000180
481FB58C 08200000
481FB92C 08200000
B81FB598 00000000
20000135 00000063
2000013B 00000063
D3000000 00000000
B81FB938 00000000
20000135 00000063
2000013B 00000063
D2000000 00000000

[Refill AP 4th ATK 4th PKMN (Press LEFT+L) v1.4]
DD000000 00000220
481FB58C 08200000
481FB92C 08200000
B81FB598 00000000
DB000000 00000143
D8000000 00000142
D8000000 00000147
D3000000 00000000
B81FB938 00000000
D8000000 00000142
D8000000 00000147
D2000000 00000000

[Max AP 4th ATK 4th PKMN (Press LEFT+R) v1.4]
DD000000 00000120
481FB58C 08200000
481FB92C 08200000
B81FB598 00000000
20000143 00000063
20000149 00000063
D3000000 00000000
B81FB938 00000000
20000143 00000063
20000149 00000063
D2000000 00000000

[Lvl 100 aft battle 5th PKMN (Press Y) v1.4]
DD000000 00000800
481FB58C 08200000
481FB92C 08200000
B81FB59C 00000000
00000008 00200000
D3000000 00000000
B81FB93C 00000000
00000008 00200000
D2000000 00000000

[1st ATK 5th PKMN Modifier v1.4]
481FB58C 08200000
481FB92C 08200000
B81FB59C 00000000
1000011C 00001111
D3000000 00000000
B81FB93C 00000000
1000011C 00001111
D2000000 00000000

[2nd ATK 5th PKMN Modifier v1.4]
481FB58C 08200000
481FB92C 08200000
B81FB59C 00000000
1000012A 00001111
D3000000 00000000
B81FB93C 00000000
1000012A 00001111
D2000000 00000000

[3rd ATK 5th PKMN Modifier v1.4]
481FB58C 08200000
481FB92C 08200000
B81FB59C 00000000
10000138 00001111
D3000000 00000000
B81FB93C 00000000
10000138 00001111
D2000000 00000000

[4th ATK 5th PKMN Modifier v1.4]
481FB58C 08200000
481FB92C 08200000
B81FB59C 00000000
10000146 00001111
D3000000 00000000
B81FB93C 00000000
10000146 00001111
D2000000 00000000

[Refill HP 5th PKMN (Press L) v1.4]
DD000000 00000200
481FB58C 08200000
481FB92C 08200000
B81FB59C 00000000
DA000000 0000000E
D7000000 00000010
D3000000 00000000
B81FB93C 00000000
D7000000 00000010
D2000000 00000000

[Max HP 5th Pokemon (Press R) v1.4]
DD000000 00000100
481FB58C 08200000
481FB92C 08200000
B81FB59C 00000000
1000000E 000003E7
D3000000 00000000
B81FB93C 00000000
1000000E 000003E7
D2000000 00000000

[Refill All AP 5th PKMN (Press L) v1.4]
DD000000 00000200
481FB58C 08200000
481FB92C 08200000
B81FB59C 00000000
C0000000 00000002
C0000000 00000004
DB000000 00000119
D8000000 00000118
D8000000 0000011D
DC000000 0000000C
D1000000 00000000
D3000000 00000000
B81FB93C 00000000
D1000000 00000000
D2000000 00000000

[Max All AP 5th PKMN (Press R) v1.4]
DD000000 00000100
481FB58C 08200000
481FB92C 08200000
B81FB59C 00000000
C0000000 00000002
C0000000 00000004
20000119 00000063
2000011F 00000063
DC000000 0000000E
D1000000 00000000
D3000000 00000000
B81FB93C 00000000
D1000000 00000000
D2000000 00000000

[Refill AP 1st ATK 5th PKMN (Press UP+L) v1.4]
DD000000 00000240
481FB58C 08200000
481FB92C 08200000
B81FB59C 00000000
DB000000 00000119
D8000000 00000118
D8000000 0000011D
D3000000 00000000
B81FB93C 00000000
D8000000 00000118
D8000000 0000011D
D2000000 00000000

[Max AP 1st ATK 5th PKMN (Press UP+R) v1.4]
DD000000 00000140
481FB58C 08200000
481FB92C 08200000
B81FB59C 00000000
20000119 00000063
2000011F 00000063
D3000000 00000000
B81FB93C 00000000
20000119 00000063
2000011F 00000063
D2000000 00000000

[Refill AP 2nd ATK 5th PKMN (Press RIGHT+L) v1.4]
DD000000 00000210
481FB58C 08200000
481FB92C 08200000
B81FB59C 00000000
DB000000 00000127
D8000000 00000126
D8000000 0000012B
D3000000 00000000
B81FB93C 00000000
D8000000 00000126
D8000000 0000012B
D2000000 00000000

[Max AP 2nd ATK 5th PKMN (Press RIGHT+R) v1.4]
DD000000 00000110
481FB58C 08200000
481FB92C 08200000
B81FB59C 00000000
20000127 00000063
2000012D 00000063
D3000000 00000000
B81FB93C 00000000
20000127 00000063
2000012D 00000063
D2000000 00000000

[Refill AP 3rd ATK 5th PKMN (Press DOWN+L) v1.4]
DD000000 00000280
481FB58C 08200000
481FB92C 08200000
B81FB59C 00000000
DB000000 00000135
D8000000 00000134
D8000000 00000139
D3000000 00000000
B81FB93C 00000000
D8000000 00000134
D8000000 00000139
D2000000 00000000

[Max AP 3rd ATK 5th PKMN (Press DOWN+R) v1.4]
DD000000 00000180
481FB58C 08200000
481FB92C 08200000
B81FB59C 00000000
20000135 00000063
2000013B 00000063
D3000000 00000000
B81FB93C 00000000
20000135 00000063
2000013B 00000063
D2000000 00000000

[Refill AP 4th ATK 5th PKMN (Press LEFT+L) v1.4]
DD000000 00000220
481FB58C 08200000
481FB92C 08200000
B81FB59C 00000000
DB000000 00000143
D8000000 00000142
D8000000 00000147
D3000000 00000000
B81FB93C 00000000
D8000000 00000142
D8000000 00000147
D2000000 00000000

[Max AP 4th ATK 5th PKMN (Press LEFT+R) v1.4]
DD000000 00000120
481FB58C 08200000
481FB92C 08200000
B81FB59C 00000000
20000143 00000063
20000149 00000063
D3000000 00000000
B81FB93C 00000000
20000143 00000063
20000149 00000063
D2000000 00000000

[Lvl 100 aft battle 6th PKMN (Press Y) v1.4]
DD000000 00000800
481FB58C 08200000
481FB92C 08200000
B81FB5A0 00000000
00000008 00200000
D3000000 00000000
B81FB940 00000000
00000008 00200000
D2000000 00000000

[1st ATK 6th PKMN Modifier v1.4]
481FB58C 08200000
481FB92C 08200000
B81FB5A0 00000000
1000011C 00001111
D3000000 00000000
B81FB940 00000000
1000011C 00001111
D2000000 00000000

[2nd ATK 6th PKMN Modifier v1.4]
481FB58C 08200000
481FB92C 08200000
B81FB5A0 00000000
1000012A 00001111
D3000000 00000000
B81FB940 00000000
1000012A 00001111
D2000000 00000000

[3rd ATK 6th PKMN Modifier v1.4]
481FB58C 08200000
481FB92C 08200000
B81FB5A0 00000000
10000138 00001111
D3000000 00000000
B81FB940 00000000
10000138 00001111
D2000000 00000000

[4th ATK 6th PKMN Modifier v1.4]
481FB58C 08200000
481FB92C 08200000
B81FB5A0 00000000
10000146 00001111
D3000000 00000000
B81FB940 00000000
10000146 00001111
D2000000 00000000

[Refill HP 6th PKMN (Press L) v1.4]
DD000000 00000200
481FB58C 08200000
481FB92C 08200000
B81FB5A0 00000000
DA000000 0000000E
D7000000 00000010
D3000000 00000000
B81FB940 00000000
D7000000 00000010
D2000000 00000000

[Max HP 6th Pokemon (Press R) v1.4]
DD000000 00000100
481FB58C 08200000
481FB92C 08200000
B81FB5A0 00000000
1000000E 000003E7
D3000000 00000000
B81FB940 00000000
1000000E 000003E7
D2000000 00000000

[Refill All AP 6th PKMN (Press L) v1.4]
DD000000 00000200
481FB58C 08200000
481FB92C 08200000
B81FB5A0 00000000
C0000000 00000002
C0000000 00000004
DB000000 00000119
D8000000 00000118
D8000000 0000011D
DC000000 0000000C
D1000000 00000000
D3000000 00000000
B81FB940 00000000
D1000000 00000000
D2000000 00000000

[Max All AP 6th PKMN (Press R) v1.4]
DD000000 00000100
481FB58C 08200000
481FB92C 08200000
B81FB5A0 00000000
C0000000 00000002
C0000000 00000004
20000119 00000063
2000011F 00000063
DC000000 0000000E
D1000000 00000000
D3000000 00000000
B81FB940 00000000
D1000000 00000000
D2000000 00000000

[Refill AP 1st ATK 6th PKMN (Press UP+L) v1.4]
DD000000 00000240
481FB58C 08200000
481FB92C 08200000
B81FB5A0 00000000
DB000000 00000119
D8000000 00000118
D8000000 0000011D
D3000000 00000000
B81FB940 00000000
D8000000 00000118
D8000000 0000011D
D2000000 00000000

[Max AP 1st ATK 6th PKMN (Press UP+R) v1.4]
DD000000 00000140
481FB58C 08200000
481FB92C 08200000
B81FB5A0 00000000
20000119 00000063
2000011F 00000063
D3000000 00000000
B81FB940 00000000
20000119 00000063
2000011F 00000063
D2000000 00000000

[Refill AP 2nd ATK 6th PKMN (Press RIGHT+L) v1.4]
DD000000 00000210
481FB58C 08200000
481FB92C 08200000
B81FB5A0 00000000
DB000000 00000127
D8000000 00000126
D8000000 0000012B
D3000000 00000000
B81FB940 00000000
D8000000 00000126
D8000000 0000012B
D2000000 00000000

[Max AP 2nd ATK 6th PKMN (Press RIGHT+R) v1.4]
DD000000 00000110
481FB58C 08200000
481FB92C 08200000
B81FB5A0 00000000
20000127 00000063
2000012D 00000063
D3000000 00000000
B81FB940 00000000
20000127 00000063
2000012D 00000063
D2000000 00000000

[Refill AP 3rd ATK 6th PKMN (Press DOWN+L) v1.4]
DD000000 00000280
481FB58C 08200000
481FB92C 08200000
B81FB5A0 00000000
DB000000 00000135
D8000000 00000134
D8000000 00000139
D3000000 00000000
B81FB940 00000000
D8000000 00000134
D8000000 00000139
D2000000 00000000

[Max AP 3rd ATK 6th PKMN (Press DOWN+R) v1.4]
DD000000 00000180
481FB58C 08200000
481FB92C 08200000
B81FB5A0 00000000
20000135 00000063
2000013B 00000063
D3000000 00000000
B81FB940 00000000
20000135 00000063
2000013B 00000063
D2000000 00000000

[Refill AP 4th ATK 6th PKMN (Press LEFT+L) v1.4]
DD000000 00000220
481FB58C 08200000
481FB92C 08200000
B81FB5A0 00000000
DB000000 00000143
D8000000 00000142
D8000000 00000147
D3000000 00000000
B81FB940 00000000
D8000000 00000142
D8000000 00000147
D2000000 00000000

[Max AP 4th ATK 6th PKMN (Press LEFT+R) v1.4]
DD000000 00000120
481FB58C 08200000
481FB92C 08200000
B81FB5A0 00000000
20000143 00000063
20000149 00000063
D3000000 00000000
B81FB940 00000000
20000143 00000063
20000149 00000063
D2000000 00000000

[Any Pokemon can mega evolve]
68000178 00000000
B8000178 00000000
20000EDD 00000001
D2000000 00000000

[(Hold R)Walkthrough Wall v1.4]
D3000000 00000000
00579820 E1A01000
00579824 E12FFF1E
00579828 E1A06000
0057982C E12FFF1E
DD000000 00000100
00579820 E3A01000
00579824 E12FFF1E
00579828 E3A06000
0057982C E12FFF1E
D0000000 00000000
580BB414 E1A01000
080BB414 EBF83D01
D0000000 00000000
580B87F8 E1A06000
080B87F8 EBF8480A
D0000000 00000000

[Egg Instant Hatch v1.4]
D3000000 00000000
58066EF0 0A000007
08066EF0 EA000007
D0000000 00000000

[100%Catch v1.4]
D3000000 00000000
580737A4 0A000004
50579810 00000000
00579810 00000010
D0000000 00000000
D0000000 00000000
60579810 00000000
D9000000 00579810
D4000000 FFFFFFFF
D6000000 00579810
D0000000 00000000
D3000000 00000000
50579810 00000001
080737A4 EA000004
D0000000 00000000

[Catch Trainer's Pokemon v1.4]
D3000000 00000000
58075858 E5D00000
50579814 00000000
00579814 00000010
D0000000 00000000
D0000000 00000000
60579814 00000000
D9000000 00579814
D4000000 FFFFFFFF
D6000000 00579814
D0000000 00000000
D3000000 00000000
50579814 00000001
08075858 E3A0B000
0807585C E5C0B000
08075860 EA00000E
D0000000 00000000

[Access the PC from anywhere v1.4]
D3000000 00000000
003D8744 E3A00014
DD000000 00000200
003D8744 E3A00004
D0000000 00000000

[(START+L)Wild Pokemon Shiny, (START+R)Disable v1.4]
6057984C E12FFF1E
00579840 E5C70004
00579844 EA000000
00579848 E5C71006
0057984C E12FFF1E
D0000000 00000000
580DEF90 E5C70004
080DEF90 EBF7AE2A
D0000000 00000000
DD000000 00000208
00579844 E3A01001
D0000000 00000000
DD000000 00000108
00579844 EA000000
D0000000 00000000

[Walk&run Speed x2 v1.4]
004E2D08 40A49249
004E3308 41100000
004E3414 40249249
004E3418 3EA49236
58084760 03A05007
080845E8 13A05003
080845EC 03A05002
0808475C 13A05005
08084760 03A05003
D0000000 00000000

[Instant Messages v1.4]
00419A2C E3A04003
0041A29C E3A05003

[PSS Icon modifier]
08C81347 000000AA